test_run_dir/TPU_test_should_mult_one_cycle/ChiselTPU.vcd
$date
2023-03-14T06:09+0000
$end
$version
0.2
$end
$comment

$end
$timescale 1ns  $end
$scope module ChiselTPU $end
 $var wire 32 ! myOut_1_2 $end
 $var wire 32 " myOut_1_1 $end
 $var wire 32 # myOut_1_0 $end
 $var wire 32 & io_a_bits_0_0 $end
 $var wire 32 ' paddedA_1_0 $end
 $var wire 32 ( paddedA_1_1 $end
 $var wire 32 ) paddedA_1_2 $end
 $var wire 32 * paddedA_1_3 $end
 $var wire 1 + io_a_ready $end
 $var wire 32 , io_b_bits_0_2 $end
 $var wire 3 - state $end
 $var wire 32 . io_b_bits_0_1 $end
 $var wire 32 / io_b_bits_0_0 $end
 $var wire 32 2 paddedB_3_3 $end
 $var wire 32 3 paddedB_3_1 $end
 $var wire 32 4 paddedB_3_2 $end
 $var wire 32 5 paddedB_3_0 $end
 $var wire 1 6 b_ready $end
 $var wire 1 7 a_ready $end
 $var wire 32 8 myOut_0_2 $end
 $var wire 32 9 myOut_0_1 $end
 $var wire 32 : myOut_0_0 $end
 $var wire 32 ; myOut_2_1 $end
 $var wire 32 < myOut_2_0 $end
 $var wire 32 = myOut_2_2 $end
 $var wire 1 @ allowReadB $end
 $var wire 32 A io_a_bits_1_2 $end
 $var wire 32 B io_a_bits_1_1 $end
 $var wire 32 C io_a_bits_1_0 $end
 $var wire 32 D paddedA_0_1 $end
 $var wire 32 E paddedA_0_2 $end
 $var wire 32 F paddedA_0_3 $end
 $var wire 32 G paddedA_0_0 $end
 $var wire 32 L paddedB_2_2 $end
 $var wire 32 M paddedB_2_3 $end
 $var wire 32 N paddedB_2_0 $end
 $var wire 32 O paddedB_2_1 $end
 $var wire 1 P printf_9 $end
 $var wire 1 Q printf_8 $end
 $var wire 1 R printf_7 $end
 $var wire 1 S printf_6 $end
 $var wire 1 T printf_1 $end
 $var wire 1 U printf_5 $end
 $var wire 1 V printf_4 $end
 $var wire 1 W printf_3 $end
 $var wire 1 X printf_2 $end
 $var wire 1 Y printf $end
 $var wire 32 Z io_a_bits_0_2 $end
 $var wire 32 [ io_a_bits_0_1 $end
 $var wire 32 \ cycleIdx $end
 $var wire 1 ] printf_24 $end
 $var wire 1 ^ printf_25 $end
 $var wire 1 _ printf_26 $end
 $var wire 1 ` printf_20 $end
 $var wire 1 a printf_21 $end
 $var wire 1 b printf_22 $end
 $var wire 1 c printf_23 $end
 $var wire 1 d printf_17 $end
 $var wire 1 e printf_18 $end
 $var wire 1 f printf_19 $end
 $var wire 1 g printf_13 $end
 $var wire 1 h printf_14 $end
 $var wire 1 i printf_15 $end
 $var wire 1 j printf_16 $end
 $var wire 1 k printf_10 $end
 $var wire 1 l printf_11 $end
 $var wire 1 m printf_12 $end
 $var wire 1 n io_b_ready $end
 $var wire 1 p io_a_valid $end
 $var wire 32 s io_a_bits_2_2 $end
 $var wire 32 t io_a_bits_2_1 $end
 $var wire 32 u io_a_bits_2_0 $end
 $var wire 32 v paddedB_1_3 $end
 $var wire 32 w paddedB_1_1 $end
 $var wire 32 x paddedB_1_2 $end
 $var wire 32 y paddedB_1_0 $end
 $var wire 1 z wrap_wrap $end
 $var wire 32 | io_b_bits_2_1 $end
 $var wire 32 } io_b_bits_2_0 $end
 $var wire 32 ~ io_b_bits_2_2 $end
 $var wire 32 "! slicedA_1_1 $end
 $var wire 32 "" slicedA_1_0 $end
 $var wire 1 "# actReg $end
 $var wire 32 "( paddedB_0_2 $end
 $var wire 32 "* paddedB_0_3 $end
 $var wire 32 ", paddedB_0_0 $end
 $var wire 32 ". paddedB_0_1 $end
 $var wire 32 "3 io_b_bits_1_2 $end
 $var wire 32 "4 paddedOut_3_3 $end
 $var wire 32 "5 io_b_bits_1_1 $end
 $var wire 32 "6 paddedOut_3_2 $end
 $var wire 32 "7 paddedOut_3_1 $end
 $var wire 32 "8 paddedOut_3_0 $end
 $var wire 32 "9 io_b_bits_1_0 $end
 $var wire 32 "@ io_out_0_0 $end
 $var wire 32 "A io_out_0_1 $end
 $var wire 32 "B io_out_0_2 $end
 $var wire 32 "C slicedB_1_1 $end
 $var wire 32 "D slicedB_1_0 $end
 $var wire 32 "E paddedOut_2_3 $end
 $var wire 32 "F paddedOut_2_2 $end
 $var wire 32 "G paddedOut_2_1 $end
 $var wire 32 "H paddedOut_2_0 $end
 $var wire 32 "I slicedOut_0_0 $end
 $var wire 32 "J slicedOut_0_1 $end
 $var wire 1 "Q systArr $end
 $var wire 32 "R slicedA_0_1 $end
 $var wire 32 "S slicedA_0_0 $end
 $var wire 32 "X paddedOut_1_3 $end
 $var wire 32 "Y paddedOut_1_2 $end
 $var wire 32 "Z paddedOut_1_1 $end
 $var wire 32 "[ paddedOut_1_0 $end
 $var wire 32 "\ slicedOut_1_0 $end
 $var wire 32 "] slicedOut_1_1 $end
 $var wire 1 "^ enabledSyst $end
 $var wire 1 "_ clock $end
 $var wire 32 "` paddedA_3_2 $end
 $var wire 32 "a paddedA_3_3 $end
 $var wire 32 "b paddedA_3_0 $end
 $var wire 32 "c paddedA_3_1 $end
 $var wire 32 "h io_out_2_0 $end
 $var wire 32 "i io_out_2_1 $end
 $var wire 32 "j io_out_2_2 $end
 $var wire 1 "k counterFlag $end
 $var wire 4 "l boundK $end
 $var wire 5 "m boundM $end
 $var wire 32 "n paddedOut_0_3 $end
 $var wire 5 "o boundN $end
 $var wire 32 "p paddedOut_0_2 $end
 $var wire 32 "q paddedOut_0_1 $end
 $var wire 32 "r paddedOut_0_0 $end
 $var wire 1 "s reset $end
 $var wire 3 "u sliceCycle $end
 $var wire 4 "w cycle $end
 $var wire 32 "x paddedA_2_3 $end
 $var wire 32 "y paddedA_2_0 $end
 $var wire 32 "z paddedA_2_1 $end
 $var wire 32 "{ paddedA_2_2 $end
 $var wire 1 "| io_b_valid $end
 $var wire 32 "} io_out_1_0 $end
 $var wire 32 "~ io_out_1_1 $end
 $var wire 32 #! io_out_1_2 $end
 $var wire 32 #" slicedB_0_1 $end
 $var wire 32 ## slicedB_0_0 $end
  $scope module systArr $end
   $var wire 32 $ b_reg_1_0 $end
   $var wire 32 % b_reg_1_1 $end
   $var wire 32 0 cms_reg_1_1 $end
   $var wire 32 1 cms_reg_1_0 $end
   $var wire 32 > b_reg_0_0 $end
   $var wire 32 ? b_reg_0_1 $end
   $var wire 32 H cms_reg_0_0 $end
   $var wire 32 I cms_reg_0_1 $end
   $var wire 32 J a_reg_0_1 $end
   $var wire 32 K a_reg_0_0 $end
   $var wire 1 { io_b_readingin $end
   $var wire 1 "$ printf_4 $end
   $var wire 1 "% printf_5 $end
   $var wire 1 "& printf_2 $end
   $var wire 1 "' printf_3 $end
   $var wire 1 ") printf_8 $end
   $var wire 1 "+ printf_9 $end
   $var wire 1 "- printf_6 $end
   $var wire 1 "/ printf_7 $end
   $var wire 1 "0 printf_1 $end
   $var wire 1 "1 io_en $end
   $var wire 1 "2 printf $end
   $var wire 32 ": cmp_input_1_1 $end
   $var wire 32 "; cmp_input_1_0 $end
   $var wire 1 "< printf_11 $end
   $var wire 1 "= printf_10 $end
   $var wire 32 "> io_b_in_1_0 $end
   $var wire 32 "? io_b_in_1_1 $end
   $var wire 32 "K io_a_in_0 $end
   $var wire 32 "L io_a_in_1 $end
   $var wire 32 "M cmp_input_0_0 $end
   $var wire 32 "N io_out_1 $end
   $var wire 32 "O io_out_0 $end
   $var wire 32 "P cmp_input_0_1 $end
   $var wire 32 "V io_b_in_0_0 $end
   $var wire 32 "W io_b_in_0_1 $end
   $var wire 32 "f a_reg_1_1 $end
   $var wire 32 "g a_reg_1_0 $end
   $var wire 1 "t clock $end
   $var wire 1 "v reset $end
  $upscope $end
  $scope module actReg $end
   $var wire 3 o io_index $end
   $var wire 32 q io_a_out_1 $end
   $var wire 32 r io_a_out_0 $end
   $var wire 32 "T io_a_1_1 $end
   $var wire 32 "U io_a_1_0 $end
   $var wire 32 "d io_a_0_1 $end
   $var wire 32 "e io_a_0_0 $end
  $upscope $end
$upscope $end
$enddefinitions $end
$dumpvars
b00000000000000000000000000000000 ".
b00000000000000000000000000000000 *
b00000000000000000000000000000000 ",
b00000000000000000000000000000000 ,
b00000000000000000000000000000000 "3
b00000000000000000000000000000000 '
b00000000000000000000000000000000 &
06
b00000000000000000000000000000000 )
07
b00000000000000000000000000000000 (
b00000000000000000000000000000000 #
b0000 "l
b00000000000000000000000000000000 "
b00000000000000000000000000000000 %
b00000000000000000000000000000000 $
b00000000000000000000000000000000 "*
b00000000000000000000000000000000 !
b00000000000000000000000000000000 "(
b00000000000000000000000000000000 "?
0@
b00000000000000000000000000000000 ;
b00000000000000000000000000000000 ">
b00000000000000000000000000000000 :
b0000 "w
b00000000000000000000000000000000 =
b00000000000000000000000000000000 <
b00000000000000000000000000000000 "C
b00000000000000000000000000000000 "B
b00000000000000000000000000000000 ##
b00000000000000000000000000000000 "A
b00000000000000000000000000000000 #"
b00000000000000000000000000000000 9
b00000000000000000000000000000000 "@
b00000000000000000000000000000000 #!
b00000000000000000000000000000000 8
b00000000000000000000000000000000 "7
b00000000000000000000000000000000 3
b00000000000000000000000000000000 "6
b00000000000000000000000000000000 2
b00000000000000000000000000000000 "5
b00000000000000000000000000000000 5
b00000000000000000000000000000000 "4
b00000000000000000000000000000000 4
b00000000000000000000000000000000 ";
b00000000000000000000000000000000 /
b00000000000000000000000000000000 ":
b00000000000000000000000000000000 .
b00000000000000000000000000000000 "9
b00000000000000000000000000000000 1
b00000000000000000000000000000000 "8
b00000000000000000000000000000000 0
b00000000000000000000000000000000 "O
0P
b00000000000000000000000000000000 "N
0Q
b00000000000000000000000000000000 "M
0R
b00000000000000000000000000000000 "L
0S
b00000000000000000000000000000000 "S
0T
b00000000000000000000000000000000 "R
0U
0V
b00000000000000000000000000000000 "P
0W
b00000000000000000000000000000000 "G
0X
b00000000000000000000000000000000 "F
0Y
b00000000000000000000000000000000 "E
b00000000000000000000000000000000 "D
b00000000000000000000000000000000 "K
b00000000000000000000000000000000 "J
0]
b00000000000000000000000000000000 "I
0^
b00000000000000000000000000000000 "H
0_
0`
0a
b00000000000000000000000000000000 "]
0b
b00000000000000000000000000000000 "\
0c
b00000000000000000000000000000000 "c
0d
b00000000000000000000000000000000 "b
0e
b00000000000000000000000000000000 "a
0f
b00000000000000000000000000000000 "`
0g
b00000000000000000000000000000000 "W
0h
b00000000000000000000000000000000 "V
0i
b00000000000000000000000000000000 "U
0j
b00000000000000000000000000000000 "T
0k
b00000000000000000000000000000000 "[
0l
b00000000000000000000000000000000 "Z
0m
b00000000000000000000000000000000 "Y
0n
b00000000000000000000000000000000 "X
0p
0z
0{
0"#
0"$
0"%
0"&
b00000000000000000000000000000000 ""
0"'
b00000000000000000000000000000000 "!
0")
0"+
0"-
0"/
0"0
0"1
0"2
0"<
0"=
0"Q
b000 "u
b000 o
0"^
0"_
b00000000000000000000000000000000 ~
0"k
b00000000000000000000000000000000 "n
0"s
0"t
0"v
b00000000000000000000000000000000 "r
b00000000000000000000000000000000 "q
b00000000000000000000000000000000 "p
b00000000000000000000000000000000 "g
b00000000000000000000000000000000 "f
b00000000000000000000000000000000 "e
0"|
b00000000000000000000000000000000 "d
b00000000000000000000000000000000 "j
b00000000000000000000000000000000 "i
b00000000000000000000000000000000 "h
b00000000000000000000000000000000 "~
b00000000000000000000000000000000 "}
b00000000000000000000000000000000 }
b00000000000000000000000000000000 |
b00000000000000000000000000000000 w
b00000000000000000000000000000000 v
b00000000000000000000000000000000 y
b00000000000000000000000000000000 x
b00000000000000000000000000000000 s
b00000000000000000000000000000000 r
b00000000000000000000000000000000 u
b00000000000000000000000000000000 t
b00000000000000000000000000000000 "{
b00000000000000000000000000000000 "z
b00000000000000000000000000000000 "y
b00000000000000000000000000000000 q
b00000000000000000000000000000000 "x
b00000000000000000000000000000000 K
b00000000000000000000000000000000 J
b00000000000000000000000000000000 M
b00000000000000000000000000000000 L
b00000000000000000000000000000000 G
b00000 "m
b00000000000000000000000000000000 F
b00000000000000000000000000000000 I
b00000 "o
b00000000000000000000000000000000 H
b00000000000000000000000000000000 C
b00000000000000000000000000000000 B
b00000000000000000000000000000000 E
b00000000000000000000000000000000 D
b00000000000000000000000000000000 ?
b00000000000000000000000000000000 >
b000 -
b00000000000000000000000000000000 A
b00000000000000000000000000000000 [
b00000000000000000000000000000000 Z
b00000000000000000000000000000000 \
0+
b00000000000000000000000000000000 O
b00000000000000000000000000000000 N
$end
#0
1"s
1"v
b011 o
#1
1"t
16
17
1+
1"_
1n
#6
b00000000000000000000000000000100 A
b00000000000000000000000000000101 B
b00000000000000000000000000000011 "d
b00000000000000000000000000000001 C
b00000000000000000000000000000010 "e
b00000000000000000000000000000011 "3
0"s
0"t
b00000000000000000000000000000001 "5
0"v
b00000000000000000000000000000100 "9
b00000000000000000000000000000001 Z
1"|
b00000000000000000000000000000011 [
b00000000000000000000000000000010 &
b00000000000000000000000000000101 ,
b00000000000000000000000000000101 .
b00000000000000000000000000000010 /
1p
b00000000000000000000000000000101 "T
b00000000000000000000000000000001 s
b00000000000000000000000000000001 "U
b00000000000000000000000000000100 t
b00000000000000000000000000000011 u
b00000000000000000000000000000011 |
b00000000000000000000000000000010 }
0"_
b00000000000000000000000000000001 ~
#11
b00000000000000000000000000000000 "d
b00000000000000000000000000000000 "e
b00000000000000000000000000000011 D
b00000000000000000000000000000001 E
b00000000000000000000000000000001 '
b00000000000000000000000000000010 G
b00000000000000000000000000000101 (
b00000000000000000000000000000100 )
1"k
0+
b001 -
b00000000000000000000000000000000 "T
1"t
b00000000000000000000000000000000 "U
b00000000000000000000000000000010 "V
b00000000000000000000000000000101 "W
07
b00000000000000000000000000000011 "y
b00000000000000000000000000000100 "z
b00000000000000000000000000000001 "{
b00000000000000000000000000000100 ">
b00000000000000000000000000000001 "?
1"_
#16
0"t
0"_
#21
1@
b00000000000000000000000000000001 ""
b00000000000000000000000000000011 "d
b00000000000000000000000000000010 "e
b00000000000000000000000000000101 "(
0"k
b00000000000000000000000000000010 ",
b00000000000000000000000000000001 L
b00000000000000000000000000000101 ".
b00000000000000000000000000000010 N
b00000000000000000000000000000011 O
1"t
b00000000000000000000000000000000 ">
b00000000000000000000000000000000 "?
0n
b00000000000000000000000000000011 "R
b00000000000000000000000000000010 "S
b00000000000000000000000000000101 "T
b00000000000000000000000000000001 "U
b00000000000000000000000000000000 "V
b00000000000000000000000000000000 "W
06
b00000000000000000000000000000001 w
b00000000000000000000000000000011 x
b00000000000000000000000000000100 y
1{
1"_
b00000000000000000000000000000101 "!
#26
0"t
0"_
#31
b00000000000000000000000000000010 ##
b00000000000000000000000000000001 "C
b00000000000000000000000000000100 "D
b0010 "l
b00010 "m
b010 -
b00010 "o
1"t
b111 "u
b00000000000000000000000000000010 "V
b00000000000000000000000000000101 "W
b00000000000000000000000000000100 ">
b00000000000000000000000000000001 "?
1"_
b00000000000000000000000000000101 #"
#36
0"t
0"_
#41
b00000000000000000000000000000000 ""
b00000000000000000000000000000000 "d
b00000000000000000000000000000001 "e
1"k
b0000 "l
b00000 "m
b00000 "o
1"t
b000 "u
b00000000000000000000000000000000 ">
b00000000000000000000000000000000 "?
b00000000000000000000000000000000 #"
b00000000000000000000000000000001 ##
b00000000000000000000000000000000 "C
b00000000000000000000000000000000 "D
b011 -
b00000000000000000000000000000000 "R
b00000000000000000000000000000001 "S
b00000000000000000000000000000000 "T
b00000000000000000000000000000000 "U
b00000000000000000000000000000001 "V
b00000000000000000000000000000000 "W
1"_
b00000000000000000000000000000000 "!
#46
0"t
0"_
#51
b00000000000000000000000000000001 ""
b00000000000000000000000000000010 ##
b00000000000000000000000000000001 "C
b00000000000000000000000000000100 "D
b00000000000000000000000000000011 "d
b00000000000000000000000000000010 "e
1"1
b00000000000000000000000000000011 "R
b00000000000000000000000000000010 "S
b00000000000000000000000000000101 "T
1"t
b00000000000000000000000000000001 "U
b00000000000000000000000000000010 "V
b00000000000000000000000000000101 "W
b00000000000000000000000000000100 ">
1"^
b00000000000000000000000000000001 "?
1"_
b00000000000000000000000000000101 "!
b00000000000000000000000000000101 #"
#56
0"t
0"_
#61
b00000000000000000000000000000100 $
b00000000000000000000000000000001 %
b00000000000000000000000000000010 "K
b00000000000000000000000000000100 "M
b010 o
b00000000000000000000000000000010 r
1"t
b0001 "w
b00000000000000000000000000000001 \
1"_
b00000000000000000000000000000010 >
b00000000000000000000000000000101 ?
#66
0"t
0"_
#71
0@
b00000000000000000000000000000100 H
b00000000000000000000000000000001 "K
b00000000000000000000000000000011 "L
b00000000000000000000000000000010 K
b00000000000000000000000000000010 "M
b00000000000000000000000000001010 "P
b001 o
b00000000000000000000000000000011 q
b00000000000000000000000000000001 r
1"t
b0010 "w
b00000000000000000000000000010000 ";
0{
b00000000000000000000000000000010 \
1"_
#76
0"t
0"_
#81
b00000000000000000000000000000011 "g
b00000000000000000000000000000010 H
b00000000000000000000000000001010 I
b00000000000000000000000000000000 "K
b00000000000000000000000000000010 J
b00000000000000000000000000000101 "L
b00000000000000000000000000000001 K
b00000000000000000000000000000000 "M
b00000000000000000000000000010000 "O
b00000000000000000000000000000101 "P
b000 o
b00000000000000000000000000010000 1
b00000000000000000000000000000101 q
b00000000000000000000000000000000 r
1"t
b0011 "w
b00000000000000000000000000001101 ":
b00000000000000000000000000010110 ";
b00000000000000000000000000000000 \
1"_
#86
0"t
0"_
#91
b00000000000000000000000000000011 "f
b00000000000000000000000000000101 "g
b00000000000000000000000000000000 H
b00000000000000000000000000000101 I
b00000000000000000000000000000001 J
b00000000000000000000000000000000 "L
b00000000000000000000000000000000 K
b00000000000000000000000000001101 "N
b00000000000000000000000000010110 "O
b00000000000000000000000000000000 "P
b111 o
b00000000000000000000000000001101 0
b00000000000000000000000000010110 1
b00000000000000000000000000000000 q
1"t
b0100 "w
b00000000000000000000000000001010 ":
b00000000000000000000000000000000 ";
b00000000000000000000000000010000 "\
b00000000000000000000000000000001 \
1"_
#96
0"t
0"_
#101
b00000000000000000000000000000101 "f
b00000000000000000000000000000000 "g
b00000000000000000000000000010000 "I
b00000000000000000000000000000000 I
b00000000000000000000000000000000 J
b00000000000000000000000000001010 "N
b00000000000000000000000000000000 "O
b110 o
b00000000000000000000000000001010 0
b00000000000000000000000000000000 1
1"t
b0101 "w
b00000000000000000000000000000000 ":
b00000000000000000000000000010110 "\
b00000000000000000000000000001101 "]
b00000000000000000000000000000010 \
1"_
#106
0"t
0"_
#111
b00000000000000000000000000000000 0
1"t
b00000000000000000000000000000000 "f
b0110 "w
b00000000000000000000000000001101 "J
b00000000000000000000000000001010 "]
b00000000000000000000000000000011 \
b00000000000000000000000000000000 "N
1"_
b101 o
#116
0"t
0"_
#121
1"t
b0111 "w
b00000000000000000000000000000100 \
1"_
b100 o
#126
0"t
0"_
#131
1"t
b1000 "w
b00000000000000000000000000000101 \
1"_
b011 o
#136
0"t
0"_
#141
b00000000000000000000000000000010 r
1"t
b1001 "w
b00000000000000000000000000000010 "K
1z
b00000000000000000000000000000100 "M
b00000000000000000000000000000110 \
1"_
b010 o
#146
0"t
0"_
#151
b00000000000000000000000000000100 H
0"k
b00000000000000000000000000000010 K
b00000000000000000000000000001101 "q
b00000000000000000000000000010000 "r
1"t
b0000 "w
b00000000000000000000000000000100 ";
b00000000000000000000000000010110 "}
b00000000000000000000000000000000 \
b00000000000000000000000000001010 "~
b00000000000000000000000000010000 "@
b00000000000000000000000000001101 "A
b00000000000000000000000000001010 "
b00000000000000000000000000010110 #
b00000000000000000000000000000000 "K
b00000000000000000000000000000000 "M
b010 -
b00000000000000000000000000001010 "P
b011 o
b00000000000000000000000000000000 r
b00000000000000000000000000001010 "Z
b00000000000000000000000000001101 9
b00000000000000000000000000010110 "[
b00000000000000000000000000010000 :
0z
1"_
#156
0"t
0"_
#161
b00000000000000000000000000000000 "I
b00000000000000000000000000000000 H
b00000000000000000000000000000000 "J
b00000000000000000000000000001010 I
1"k
b00000000000000000000000000000010 J
b0010 "l
b00000000000000000000000000000000 K
b011 -
b00000000000000000000000000000000 "P
0"1
b00000000000000000000000000000100 1
1"t
b001 "u
b00000000000000000000000000001010 ":
b00000000000000000000000000000000 ";
b00000000000000000000000000000000 "\
b00000000000000000000000000000000 "]
0"^
1"_
#166
0"t
0"_
#171
1@
b00000000000000000000000000000100 ""
b00000000000000000000000000000000 "C
b00000000000000000000000000000000 "D
b00000000000000000000000000000000 "d
b00000000000000000000000000000001 "e
b00000000000000000000000000000000 I
1"1
b00000000000000000000000000000000 "R
b00000000000000000000000000000000 1
b00000000000000000000000000000001 "S
b00000000000000000000000000000000 "T
1"t
b00000000000000000000000000000100 "U
b00000000000000000000000000000011 "W
b00000000000000000000000000000000 ":
1{
b00000000000000000000000000000000 ">
1"^
b00000000000000000000000000000000 "?
1"_
b00000000000000000000000000000000 "!
b00000000000000000000000000000011 #"
#176
0"t
0"_
#181
b00000000000000000000000000000000 $
b00000000000000000000000000000000 %
b00000000000000000000000000000001 "K
b00000000000000000000000000000000 J
b00000000000000000000000000000010 "M
b010 o
b00000000000000000000000000000001 r
1"t
b0001 "w
b00000000000000000000000000000001 \
1"_
b00000000000000000000000000000011 ?
#186
0"t
0"_
#191
0@
b00000000000000000000000000000010 H
b00000000000000000000000000000100 "K
b00000000000000000000000000000001 K
b00000000000000000000000000001000 "M
b00000000000000000000000000000011 "P
b001 o
b00000000000000000000000000000100 r
1"t
b0010 "w
b00000000000000000000000000000010 ";
0{
b00000000000000000000000000000010 \
1"_
#196
0"t
0"_
#201
b00000000000000000000000000001000 H
b00000000000000000000000000000011 I
b00000000000000000000000000000000 "K
b00000000000000000000000000000001 J
b00000000000000000000000000000100 K
b00000000000000000000000000000000 "M
b00000000000000000000000000000010 "O
b00000000000000000000000000001100 "P
b000 o
b00000000000000000000000000000010 1
b00000000000000000000000000000000 r
1"t
b0011 "w
b00000000000000000000000000000011 ":
b00000000000000000000000000001000 ";
b00000000000000000000000000000000 \
1"_
#206
0"t
0"_
#211
b00000000000000000000000000000000 H
b00000000000000000000000000001100 I
b00000000000000000000000000000100 J
b00000000000000000000000000000000 K
b00000000000000000000000000000011 "N
b00000000000000000000000000001000 "O
b00000000000000000000000000000000 "P
b111 o
b00000000000000000000000000000011 0
b00000000000000000000000000001000 1
1"t
b0100 "w
b00000000000000000000000000001100 ":
b00000000000000000000000000000000 ";
b00000000000000000000000000000010 "\
b00000000000000000000000000000001 \
1"_
#216
0"t
0"_
#221
b00000000000000000000000000000010 "I
b00000000000000000000000000000000 I
b00000000000000000000000000000000 J
b00000000000000000000000000001100 "N
b00000000000000000000000000000000 "O
b110 o
b00000000000000000000000000001100 0
b00000000000000000000000000000000 1
1"t
b0101 "w
b00000000000000000000000000000000 ":
b00000000000000000000000000001000 "\
b00000000000000000000000000000011 "]
b00000000000000000000000000000010 \
1"_
#226
0"t
0"_
#231
b00000000000000000000000000000000 0
1"t
b0110 "w
b00000000000000000000000000000011 "J
b00000000000000000000000000001100 "]
b00000000000000000000000000000011 \
b00000000000000000000000000000000 "N
1"_
b101 o
#236
0"t
0"_
#241
1"t
b0111 "w
b00000000000000000000000000000100 \
1"_
b100 o
#246
0"t
0"_
#251
1"t
b1000 "w
b00000000000000000000000000000101 \
1"_
b011 o
#256
0"t
0"_
#261
b00000000000000000000000000000001 r
1"t
b1001 "w
b00000000000000000000000000000001 "K
1z
b00000000000000000000000000000010 "M
b00000000000000000000000000000110 \
1"_
b010 o
#266
0"t
0"_
#271
b00000000000000000000000000000010 H
0"k
b00000000000000000000000000000001 K
b00000000000000000000000000010000 "q
b00000000000000000000000000010010 "r
1"t
b0000 "w
b00000000000000000000000000000010 ";
b00000000000000000000000000011110 "}
b00000000000000000000000000000000 \
b00000000000000000000000000010110 "~
b00000000000000000000000000010010 "@
b00000000000000000000000000010000 "A
b00000000000000000000000000010110 "
b00000000000000000000000000011110 #
b00000000000000000000000000000000 "K
b00000000000000000000000000000000 "M
b010 -
b00000000000000000000000000000011 "P
b011 o
b00000000000000000000000000000000 r
b00000000000000000000000000010110 "Z
b00000000000000000000000000010000 9
b00000000000000000000000000011110 "[
b00000000000000000000000000010010 :
0z
1"_
#276
0"t
0"_
#281
b00000000000000000000000000000000 "I
b00000000000000000000000000000000 H
b00000000000000000000000000000000 "J
b00000000000000000000000000000011 I
1"k
b00000000000000000000000000000001 J
b0000 "l
b00000000000000000000000000000000 K
b00010 "m
b011 -
b00000000000000000000000000000000 "P
0"1
b00000000000000000000000000000010 1
1"t
b010 "u
b00000000000000000000000000000011 ":
b00000000000000000000000000000000 ";
b00000000000000000000000000000000 "\
b00000000000000000000000000000000 "]
0"^
1"_
#286
0"t
0"_
#291
1@
b00000000000000000000000000000000 ""
b00000000000000000000000000000001 "C
b00000000000000000000000000000100 "D
b00000000000000000000000000000100 "d
b00000000000000000000000000000011 "e
b00000000000000000000000000000000 I
1"1
b00000000000000000000000000000100 "R
b00000000000000000000000000000000 1
b00000000000000000000000000000011 "S
1"t
b00000000000000000000000000000000 "U
b00000000000000000000000000000101 "W
b00000000000000000000000000000000 ":
1{
b00000000000000000000000000000100 ">
1"^
b00000000000000000000000000000001 "?
1"_
b00000000000000000000000000000101 #"
#296
0"t
0"_
#301
b00000000000000000000000000000100 $
b00000000000000000000000000000001 %
b00000000000000000000000000000011 "K
b00000000000000000000000000000000 J
b00000000000000000000000000000110 "M
b010 o
b00000000000000000000000000000011 r
1"t
b0001 "w
b00000000000000000000000000000001 \
1"_
b00000000000000000000000000000101 ?
#306
0"t
0"_
#311
0@
b00000000000000000000000000000110 H
b00000000000000000000000000000000 "K
b00000000000000000000000000000100 "L
b00000000000000000000000000000011 K
b00000000000000000000000000000000 "M
b00000000000000000000000000001111 "P
b001 o
b00000000000000000000000000000100 q
b00000000000000000000000000000000 r
1"t
b0010 "w
b00000000000000000000000000010110 ";
0{
b00000000000000000000000000000010 \
1"_
#316
0"t
0"_
#321
b00000000000000000000000000000100 "g
b00000000000000000000000000000000 H
b00000000000000000000000000001111 I
b00000000000000000000000000000011 J
b00000000000000000000000000000000 "L
b00000000000000000000000000000000 K
b00000000000000000000000000010110 "O
b00000000000000000000000000000000 "P
b000 o
b00000000000000000000000000010110 1
b00000000000000000000000000000000 q
1"t
b0011 "w
b00000000000000000000000000010011 ":
b00000000000000000000000000000000 ";
b00000000000000000000000000000000 \
1"_
#326
0"t
0"_
#331
b00000000000000000000000000000100 "f
b00000000000000000000000000000000 "g
b00000000000000000000000000000000 I
b00000000000000000000000000000000 J
b00000000000000000000000000010011 "N
b00000000000000000000000000000000 "O
b111 o
b00000000000000000000000000010011 0
b00000000000000000000000000000000 1
1"t
b0100 "w
b00000000000000000000000000000000 ":
b00000000000000000000000000010110 "\
b00000000000000000000000000000001 \
1"_
#336
0"t
0"_
#341
b00000000000000000000000000000000 0
1"t
b00000000000000000000000000000000 "f
b0101 "w
b00000000000000000000000000010110 "I
b00000000000000000000000000000000 "\
b00000000000000000000000000010011 "]
b00000000000000000000000000000010 \
b00000000000000000000000000000000 "N
1"_
b110 o
#346
0"t
0"_
#351
1"t
b0110 "w
b00000000000000000000000000010011 "J
b00000000000000000000000000000000 "]
b00000000000000000000000000000011 \
1"_
b101 o
#356
0"t
0"_
#361
1"t
b0111 "w
b00000000000000000000000000000100 \
1"_
b100 o
#366
0"t
0"_
#371
1"t
b1000 "w
b00000000000000000000000000000101 \
1"_
b011 o
#376
0"t
0"_
#381
b00000000000000000000000000000011 r
1"t
b1001 "w
b00000000000000000000000000000011 "K
1z
b00000000000000000000000000000110 "M
b00000000000000000000000000000110 \
1"_
b010 o
#386
0"t
0"_
#391
b00000000000000000000000000010011 "G
b00000000000000000000000000010110 "H
b00000000000000000000000000010110 "h
b00000000000000000000000000010011 "i
b00000000000000000000000000000110 H
b00000000000000000000000000000000 "K
0"k
b00000000000000000000000000000011 K
b00000000000000000000000000000000 "M
b010 -
b00000000000000000000000000001111 "P
b011 o
b00000000000000000000000000000000 r
1"t
b0000 "w
b00000000000000000000000000000110 ";
0z
b00000000000000000000000000010011 ;
b00000000000000000000000000010110 <
b00000000000000000000000000000000 \
1"_
#396
0"t
0"_
#401
b00000000000000000000000000000000 "I
b00000000000000000000000000000000 H
b00000000000000000000000000000000 "J
b00000000000000000000000000001111 I
1"k
b00000000000000000000000000000011 J
b0010 "l
b00000000000000000000000000000000 K
b011 -
b00000000000000000000000000000000 "P
0"1
b00000000000000000000000000000110 1
1"t
b011 "u
b00000000000000000000000000001111 ":
b00000000000000000000000000000000 ";
0"^
1"_
#406
0"t
0"_
#411
1@
b00000000000000000000000000000000 "C
b00000000000000000000000000000000 "D
b00000000000000000000000000000000 "d
b00000000000000000000000000000001 "e
b00000000000000000000000000000000 I
1"1
b00000000000000000000000000000000 "R
b00000000000000000000000000000000 1
b00000000000000000000000000000001 "S
1"t
b00000000000000000000000000000011 "W
b00000000000000000000000000000000 ":
1{
b00000000000000000000000000000000 ">
1"^
b00000000000000000000000000000000 "?
1"_
b00000000000000000000000000000011 #"
#416
0"t
0"_
#421
b00000000000000000000000000000000 $
b00000000000000000000000000000000 %
b00000000000000000000000000000001 "K
b00000000000000000000000000000000 J
b00000000000000000000000000000010 "M
b010 o
b00000000000000000000000000000001 r
1"t
b0001 "w
b00000000000000000000000000000001 \
1"_
b00000000000000000000000000000011 ?
#426
0"t
0"_
#431
0@
b00000000000000000000000000000010 H
b00000000000000000000000000000000 "K
b00000000000000000000000000000001 K
b00000000000000000000000000000000 "M
b00000000000000000000000000000011 "P
b001 o
b00000000000000000000000000000000 r
1"t
b0010 "w
b00000000000000000000000000000010 ";
0{
b00000000000000000000000000000010 \
1"_
#436
0"t
0"_
