test_run_dir/TPU_test_should_mult_one_cycle/ChiselTPU.vcd
$date
2023-03-14T03:01+0000
$end
$version
0.2
$end
$comment

$end
$timescale 1ns  $end
$scope module ChiselTPU $end
 $var wire 32 ! cycleIdx $end
 $var wire 1 " printf_10 $end
 $var wire 1 # printf_11 $end
 $var wire 32 $ myOut_1_1 $end
 $var wire 32 % myOut_1_0 $end
 $var wire 1 & io_b_ready $end
 $var wire 1 ( io_a_valid $end
 $var wire 32 ) io_a_bits_0_0 $end
 $var wire 1 + clock $end
 $var wire 32 - paddedA_1_0 $end
 $var wire 32 . paddedA_1_1 $end
 $var wire 1 / io_a_ready $end
 $var wire 3 0 state $end
 $var wire 32 1 io_b_bits_0_1 $end
 $var wire 32 2 io_b_bits_0_0 $end
 $var wire 32 3 paddedB_1_1 $end
 $var wire 32 4 paddedB_1_0 $end
 $var wire 1 6 counterFlag $end
 $var wire 1 7 wrap_wrap $end
 $var wire 3 8 boundK $end
 $var wire 4 9 boundM $end
 $var wire 4 : boundN $end
 $var wire 32 ; paddedOut_0_1 $end
 $var wire 32 < paddedOut_0_0 $end
 $var wire 1 = b_ready $end
 $var wire 32 > io_out_0_0 $end
 $var wire 1 ? reset $end
 $var wire 32 @ io_out_0_1 $end
 $var wire 1 B a_ready $end
 $var wire 32 C slicedOut_0_0 $end
 $var wire 32 D myOut_0_1 $end
 $var wire 32 E myOut_0_0 $end
 $var wire 1 I allowReadB $end
 $var wire 3 J sliceCycle $end
 $var wire 32 M io_a_bits_1_1 $end
 $var wire 32 N io_a_bits_1_0 $end
 $var wire 3 P cycle $end
 $var wire 1 Q actReg $end
 $var wire 32 R paddedA_0_1 $end
 $var wire 32 S paddedA_0_0 $end
 $var wire 1 T systArr $end
 $var wire 32 U slicedA_0_0 $end
 $var wire 32 \ paddedB_0_0 $end
 $var wire 32 ^ paddedB_0_1 $end
 $var wire 1 d io_b_valid $end
 $var wire 1 e printf_9 $end
 $var wire 1 f printf_8 $end
 $var wire 1 g printf_7 $end
 $var wire 1 h printf_6 $end
 $var wire 1 i printf_1 $end
 $var wire 1 j printf_5 $end
 $var wire 1 k printf_4 $end
 $var wire 1 l printf_3 $end
 $var wire 1 m printf_2 $end
 $var wire 1 n printf $end
 $var wire 32 o io_a_bits_0_1 $end
 $var wire 32 p paddedOut_1_1 $end
 $var wire 32 q paddedOut_1_0 $end
 $var wire 32 s io_out_1_0 $end
 $var wire 32 t io_out_1_1 $end
 $var wire 32 u slicedB_0_0 $end
 $var wire 32 v io_b_bits_1_1 $end
 $var wire 32 w io_b_bits_1_0 $end
  $scope module systArr $end
   $var wire 1 , printf_10 $end
   $var wire 1 A io_b_readingin $end
   $var wire 32 F io_a_in_0 $end
   $var wire 1 G clock $end
   $var wire 32 H b_reg_0_0 $end
   $var wire 32 K cmp_input_0_0 $end
   $var wire 1 L reset $end
   $var wire 32 O io_out_0 $end
   $var wire 1 V printf_4 $end
   $var wire 1 W printf_5 $end
   $var wire 1 X printf_2 $end
   $var wire 1 Y printf_3 $end
   $var wire 1 Z printf_8 $end
   $var wire 1 [ printf_9 $end
   $var wire 1 ] printf_6 $end
   $var wire 1 _ printf_7 $end
   $var wire 32 ` cms_reg_0_0 $end
   $var wire 1 a printf_1 $end
   $var wire 32 b io_b_in_0_0 $end
   $var wire 32 c a_reg_0_0 $end
   $var wire 1 r printf $end
  $upscope $end
  $scope module actReg $end
   $var wire 1 ' io_index $end
   $var wire 32 * io_a_out_0 $end
   $var wire 32 5 io_a_0_0 $end
  $upscope $end
$upscope $end
$enddefinitions $end
$dumpvars
b00000000000000000000000000000000 *
b00000000000000000000000000000000 -
06
b00000000000000000000000000000000 )
07
b00000000000000000000000000000000 %
b00000000000000000000000000000000 $
0=
b00000000000000000000000000000000 !
0?
b00000000000000000000000000000000 ;
0A
0B
b00000000000000000000000000000000 <
0G
b00000000000000000000000000000000 3
0I
b00000000000000000000000000000000 2
b00000000000000000000000000000000 5
b00000000000000000000000000000000 4
0L
b00000000000000000000000000000000 .
b00000000000000000000000000000000 1
0Q
0T
0V
0W
0X
0Y
0Z
0[
0]
0_
0a
0d
0e
0f
0g
0h
0i
b0000 :
0j
0k
0l
b0000 9
0m
0n
0r
b00000000000000000000000000000000 c
b00000000000000000000000000000000 b
b000 P
b000 J
b00000000000000000000000000000000 ^
b00000000000000000000000000000000 `
b000 8
b00000000000000000000000000000000 w
b00000000000000000000000000000000 v
b00000000000000000000000000000000 s
b00000000000000000000000000000000 u
b00000000000000000000000000000000 t
b00000000000000000000000000000000 o
b00000000000000000000000000000000 q
b00000000000000000000000000000000 p
b00000000000000000000000000000000 K
b00000000000000000000000000000000 M
b00000000000000000000000000000000 F
b00000000000000000000000000000000 H
b00000000000000000000000000000000 C
b00000000000000000000000000000000 E
b000 0
b00000000000000000000000000000000 D
b00000000000000000000000000000000 >
b00000000000000000000000000000000 @
0"
0#
b00000000000000000000000000000000 \
0&
0'
0(
b00000000000000000000000000000000 S
b00000000000000000000000000000000 R
b00000000000000000000000000000000 U
0+
0,
b00000000000000000000000000000000 O
b00000000000000000000000000000000 N
0/
$end
#0
1'
1L
1?
#1
1B
1&
1G
1+
1=
1/
#6
1d
0G
1(
b00000000000000000000000000000001 )
0+
0L
b00000000000000000000000000000100 M
b00000000000000000000000000000011 N
b00000000000000000000000000000010 o
b00000000000000000000000000000010 1
b00000000000000000000000000000001 2
b00000000000000000000000000000001 5
b00000000000000000000000000000100 v
b00000000000000000000000000000011 w
0?
#11
0B
b00000000000000000000000000000001 b
1G
1+
b00000000000000000000000000000011 -
b00000000000000000000000000000100 .
0/
b001 0
b00000000000000000000000000000010 R
b00000000000000000000000000000001 S
b00000000000000000000000000000000 5
16
#16
0G
0+
#21
1A
b00000000000000000000000000000000 b
0&
1G
1I
1+
b00000000000000000000000000000100 3
b00000000000000000000000000000011 4
b00000000000000000000000000000001 5
b00000000000000000000000000000001 U
06
b00000000000000000000000000000001 \
0=
b00000000000000000000000000000010 ^
#26
0G
0+
#31
b010 0
b00000000000000000000000000000001 b
b00000000000000000000000000000001 u
1G
b001 8
b0001 9
b0001 :
b111 J
1+
#36
0G
0+
#41
0A
b00000000000000000000000000000100 b
1G
b00000000000000000000000000000001 H
0I
b000 J
1+
b011 0
b00000000000000000000000000000100 5
b00000000000000000000000000000100 U
b00000000000000000000000000000100 u
16
b000 8
b0000 9
b0000 :
#46
0G
0+
#51
b00000000000000000000000000000001 !
1A
b00000000000000000000000000000001 b
b00000000000000000000000000000001 F
0'
1G
1I
b00000000000000000000000000000001 *
1+
b00000000000000000000000000000001 K
b001 P
b00000000000000000000000000000001 5
b00000000000000000000000000000001 U
b00000000000000000000000000000001 u
#56
0G
0+
#61
b010 P
b00000000000000000000000000000001 `
b00000000000000000000000000000000 !
b00000000000000000000000000000001 c
b00000000000000000000000000000000 F
1'
1G
b00000000000000000000000000000000 *
1+
b00000000000000000000000000000000 K
b00000000000000000000000000000001 O
#66
0G
0+
#71
b00000000000000000000000000000000 `
b00000000000000000000000000000001 !
b00000000000000000000000000000001 C
b00000000000000000000000000000000 c
b00000000000000000000000000000001 F
0'
1G
b00000000000000000000000000000001 *
1+
b00000000000000000000000000000001 K
b00000000000000000000000000000000 O
b011 P
#76
0G
0+
#81
b100 P
b00000000000000000000000000000001 `
b00000000000000000000000000000010 !
b00000000000000000000000000000001 c
b00000000000000000000000000000000 F
1'
1G
b00000000000000000000000000000000 *
1+
b00000000000000000000000000000000 K
b00000000000000000000000000000001 O
#86
0G
0+
#91
b101 P
b00000000000000000000000000000000 `
b00000000000000000000000000000011 !
b00000000000000000000000000000000 c
b00000000000000000000000000000001 F
0'
1G
b00000000000000000000000000000001 *
1+
b00000000000000000000000000000001 K
b00000000000000000000000000000000 O
#96
0G
0+
#101
b00000000000000000000000000000001 `
b00000000000000000000000000000100 !
b00000000000000000000000000000001 c
b00000000000000000000000000000000 F
1'
1G
b00000000000000000000000000000000 *
1+
b00000000000000000000000000000000 K
b00000000000000000000000000000001 O
b110 P
17
#106
0G
0+
#111
b00000000000000000000000000000000 `
b00000000000000000000000000000000 !
b00000000000000000000000000000000 c
b00000000000000000000000000000001 E
1G
1+
b00000000000000000000000000000000 O
b010 0
b000 P
06
07
b00000000000000000000000000000001 <
b00000000000000000000000000000001 >
#116
0G
0+
#121
b011 0
0A
b00000000000000000000000000000000 C
16
1G
b001 8
0I
b001 J
1+
#126
0G
0+
#131
b00000000000000000000000000000001 !
1A
b00000000000000000000000000000011 b
b00000000000000000000000000000010 F
0'
1G
1I
b00000000000000000000000000000010 *
1+
b00000000000000000000000000000010 K
b001 P
b00000000000000000000000000000010 5
b00000000000000000000000000000010 U
b00000000000000000000000000000011 u
#136
0G
0+
#141
b00000000000000000000000000000010 `
b00000000000000000000000000000000 !
b00000000000000000000000000000010 c
b00000000000000000000000000000000 F
1'
1G
b00000000000000000000000000000011 H
b00000000000000000000000000000000 *
1+
b00000000000000000000000000000000 K
b00000000000000000000000000000010 O
b010 P
#146
0G
0+
#151
b00000000000000000000000000000000 `
b00000000000000000000000000000001 !
b00000000000000000000000000000010 C
b00000000000000000000000000000000 c
b00000000000000000000000000000010 F
0'
1G
b00000000000000000000000000000010 *
1+
b00000000000000000000000000000110 K
b00000000000000000000000000000000 O
b011 P
#156
0G
0+
#161
b100 P
b00000000000000000000000000000110 `
b00000000000000000000000000000010 !
b00000000000000000000000000000010 c
b00000000000000000000000000000000 F
1'
1G
b00000000000000000000000000000000 *
1+
b00000000000000000000000000000000 K
b00000000000000000000000000000110 O
#166
0G
0+
#171
b101 P
b00000000000000000000000000000000 `
b00000000000000000000000000000011 !
b00000000000000000000000000000000 c
b00000000000000000000000000000010 F
0'
1G
b00000000000000000000000000000010 *
1+
b00000000000000000000000000000110 K
b00000000000000000000000000000000 O
#176
0G
0+
#181
b00000000000000000000000000000110 `
b00000000000000000000000000000100 !
b00000000000000000000000000000010 c
b00000000000000000000000000000000 F
1'
1G
b00000000000000000000000000000000 *
1+
b00000000000000000000000000000000 K
b00000000000000000000000000000110 O
b110 P
17
#186
0G
0+
#191
b00000000000000000000000000000000 `
b00000000000000000000000000000000 !
b00000000000000000000000000000000 c
b00000000000000000000000000000011 E
1G
1+
b00000000000000000000000000000000 O
b010 0
b000 P
06
07
b00000000000000000000000000000011 <
b00000000000000000000000000000011 >
#196
0G
0+
#201
b011 0
0A
b00000000000000000000000000000000 C
16
1G
b000 8
b0001 9
0I
b010 J
1+
#206
0G
0+
#211
b00000000000000000000000000000001 !
1A
b00000000000000000000000000000001 b
b00000000000000000000000000000011 F
0'
1G
1I
b00000000000000000000000000000011 *
1+
b00000000000000000000000000001001 K
b001 P
b00000000000000000000000000000011 5
b00000000000000000000000000000011 U
b00000000000000000000000000000001 u
#216
0G
0+
#221
b00000000000000000000000000001001 `
b00000000000000000000000000000000 !
b00000000000000000000000000000011 c
b00000000000000000000000000000000 F
1'
1G
b00000000000000000000000000000001 H
b00000000000000000000000000000000 *
1+
b00000000000000000000000000000000 K
b00000000000000000000000000001001 O
b010 P
#226
0G
0+
#231
b00000000000000000000000000000000 `
b00000000000000000000000000000001 !
b00000000000000000000000000001001 C
b00000000000000000000000000000000 c
b00000000000000000000000000000011 F
0'
1G
b00000000000000000000000000000011 *
1+
b00000000000000000000000000000011 K
b00000000000000000000000000000000 O
b011 P
#236
0G
0+
#241
b100 P
b00000000000000000000000000000011 `
b00000000000000000000000000000010 !
b00000000000000000000000000000011 c
b00000000000000000000000000000000 F
1'
1G
b00000000000000000000000000000000 *
1+
b00000000000000000000000000000000 K
b00000000000000000000000000000011 O
#246
0G
0+
#251
b101 P
b00000000000000000000000000000000 `
b00000000000000000000000000000011 !
b00000000000000000000000000000000 c
b00000000000000000000000000000011 F
0'
1G
b00000000000000000000000000000011 *
1+
b00000000000000000000000000000011 K
b00000000000000000000000000000000 O
