test_run_dir/TPU_test_should_mult_one_cycle/ChiselTPU.vcd
$date
2023-03-14T01:57+0000
$end
$version
0.2
$end
$comment

$end
$timescale 1ns  $end
$scope module ChiselTPU $end
 $var wire 32 ! myOut_1_2 $end
 $var wire 32 " myOut_1_1 $end
 $var wire 32 # myOut_1_0 $end
 $var wire 32 & io_a_bits_0_0 $end
 $var wire 32 ) paddedA_1_0 $end
 $var wire 32 * paddedA_1_1 $end
 $var wire 32 + paddedA_1_2 $end
 $var wire 32 , paddedA_1_3 $end
 $var wire 1 - io_a_ready $end
 $var wire 32 0 io_b_bits_0_2 $end
 $var wire 3 1 state $end
 $var wire 32 2 io_b_bits_0_1 $end
 $var wire 32 3 io_b_bits_0_0 $end
 $var wire 32 6 paddedB_3_3 $end
 $var wire 32 7 paddedB_3_1 $end
 $var wire 32 8 paddedB_3_2 $end
 $var wire 32 9 paddedB_3_0 $end
 $var wire 1 : b_ready $end
 $var wire 32 ; io_out_0_0 $end
 $var wire 32 < io_out_0_1 $end
 $var wire 32 = io_out_0_2 $end
 $var wire 32 > slicedB_1_1 $end
 $var wire 32 ? slicedB_1_0 $end
 $var wire 1 @ a_ready $end
 $var wire 32 A paddedOut_2_3 $end
 $var wire 32 B paddedOut_2_2 $end
 $var wire 32 C paddedOut_2_1 $end
 $var wire 32 D paddedOut_2_0 $end
 $var wire 32 E slicedOut_0_0 $end
 $var wire 32 F slicedOut_0_1 $end
 $var wire 32 G myOut_0_2 $end
 $var wire 32 H myOut_0_1 $end
 $var wire 32 I myOut_0_0 $end
 $var wire 32 L myOut_2_1 $end
 $var wire 32 M myOut_2_0 $end
 $var wire 32 N myOut_2_2 $end
 $var wire 32 R io_a_bits_1_2 $end
 $var wire 32 S io_a_bits_1_1 $end
 $var wire 32 T io_a_bits_1_0 $end
 $var wire 32 X paddedA_0_1 $end
 $var wire 32 Y paddedA_0_2 $end
 $var wire 32 Z paddedA_0_3 $end
 $var wire 32 [ paddedA_0_0 $end
 $var wire 1 \ systArr $end
 $var wire 32 ] slicedA_0_1 $end
 $var wire 32 ^ slicedA_0_0 $end
 $var wire 32 f paddedB_2_2 $end
 $var wire 32 g paddedB_2_3 $end
 $var wire 32 h paddedB_2_0 $end
 $var wire 32 i paddedB_2_1 $end
 $var wire 1 j printf_9 $end
 $var wire 1 k printf_8 $end
 $var wire 1 l printf_7 $end
 $var wire 1 m printf_6 $end
 $var wire 1 n printf_1 $end
 $var wire 1 o printf_5 $end
 $var wire 1 p printf_4 $end
 $var wire 1 q printf_3 $end
 $var wire 1 r printf_2 $end
 $var wire 1 s printf $end
 $var wire 32 t io_a_bits_0_2 $end
 $var wire 32 u io_a_bits_0_1 $end
 $var wire 32 v paddedOut_1_3 $end
 $var wire 32 w paddedOut_1_2 $end
 $var wire 32 x paddedOut_1_1 $end
 $var wire 32 y paddedOut_1_0 $end
 $var wire 32 z slicedOut_1_0 $end
 $var wire 32 { slicedOut_1_1 $end
 $var wire 1 | printf_28 $end
 $var wire 32 } cycleIdx $end
 $var wire 1 ~ printf_29 $end
 $var wire 1 "! printf_24 $end
 $var wire 1 "" printf_25 $end
 $var wire 1 "# printf_26 $end
 $var wire 1 "$ printf_27 $end
 $var wire 1 "% printf_20 $end
 $var wire 1 "& printf_21 $end
 $var wire 1 "' printf_22 $end
 $var wire 1 "( printf_23 $end
 $var wire 1 ") printf_17 $end
 $var wire 1 "* printf_18 $end
 $var wire 1 "+ printf_19 $end
 $var wire 1 ", printf_13 $end
 $var wire 1 "- printf_14 $end
 $var wire 1 ". printf_15 $end
 $var wire 1 "/ printf_16 $end
 $var wire 1 "0 printf_10 $end
 $var wire 1 "1 printf_11 $end
 $var wire 1 "2 printf_12 $end
 $var wire 1 "3 io_b_ready $end
 $var wire 1 "5 io_a_valid $end
 $var wire 32 "8 io_a_bits_2_2 $end
 $var wire 32 "9 io_a_bits_2_1 $end
 $var wire 32 ": io_a_bits_2_0 $end
 $var wire 1 "; clock $end
 $var wire 1 "< printf_31 $end
 $var wire 1 "= printf_32 $end
 $var wire 1 "> printf_33 $end
 $var wire 1 "? printf_34 $end
 $var wire 1 "@ printf_30 $end
 $var wire 32 "A paddedB_1_3 $end
 $var wire 32 "B paddedB_1_1 $end
 $var wire 32 "C paddedB_1_2 $end
 $var wire 32 "D paddedB_1_0 $end
 $var wire 32 "E paddedA_3_2 $end
 $var wire 32 "F paddedA_3_3 $end
 $var wire 32 "G paddedA_3_0 $end
 $var wire 32 "H paddedA_3_1 $end
 $var wire 32 "L io_out_2_0 $end
 $var wire 32 "M io_out_2_1 $end
 $var wire 32 "N io_out_2_2 $end
 $var wire 1 "O counterFlag $end
 $var wire 1 "P wrap_wrap $end
 $var wire 4 "Q boundK $end
 $var wire 5 "R boundM $end
 $var wire 32 "S paddedOut_0_3 $end
 $var wire 5 "T boundN $end
 $var wire 32 "U paddedOut_0_2 $end
 $var wire 32 "V paddedOut_0_1 $end
 $var wire 32 "W paddedOut_0_0 $end
 $var wire 1 "X reset $end
 $var wire 32 "Z io_b_bits_2_1 $end
 $var wire 32 "[ io_b_bits_2_0 $end
 $var wire 32 "\ io_b_bits_2_2 $end
 $var wire 32 "] slicedA_1_1 $end
 $var wire 32 "^ slicedA_1_0 $end
 $var wire 3 "` sliceCycle $end
 $var wire 4 "a cycle $end
 $var wire 1 "b actReg $end
 $var wire 32 "c paddedB_0_2 $end
 $var wire 32 "d paddedB_0_3 $end
 $var wire 32 "e paddedB_0_0 $end
 $var wire 32 "f paddedB_0_1 $end
 $var wire 32 "g paddedA_2_3 $end
 $var wire 32 "h paddedA_2_0 $end
 $var wire 32 "i paddedA_2_1 $end
 $var wire 32 "j paddedA_2_2 $end
 $var wire 1 "k io_b_valid $end
 $var wire 32 "l io_out_1_0 $end
 $var wire 32 "m io_out_1_1 $end
 $var wire 32 "n io_out_1_2 $end
 $var wire 32 "o slicedB_0_1 $end
 $var wire 32 "p slicedB_0_0 $end
 $var wire 32 "q io_b_bits_1_2 $end
 $var wire 32 "r paddedOut_3_3 $end
 $var wire 32 "s io_b_bits_1_1 $end
 $var wire 32 "t paddedOut_3_2 $end
 $var wire 32 "u paddedOut_3_1 $end
 $var wire 32 "v paddedOut_3_0 $end
 $var wire 32 "w io_b_bits_1_0 $end
  $scope module systArr $end
   $var wire 32 $ b_reg_1_0 $end
   $var wire 32 % b_reg_1_1 $end
   $var wire 32 ' cmp_input_1_1 $end
   $var wire 32 ( cmp_input_1_0 $end
   $var wire 32 . io_b_in_1_0 $end
   $var wire 32 / io_b_in_1_1 $end
   $var wire 32 4 cms_reg_1_1 $end
   $var wire 32 5 cms_reg_1_0 $end
   $var wire 32 J io_a_in_0 $end
   $var wire 32 K io_a_in_1 $end
   $var wire 32 O b_reg_0_0 $end
   $var wire 32 P b_reg_0_1 $end
   $var wire 32 Q cmp_input_0_0 $end
   $var wire 32 U io_out_1 $end
   $var wire 32 V io_out_0 $end
   $var wire 32 W cmp_input_0_1 $end
   $var wire 32 _ cms_reg_0_0 $end
   $var wire 32 ` cms_reg_0_1 $end
   $var wire 32 c io_b_in_0_0 $end
   $var wire 32 d io_b_in_0_1 $end
   $var wire 32 e a_reg_0_0 $end
   $var wire 32 "K a_reg_1_0 $end
   $var wire 1 "Y io_b_readingin $end
   $var wire 1 "_ clock $end
  $upscope $end
  $scope module actReg $end
   $var wire 32 a io_a_1_1 $end
   $var wire 32 b io_a_1_0 $end
   $var wire 3 "4 io_index $end
   $var wire 32 "6 io_a_out_1 $end
   $var wire 32 "7 io_a_out_0 $end
   $var wire 32 "I io_a_0_1 $end
   $var wire 32 "J io_a_0_0 $end
  $upscope $end
$upscope $end
$enddefinitions $end
$dumpvars
b00000000000000000000000000000000 +
b00000000000000000000000000000000 *
b00000000000000000000000000000000 ,
b00000000000000000000000000000000 '
b00000000000000000000000000000000 &
b00000000000000000000000000000000 )
b00000000000000000000000000000000 (
b00000000000000000000000000000000 #
b00000000000000000000000000000000 "
0:
b00000000000000000000000000000000 %
b00000000000000000000000000000000 $
b00000000000000000000000000000000 !
0@
b00000000000000000000000000000000 ;
b00000000000000000000000000000000 =
b00000000000000000000000000000000 <
b00000000000000000000000000000000 "C
b00000000000000000000000000000000 7
b00000000000000000000000000000000 "B
b00000000000000000000000000000000 6
b00000000000000000000000000000000 "A
b00000000000000000000000000000000 9
b00000000000000000000000000000000 8
b00000000000000000000000000000000 "7
b00000000000000000000000000000000 3
b00000000000000000000000000000000 "6
b00000000000000000000000000000000 2
b00000000000000000000000000000000 5
b00000000000000000000000000000000 4
b00000000000000000000000000000000 /
b00000000000000000000000000000000 ":
b00000000000000000000000000000000 .
b00000000000000000000000000000000 "9
b00000000000000000000000000000000 "8
b00000000000000000000000000000000 0
b00000000000000000000000000000000 "N
b00000000000000000000000000000000 "M
b00000000000000000000000000000000 "L
b00000000000000000000000000000000 "S
b00000000000000000000000000000000 "G
b00000000000000000000000000000000 "F
b00000000000000000000000000000000 "E
b00000000000000000000000000000000 "D
b00000000000000000000000000000000 "K
0\
b00000000000000000000000000000000 "J
b00000000000000000000000000000000 "I
b00000000000000000000000000000000 "H
b00000000000000000000000000000000 "^
b00000000000000000000000000000000 "]
b00000000000000000000000000000000 "\
b00000000000000000000000000000000 "c
b00000000000000000000000000000000 "W
b00000000000000000000000000000000 "V
b00000000000000000000000000000000 "U
0j
0k
b00000000000000000000000000000000 "[
0l
b00000000000000000000000000000000 "Z
0m
0n
0o
0p
0q
0r
0s
0|
0~
0"!
0""
0"#
0"$
0"%
0"&
0"'
0"(
0")
0"*
0"+
0",
0"-
0".
0"/
0"0
0"1
0"2
0"3
0"5
0";
0"<
0"=
0">
0"?
0"@
b000 "`
0"O
0"P
0"X
0"Y
0"_
0"b
0"k
b00000000000000000000000000000000 "o
b00000000000000000000000000000000 "n
b00000000000000000000000000000000 "m
b00000000000000000000000000000000 "l
b00000000000000000000000000000000 "s
b00000000000000000000000000000000 g
b00000000000000000000000000000000 "r
b00000000000000000000000000000000 f
b00000000000000000000000000000000 "q
b00000000000000000000000000000000 i
b00000000000000000000000000000000 "p
b00000000000000000000000000000000 h
b00000000000000000000000000000000 "g
b00000000000000000000000000000000 c
b00000000000000000000000000000000 "f
b00000000000000000000000000000000 b
b00000000000000000000000000000000 "e
b00000000000000000000000000000000 e
b00000000000000000000000000000000 "d
b00000000000000000000000000000000 d
b00000000000000000000000000000000 _
b00000000000000000000000000000000 "j
b00000000000000000000000000000000 ^
b00000000000000000000000000000000 "i
b00000000000000000000000000000000 a
b00000000000000000000000000000000 "h
b00000000000000000000000000000000 `
b00000000000000000000000000000000 {
b00000000000000000000000000000000 z
b00000000000000000000000000000000 }
b00000000000000000000000000000000 w
b00000000000000000000000000000000 v
b00000000000000000000000000000000 y
b00000000000000000000000000000000 x
b00000000000000000000000000000000 "w
b00000000000000000000000000000000 "v
b00000000000000000000000000000000 "u
b00000000000000000000000000000000 u
b00000000000000000000000000000000 "t
b00000000000000000000000000000000 t
b00000000000000000000000000000000 K
b00000000000000000000000000000000 J
b000 "4
b00000000000000000000000000000000 M
b00000000000000000000000000000000 L
b00000000000000000000000000000000 G
b00000000000000000000000000000000 F
b00000000000000000000000000000000 I
b00000000000000000000000000000000 H
b00000000000000000000000000000000 C
b00000000000000000000000000000000 B
b000 1
b00000000000000000000000000000000 E
b00000000000000000000000000000000 D
b0000 "Q
b00000000000000000000000000000000 ?
b00000000000000000000000000000000 >
b00000000000000000000000000000000 A
b00000000000000000000000000000000 [
b00000000000000000000000000000000 Z
b00000000000000000000000000000000 ]
b00000000000000000000000000000000 W
b00000000000000000000000000000000 V
b00000000000000000000000000000000 Y
b00000000000000000000000000000000 X
b00000000000000000000000000000000 S
b00000000000000000000000000000000 R
b00000000000000000000000000000000 U
b00000000000000000000000000000000 T
b00000 "R
b0000 "a
b00000000000000000000000000000000 O
0-
b00000000000000000000000000000000 N
b00000 "T
b00000000000000000000000000000000 Q
b00000000000000000000000000000000 P
$end
#0
b011 "4
1"X
#1
1@
1"3
1";
1:
1-
1"_
#6
1"k
b00000000000000000000000000000011 "q
b00000000000000000000000000000001 "s
b00000000000000000000000000000100 R
b00000000000000000000000000000101 S
1"5
b00000000000000000000000000000001 T
b00000000000000000000000000000100 "w
b00000000000000000000000000000001 "8
b00000000000000000000000000000100 "9
b00000000000000000000000000000011 ":
0";
b00000000000000000000000000000101 a
b00000000000000000000000000000001 b
b00000000000000000000000000000010 &
b00000000000000000000000000000011 "I
b00000000000000000000000000000010 "J
b00000000000000000000000000000101 0
b00000000000000000000000000000101 2
b00000000000000000000000000000010 3
b00000000000000000000000000000001 t
b00000000000000000000000000000011 u
0"X
b00000000000000000000000000000011 "Z
b00000000000000000000000000000010 "[
b00000000000000000000000000000001 "\
0"_
#11
0@
b00000000000000000000000000000011 "h
b00000000000000000000000000000100 "i
b00000000000000000000000000000001 "j
b00000000000000000000000000000011 X
b00000000000000000000000000000001 Y
1";
b00000000000000000000000000000010 [
b00000000000000000000000000000000 a
b00000000000000000000000000000000 b
b00000000000000000000000000000010 c
b00000000000000000000000000000101 d
b00000000000000000000000000000000 "I
b00000000000000000000000000000000 "J
b00000000000000000000000000000001 )
b00000000000000000000000000000101 *
b00000000000000000000000000000100 +
0-
1"O
b00000000000000000000000000000100 .
b00000000000000000000000000000001 /
b001 1
1"Y
1"_
#16
0";
0"_
#21
b00000000000000000000000000000101 "c
b00000000000000000000000000000010 "e
b00000000000000000000000000000101 "f
b00000000000000000000000000000010 O
b00000000000000000000000000000101 P
0"3
1";
b00000000000000000000000000000011 ]
b00000000000000000000000000000010 ^
b00000000000000000000000000000001 "B
b00000000000000000000000000000101 a
b00000000000000000000000000000011 "C
b00000000000000000000000000000001 b
b00000000000000000000000000000100 "D
b00000000000000000000000000000000 c
b00000000000000000000000000000100 $
b00000000000000000000000000000000 d
b00000000000000000000000000000001 %
b00000000000000000000000000000001 f
b00000000000000000000000000000011 "I
b00000000000000000000000000000010 h
b00000000000000000000000000000010 "J
b00000000000000000000000000000011 i
0"O
b00000000000000000000000000000000 .
b00000000000000000000000000000000 /
0"Y
0:
b00000000000000000000000000000101 "]
b00000000000000000000000000000001 "^
1"_
#26
0";
0"_
#31
b010 1
b00000000000000000000000000000010 c
b00000000000000000000000000000101 d
1";
1"_
b00000000000000000000000000000101 "o
b00000000000000000000000000000100 .
b00000000000000000000000000000001 >
b00000000000000000000000000000010 "p
b00000000000000000000000000000001 /
b00000000000000000000000000000100 ?
#36
0";
0"_
#41
b011 1
1";
1"O
1"_
b001 "`
b0010 "Q
#46
0";
0"_
#51
b00000000000000000000000000000000 a
b00000000000000000000000000000100 b
b00000000000000000000000000000011 d
b00000000000000000000000000000000 "I
b00000000000000000000000000000001 "J
b00000000000000000000000000000001 J
b00000000000000000000000000000011 "o
b00000000000000000000000000000000 .
b00000000000000000000000000000000 /
b00000000000000000000000000000010 Q
b010 "4
b00000000000000000000000000000001 "7
1";
b00000000000000000000000000000000 "]
b00000000000000000000000000000100 "^
b00000000000000000000000000000000 ]
b00000000000000000000000000000001 }
1"_
b00000000000000000000000000000000 >
b00000000000000000000000000000001 ^
b00000000000000000000000000000000 ?
b0001 "a
#56
0";
0"_
#61
b00000000000000000000000000000001 e
b00000000000000000000000000000010 (
b00000000000000000000000000000100 J
b00000000000000000000000000001000 Q
b001 "4
b00000000000000000000000000000100 "7
b00000000000000000000000000000101 W
1";
b00000000000000000000000000000010 }
1"_
b00000000000000000000000000000010 _
b0010 "a
#66
0";
0"_
#71
b00000000000000000000000000000101 `
b00000000000000000000000000000100 e
b00000000000000000000000000000101 '
b00000000000000000000000000001000 (
b00000000000000000000000000000000 J
b00000000000000000000000000000000 Q
b000 "4
b00000000000000000000000000000010 5
b00000000000000000000000000000000 "7
b00000000000000000000000000000010 V
b00000000000000000000000000010100 W
1";
b00000000000000000000000000000000 }
1"_
b00000000000000000000000000001000 _
b0011 "a
#76
0";
0"_
#81
b00000000000000000000000000010100 `
b00000000000000000000000000000000 e
b00000000000000000000000000010100 '
b00000000000000000000000000000000 (
b111 "4
b00000000000000000000000000000101 4
b00000000000000000000000000001000 5
b00000000000000000000000000000101 U
b00000000000000000000000000001000 V
b00000000000000000000000000000000 W
1";
b00000000000000000000000000000010 z
b00000000000000000000000000000001 }
1"_
b00000000000000000000000000000000 _
b0100 "a
#86
0";
0"_
#91
b00000000000000000000000000000000 `
b00000000000000000000000000000010 E
b00000000000000000000000000000000 '
b110 "4
b00000000000000000000000000010100 4
b00000000000000000000000000000000 5
b00000000000000000000000000010100 U
b00000000000000000000000000000000 V
1";
b00000000000000000000000000001000 z
b00000000000000000000000000000101 {
b00000000000000000000000000000010 }
1"_
b0101 "a
#96
0";
0"_
#101
b101 "4
b00000000000000000000000000000000 4
b00000000000000000000000000000000 U
b00000000000000000000000000000101 F
1";
b00000000000000000000000000010100 {
b00000000000000000000000000000011 }
1"_
b0110 "a
#106
0";
0"_
#111
b100 "4
1";
b00000000000000000000000000000100 }
1"_
b0111 "a
#116
0";
0"_
#121
b011 "4
1";
b00000000000000000000000000000101 }
1"_
b1000 "a
#126
0";
0"_
#131
b00000000000000000000000000000010 Q
b010 "4
b00000000000000000000000000000001 "7
1";
b00000000000000000000000000000001 J
b00000000000000000000000000000110 }
1"_
1"P
b1001 "a
#136
0";
0"_
#141
b00000000000000000000000000010100 "
b00000000000000000000000000001000 #
b00000000000000000000000000000001 e
b00000000000000000000000000000010 (
b00000000000000000000000000000101 H
b00000000000000000000000000000010 I
b00000000000000000000000000000000 J
b00000000000000000000000000001000 "l
b00000000000000000000000000010100 "m
0"O
0"P
b010 1
b00000000000000000000000000000000 Q
b011 "4
b00000000000000000000000000000000 "7
b00000000000000000000000000000101 W
1";
b00000000000000000000000000000010 ;
b00000000000000000000000000000101 <
b00000000000000000000000000000000 }
1"_
b00000000000000000000000000000010 _
b0000 "a
#146
0";
0"_
#151
b00000000000000000000000000000101 `
b00000000000000000000000000000000 e
b00000000000000000000000000000101 '
b00000000000000000000000000000000 (
1"O
b0000 "Q
b00010 "R
b011 1
b00000000000000000000000000000010 5
b00000000000000000000000000000010 V
b00000000000000000000000000000000 W
1";
1"_
b010 "`
b00000000000000000000000000000000 _
