test_run_dir/TPU_test_should_mult_one_cycle/ChiselTPU.vcd
$date
2023-03-14T02:35+0000
$end
$version
0.2
$end
$comment

$end
$timescale 1ns  $end
$scope module ChiselTPU $end
 $var wire 32 ! cycleIdx $end
 $var wire 32 " myOut_1_1 $end
 $var wire 32 # myOut_1_0 $end
 $var wire 1 & io_b_ready $end
 $var wire 1 ( io_a_valid $end
 $var wire 32 ) io_a_bits_0_0 $end
 $var wire 1 . clock $end
 $var wire 32 5 paddedA_1_0 $end
 $var wire 32 6 paddedA_1_1 $end
 $var wire 1 7 io_a_ready $end
 $var wire 3 : state $end
 $var wire 32 ; io_b_bits_0_1 $end
 $var wire 32 < io_b_bits_0_0 $end
 $var wire 32 = paddedB_1_1 $end
 $var wire 32 > paddedB_1_0 $end
 $var wire 1 E counterFlag $end
 $var wire 1 F wrap_wrap $end
 $var wire 3 G boundK $end
 $var wire 3 H boundM $end
 $var wire 3 I boundN $end
 $var wire 1 J b_ready $end
 $var wire 32 K io_out_0_0 $end
 $var wire 1 L reset $end
 $var wire 32 M io_out_0_1 $end
 $var wire 32 O slicedB_1_1 $end
 $var wire 32 P slicedB_1_0 $end
 $var wire 1 Q a_ready $end
 $var wire 32 R slicedA_1_1 $end
 $var wire 32 S slicedA_1_0 $end
 $var wire 32 T slicedOut_0_0 $end
 $var wire 32 U slicedOut_0_1 $end
 $var wire 32 V myOut_0_1 $end
 $var wire 32 W myOut_0_0 $end
 $var wire 1 ] sliceCycle $end
 $var wire 32 ` io_a_bits_1_1 $end
 $var wire 32 a io_a_bits_1_0 $end
 $var wire 3 e cycle $end
 $var wire 1 f actReg $end
 $var wire 32 g paddedA_0_1 $end
 $var wire 32 h paddedA_0_0 $end
 $var wire 1 i systArr $end
 $var wire 32 j slicedA_0_1 $end
 $var wire 32 k slicedA_0_0 $end
 $var wire 32 r paddedB_0_0 $end
 $var wire 32 t paddedB_0_1 $end
 $var wire 1 "! io_b_valid $end
 $var wire 1 "" printf_1 $end
 $var wire 1 "# printf_3 $end
 $var wire 1 "$ printf_2 $end
 $var wire 1 "% printf $end
 $var wire 32 "& io_a_bits_0_1 $end
 $var wire 32 "( io_out_1_0 $end
 $var wire 32 ") io_out_1_1 $end
 $var wire 32 "* slicedOut_1_0 $end
 $var wire 32 "+ slicedB_0_1 $end
 $var wire 32 ", slicedB_0_0 $end
 $var wire 32 "- io_b_bits_1_1 $end
 $var wire 32 ". io_b_bits_1_0 $end
 $var wire 32 "/ slicedOut_1_1 $end
  $scope module systArr $end
   $var wire 32 $ b_reg_1_0 $end
   $var wire 32 % b_reg_1_1 $end
   $var wire 32 , cmp_input_1_1 $end
   $var wire 32 - cmp_input_1_0 $end
   $var wire 1 / printf_15 $end
   $var wire 1 0 printf_14 $end
   $var wire 1 1 printf_13 $end
   $var wire 1 2 printf_12 $end
   $var wire 1 3 printf_11 $end
   $var wire 1 4 printf_10 $end
   $var wire 32 8 io_b_in_1_0 $end
   $var wire 32 9 io_b_in_1_1 $end
   $var wire 32 ? cms_reg_1_1 $end
   $var wire 32 @ cms_reg_1_0 $end
   $var wire 32 C a_reg_1_1 $end
   $var wire 32 D a_reg_1_0 $end
   $var wire 1 N io_b_readingin $end
   $var wire 32 X io_a_in_0 $end
   $var wire 32 Y io_a_in_1 $end
   $var wire 1 Z clock $end
   $var wire 32 [ b_reg_0_0 $end
   $var wire 32 \ b_reg_0_1 $end
   $var wire 32 ^ cmp_input_0_0 $end
   $var wire 1 _ reset $end
   $var wire 32 b io_out_1 $end
   $var wire 32 c io_out_0 $end
   $var wire 32 d cmp_input_0_1 $end
   $var wire 1 l printf_4 $end
   $var wire 1 m printf_5 $end
   $var wire 1 n printf_2 $end
   $var wire 1 o printf_3 $end
   $var wire 1 p printf_8 $end
   $var wire 1 q printf_9 $end
   $var wire 1 s printf_6 $end
   $var wire 1 u printf_7 $end
   $var wire 32 v cms_reg_0_0 $end
   $var wire 32 w cms_reg_0_1 $end
   $var wire 1 x printf_1 $end
   $var wire 32 { io_b_in_0_0 $end
   $var wire 32 | io_b_in_0_1 $end
   $var wire 32 } a_reg_0_1 $end
   $var wire 32 ~ a_reg_0_0 $end
   $var wire 1 "' printf $end
  $upscope $end
  $scope module actReg $end
   $var wire 3 ' io_index $end
   $var wire 32 * io_a_out_1 $end
   $var wire 32 + io_a_out_0 $end
   $var wire 32 A io_a_0_1 $end
   $var wire 32 B io_a_0_0 $end
   $var wire 32 y io_a_1_1 $end
   $var wire 32 z io_a_1_0 $end
  $upscope $end
$upscope $end
$enddefinitions $end
$dumpvars
b00000000000000000000000000000000 "/
00
b00000000000000000000000000000000 +
b00000000000000000000000000000000 ".
01
b00000000000000000000000000000000 *
b00000000000000000000000000000000 "-
02
b00000000000000000000000000000000 -
b00000000000000000000000000000000 ",
03
b00000000000000000000000000000000 ,
04
b00000000000000000000000000000000 )
07
b00000000000000000000000000000000 #
b00000000000000000000000000000000 "&
b00000000000000000000000000000000 "
b00000000000000000000000000000000 %
b00000000000000000000000000000000 $
b00000000000000000000000000000000 "+
b00000000000000000000000000000000 "*
b00000000000000000000000000000000 ")
b00000000000000000000000000000000 !
b00000000000000000000000000000000 "(
b00000000000000000000000000000000 ;
b00000000000000000000000000000000 =
b00000000000000000000000000000000 <
0E
b00000000000000000000000000000000 6
0F
b00000000000000000000000000000000 9
b00000000000000000000000000000000 8
0J
b00000000000000000000000000000000 5
0L
0N
0Q
0Z
0]
0_
0f
0i
0l
0m
0n
0o
0p
0q
0s
0u
0x
0"!
0""
0"#
0"$
0"%
0"'
b000 e
b00000000000000000000000000000000 ~
b000 G
b00000000000000000000000000000000 k
b00000000000000000000000000000000 j
b000 I
b000 H
b00000000000000000000000000000000 g
b00000000000000000000000000000000 h
b00000000000000000000000000000000 c
b00000000000000000000000000000000 b
b00000000000000000000000000000000 d
b00000000000000000000000000000000 ^
b00000000000000000000000000000000 a
b00000000000000000000000000000000 `
b00000000000000000000000000000000 {
b00000000000000000000000000000000 z
b00000000000000000000000000000000 }
b00000000000000000000000000000000 |
b00000000000000000000000000000000 w
b00000000000000000000000000000000 v
b00000000000000000000000000000000 y
b00000000000000000000000000000000 r
b00000000000000000000000000000000 t
b000 :
b000 '
b00000000000000000000000000000000 K
b00000000000000000000000000000000 M
b00000000000000000000000000000000 C
b00000000000000000000000000000000 B
b00000000000000000000000000000000 D
b00000000000000000000000000000000 ?
b00000000000000000000000000000000 >
b00000000000000000000000000000000 A
b00000000000000000000000000000000 @
b00000000000000000000000000000000 [
b00000000000000000000000000000000 \
b00000000000000000000000000000000 W
b00000000000000000000000000000000 V
0&
b00000000000000000000000000000000 Y
b00000000000000000000000000000000 X
0(
b00000000000000000000000000000000 S
b00000000000000000000000000000000 R
b00000000000000000000000000000000 U
b00000000000000000000000000000000 T
b00000000000000000000000000000000 O
0.
0/
b00000000000000000000000000000000 P
$end
#0
b011 '
1L
1_
#1
1Q
1&
17
1J
1Z
1.
#6
b00000000000000000000000000000100 a
b00000000000000000000000000000001 B
1(
b00000000000000000000000000000001 )
0L
0.
0Z
b00000000000000000000000000000100 z
b00000000000000000000000000000011 ;
b00000000000000000000000000000010 <
0_
1"!
#11
b00000000000000000000000000000000 B
1E
b00000000000000000000000000000001 h
1.
1N
0Q
b00000000000000000000000000000100 5
07
b001 :
1Z
b00000000000000000000000000000000 z
b00000000000000000000000000000010 {
b00000000000000000000000000000011 |
#16
0Z
0.
#21
b00000000000000000000000000000001 B
0E
0&
0J
b00000000000000000000000000000001 k
1.
0N
b00000000000000000000000000000010 r
b00000000000000000000000000000100 S
b00000000000000000000000000000011 t
1Z
b00000000000000000000000000000100 z
b00000000000000000000000000000010 [
b00000000000000000000000000000000 {
b00000000000000000000000000000011 \
b00000000000000000000000000000000 |
#26
0Z
0.
#31
b00000000000000000000000000000011 "+
b010 :
1Z
b00000000000000000000000000000010 ",
b00000000000000000000000000000010 {
b00000000000000000000000000000011 |
1.
1N
#36
0Z
0.
#41
1E
b011 :
1Z
1.
0N
#46
0Z
0.
#51
b00000000000000000000000000000001 !
b001 e
b010 '
b00000000000000000000000000000001 X
1Z
b00000000000000000000000000000001 +
1.
b00000000000000000000000000000010 ^
#56
0Z
0.
#61
b00000000000000000000000000000010 !
b00000000000000000000000000000011 d
b010 e
b001 '
b00000000000000000000000000000100 +
b00000000000000000000000000000010 -
1.
b00000000000000000000000000000010 v
b00000000000000000000000000000100 X
1Z
b00000000000000000000000000001000 ^
b00000000000000000000000000000001 ~
#66
0Z
0.
#71
b00000000000000000000000000000010 @
b00000000000000000000000000000000 !
b00000000000000000000000000000010 c
b00000000000000000000000000001100 d
b011 e
b000 '
b00000000000000000000000000000000 +
b00000000000000000000000000000011 ,
b00000000000000000000000000001000 -
1.
b00000000000000000000000000001000 v
b00000000000000000000000000000011 w
b00000000000000000000000000000000 X
1Z
b00000000000000000000000000000001 }
b00000000000000000000000000000000 ^
b00000000000000000000000000000100 ~
#76
0Z
0.
#81
b00000000000000000000000000001000 @
b00000000000000000000000000000001 !
b00000000000000000000000000000011 b
b00000000000000000000000000001000 c
b00000000000000000000000000000000 d
b100 e
b111 '
b00000000000000000000000000000010 "*
b00000000000000000000000000001100 ,
b00000000000000000000000000000000 -
1.
b00000000000000000000000000000000 v
b00000000000000000000000000001100 w
1Z
b00000000000000000000000000000100 }
b00000000000000000000000000000000 ~
b00000000000000000000000000000011 ?
#86
0Z
0.
#91
b00000000000000000000000000000000 @
b00000000000000000000000000000010 !
b00000000000000000000000000001100 b
b00000000000000000000000000000000 c
b101 e
b110 '
b00000000000000000000000000001000 "*
b00000000000000000000000000000000 ,
b00000000000000000000000000000011 "/
1.
b00000000000000000000000000000010 T
b00000000000000000000000000000000 w
1Z
b00000000000000000000000000000000 }
b00000000000000000000000000001100 ?
#96
0Z
0.
#101
b00000000000000000000000000000011 !
b00000000000000000000000000000000 b
b00000000000000000000000000000011 U
b110 e
1F
b101 '
1Z
b00000000000000000000000000001100 "/
1.
b00000000000000000000000000000000 ?
#106
0Z
0.
#111
b00000000000000000000000000000000 !
b00000000000000000000000000001100 "
b00000000000000000000000000001000 #
0E
b000 e
0F
b00000000000000000000000000001000 "(
b011 '
b00000000000000000000000000001100 ")
b00000000000000000000000000000010 K
b00000000000000000000000000000011 M
1.
b00000000000000000000000000000011 V
b00000000000000000000000000000010 W
b100 :
1Z
#116
0Z
0.
#121
b00000000000000000000000000000000 "
b00000000000000000000000000000000 #
1E
1&
b00000000000000000000000000000000 "(
b00000000000000000000000000000000 ")
1J
b00000000000000000000000000000000 K
b00000000000000000000000000000000 M
1.
1N
b00000000000000000000000000000000 V
b00000000000000000000000000000000 W
b001 :
1Z
#126
0Z
0.
#131
0E
0&
0J
1Z
1.
0N
#136
0Z
0.
#141
b010 :
1Z
1.
1N
#146
0Z
0.
#151
b00000000000000000000000000000000 T
1E
b00000000000000000000000000000000 U
b00000000000000000000000000000000 "*
b011 :
1Z
b00000000000000000000000000000000 "/
1.
0N
#156
0Z
0.
#161
b00000000000000000000000000000001 !
b001 e
b010 '
b00000000000000000000000000000001 X
1Z
b00000000000000000000000000000001 +
1.
b00000000000000000000000000000010 ^
#166
0Z
0.
#171
b00000000000000000000000000000010 !
b00000000000000000000000000000011 d
b010 e
b001 '
b00000000000000000000000000000100 +
b00000000000000000000000000000010 -
1.
b00000000000000000000000000000010 v
b00000000000000000000000000000100 X
1Z
b00000000000000000000000000001000 ^
b00000000000000000000000000000001 ~
#176
0Z
0.
#181
b00000000000000000000000000000010 @
b00000000000000000000000000000000 !
b00000000000000000000000000000010 c
b00000000000000000000000000001100 d
b011 e
b000 '
b00000000000000000000000000000000 +
b00000000000000000000000000000011 ,
b00000000000000000000000000001000 -
1.
b00000000000000000000000000001000 v
b00000000000000000000000000000011 w
b00000000000000000000000000000000 X
1Z
b00000000000000000000000000000001 }
b00000000000000000000000000000000 ^
b00000000000000000000000000000100 ~
#186
0Z
0.
#191
b00000000000000000000000000001000 @
b00000000000000000000000000000001 !
b00000000000000000000000000000011 b
b00000000000000000000000000001000 c
b00000000000000000000000000000000 d
b100 e
b111 '
b00000000000000000000000000000010 "*
b00000000000000000000000000001100 ,
b00000000000000000000000000000000 -
1.
b00000000000000000000000000000000 v
b00000000000000000000000000001100 w
1Z
b00000000000000000000000000000100 }
b00000000000000000000000000000000 ~
b00000000000000000000000000000011 ?
#196
0Z
0.
#201
b00000000000000000000000000000000 @
b00000000000000000000000000000010 !
b00000000000000000000000000001100 b
b00000000000000000000000000000000 c
b101 e
b110 '
b00000000000000000000000000001000 "*
b00000000000000000000000000000000 ,
b00000000000000000000000000000011 "/
1.
b00000000000000000000000000000010 T
b00000000000000000000000000000000 w
1Z
b00000000000000000000000000000000 }
b00000000000000000000000000001100 ?
#206
0Z
0.
#211
b00000000000000000000000000000011 !
b00000000000000000000000000000000 b
b00000000000000000000000000000011 U
b110 e
1F
b101 '
1Z
b00000000000000000000000000001100 "/
1.
b00000000000000000000000000000000 ?
#216
0Z
0.
#221
b00000000000000000000000000000000 !
b00000000000000000000000000001100 "
b00000000000000000000000000001000 #
0E
b000 e
0F
b00000000000000000000000000001000 "(
b011 '
b00000000000000000000000000001100 ")
b00000000000000000000000000000010 K
b00000000000000000000000000000011 M
1.
b00000000000000000000000000000011 V
b00000000000000000000000000000010 W
b100 :
1Z
#226
0Z
0.
#231
b00000000000000000000000000000000 "
b00000000000000000000000000000000 #
1E
1&
b00000000000000000000000000000000 "(
b00000000000000000000000000000000 ")
1J
b00000000000000000000000000000000 K
b00000000000000000000000000000000 M
1.
1N
b00000000000000000000000000000000 V
b00000000000000000000000000000000 W
b001 :
1Z
#236
b00000000000000000000000000000000 a
0(
b00000000000000000000000000000000 )
b00000000000000000000000000000000 ;
b00000000000000000000000000000000 <
0.
0"!
