test_run_dir/TPU_test_should_mult_one_cycle/ChiselTPU.vcd
$date
2023-03-14T07:32+0000
$end
$version
0.2
$end
$comment

$end
$timescale 1ns  $end
$scope module ChiselTPU $end
 $var wire 32 ! cycleIdx $end
 $var wire 32 " myOut_1_1 $end
 $var wire 32 # myOut_1_0 $end
 $var wire 1 & io_b_ready $end
 $var wire 1 ( io_a_valid $end
 $var wire 32 ) io_a_bits_0_0 $end
 $var wire 1 * enabledSyst $end
 $var wire 1 / clock $end
 $var wire 32 0 paddedA_1_0 $end
 $var wire 32 1 paddedA_1_1 $end
 $var wire 1 2 io_a_ready $end
 $var wire 3 5 state $end
 $var wire 32 6 io_b_bits_0_1 $end
 $var wire 32 7 io_b_bits_0_0 $end
 $var wire 32 8 paddedB_1_1 $end
 $var wire 32 9 paddedB_1_0 $end
 $var wire 1 ? counterFlag $end
 $var wire 1 @ wrap_wrap $end
 $var wire 3 A boundK $end
 $var wire 3 B boundM $end
 $var wire 3 C boundN $end
 $var wire 1 D b_ready $end
 $var wire 32 E io_out_0_0 $end
 $var wire 1 F reset $end
 $var wire 32 G io_out_0_1 $end
 $var wire 32 I slicedB_1_1 $end
 $var wire 32 J slicedB_1_0 $end
 $var wire 1 K a_ready $end
 $var wire 32 L slicedA_1_1 $end
 $var wire 32 M slicedA_1_0 $end
 $var wire 32 N slicedOut_0_0 $end
 $var wire 32 O slicedOut_0_1 $end
 $var wire 32 P myOut_0_1 $end
 $var wire 32 Q myOut_0_0 $end
 $var wire 10 T totalCycle $end
 $var wire 1 X allowReadB $end
 $var wire 1 Y sliceCycle $end
 $var wire 32 [ io_a_bits_1_1 $end
 $var wire 32 \ io_a_bits_1_0 $end
 $var wire 3 ` cycle $end
 $var wire 1 a wrap_wrap_1 $end
 $var wire 1 b actReg $end
 $var wire 32 c paddedA_0_1 $end
 $var wire 32 d paddedA_0_0 $end
 $var wire 1 e systArr $end
 $var wire 32 f slicedA_0_1 $end
 $var wire 32 g slicedA_0_0 $end
 $var wire 32 h paddedB_0_0 $end
 $var wire 32 i paddedB_0_1 $end
 $var wire 1 q io_b_valid $end
 $var wire 1 r printf_1 $end
 $var wire 1 s printf $end
 $var wire 32 t io_a_bits_0_1 $end
 $var wire 32 v io_out_1_0 $end
 $var wire 32 w io_out_1_1 $end
 $var wire 32 x slicedOut_1_0 $end
 $var wire 32 y slicedB_0_1 $end
 $var wire 32 z slicedB_0_0 $end
 $var wire 32 { io_b_bits_1_1 $end
 $var wire 32 | io_b_bits_1_0 $end
 $var wire 32 } slicedOut_1_1 $end
  $scope module systArr $end
   $var wire 32 $ b_reg_1_0 $end
   $var wire 32 % b_reg_1_1 $end
   $var wire 32 - cmp_input_1_1 $end
   $var wire 32 . cmp_input_1_0 $end
   $var wire 32 3 io_b_in_1_0 $end
   $var wire 32 4 io_b_in_1_1 $end
   $var wire 32 : cms_reg_1_1 $end
   $var wire 32 ; cms_reg_1_0 $end
   $var wire 32 > a_reg_1_0 $end
   $var wire 1 H io_b_readingin $end
   $var wire 32 R io_a_in_0 $end
   $var wire 32 S io_a_in_1 $end
   $var wire 1 U clock $end
   $var wire 32 V b_reg_0_0 $end
   $var wire 32 W b_reg_0_1 $end
   $var wire 32 Z cmp_input_0_0 $end
   $var wire 32 ] io_out_1 $end
   $var wire 32 ^ io_out_0 $end
   $var wire 32 _ cmp_input_0_1 $end
   $var wire 32 j cms_reg_0_0 $end
   $var wire 32 k cms_reg_0_1 $end
   $var wire 32 n io_b_in_0_0 $end
   $var wire 32 o io_b_in_0_1 $end
   $var wire 32 p a_reg_0_0 $end
   $var wire 1 u io_en $end
  $upscope $end
  $scope module actReg $end
   $var wire 3 ' io_index $end
   $var wire 32 + io_a_out_1 $end
   $var wire 32 , io_a_out_0 $end
   $var wire 32 < io_a_0_1 $end
   $var wire 32 = io_a_0_0 $end
   $var wire 32 l io_a_1_1 $end
   $var wire 32 m io_a_1_0 $end
  $upscope $end
$upscope $end
$enddefinitions $end
$dumpvars
b00000000000000000000000000000000 +
02
b00000000000000000000000000000000 -
b00000000000000000000000000000000 ,
b00000000000000000000000000000000 )
b00000000000000000000000000000000 #
b00000000000000000000000000000000 "
b00000000000000000000000000000000 %
b00000000000000000000000000000000 $
b00000000000000000000000000000000 !
0?
0@
b00000000000000000000000000000000 ;
b00000000000000000000000000000000 :
b00000000000000000000000000000000 =
b00000000000000000000000000000000 <
0D
b00000000000000000000000000000000 7
b00000000000000000000000000000000 6
0F
b00000000000000000000000000000000 9
b00000000000000000000000000000000 8
0H
b00000000000000000000000000000000 3
0K
b00000000000000000000000000000000 4
b00000000000000000000000000000000 .
b00000000000000000000000000000000 1
b00000000000000000000000000000000 0
0U
0X
0Y
0a
0b
0e
b000 `
b00000000000000000000000000000000 k
0q
b00000000000000000000000000000000 j
0r
b00000000000000000000000000000000 m
0s
b00000000000000000000000000000000 l
b000 C
b00000000000000000000000000000000 g
b000 B
0u
b00000000000000000000000000000000 f
b00000000000000000000000000000000 i
b00000000000000000000000000000000 h
b00000000000000000000000000000000 c
b00000000000000000000000000000000 d
b00000000000000000000000000000000 _
b00000000000000000000000000000000 ^
b00000000000000000000000000000000 {
b00000000000000000000000000000000 z
b00000000000000000000000000000000 }
b00000000000000000000000000000000 |
b00000000000000000000000000000000 w
b00000000000000000000000000000000 v
b000 5
b00000000000000000000000000000000 y
b00000000000000000000000000000000 x
b000 A
b00000000000000000000000000000000 t
b00000000000000000000000000000000 o
b00000000000000000000000000000000 n
b00000000000000000000000000000000 p
b000 '
b00000000000000000000000000000000 J
b00000000000000000000000000000000 M
b00000000000000000000000000000000 L
b00000000000000000000000000000000 G
b00000000000000000000000000000000 I
b00000000000000000000000000000000 E
b0000000000 T
b00000000000000000000000000000000 >
b00000000000000000000000000000000 [
b00000000000000000000000000000000 Z
b00000000000000000000000000000000 ]
b00000000000000000000000000000000 \
b00000000000000000000000000000000 W
b00000000000000000000000000000000 V
0&
0(
b00000000000000000000000000000000 S
b00000000000000000000000000000000 R
0*
b00000000000000000000000000000000 O
b00000000000000000000000000000000 N
b00000000000000000000000000000000 Q
0/
b00000000000000000000000000000000 P
$end
#0
1F
b011 '
#1
12
1D
1U
1&
1K
1/
#6
0F
1(
b00000000000000000000000000000010 )
b00000000000000000000000000000101 l
b00000000000000000000000000000001 m
0/
1q
b00000000000000000000000000000011 t
0U
b00000000000000000000000000000101 7
b00000000000000000000000000000101 [
b00000000000000000000000000000011 <
b00000000000000000000000000000001 \
b00000000000000000000000000000011 |
b00000000000000000000000000000010 =
#11
b00000000000000000000000000000011 c
b00000000000000000000000000000010 d
0K
b00000000000000000000000000000000 l
b00000000000000000000000000000000 m
b00000000000000000000000000000101 n
1/
b00000000000000000000000000000001 0
b00000000000000000000000000000101 1
02
b00000000000000000000000000000011 3
b0000000001 T
b001 5
1U
b00000000000000000000000000000000 <
b00000000000000000000000000000000 =
1?
#16
0U
0/
#21
0D
0&
b00000000000000000000000000000011 f
b00000000000000000000000000000010 g
1H
b00000000000000000000000000000101 h
b00000000000000000000000000000101 L
b00000000000000000000000000000101 l
b00000000000000000000000000000001 M
b00000000000000000000000000000001 m
b00000000000000000000000000000000 n
1/
b00000000000000000000000000000000 3
b0000000010 T
1U
1X
b00000000000000000000000000000011 9
b00000000000000000000000000000011 <
b00000000000000000000000000000010 =
0?
#26
0U
0/
#31
b00000000000000000000000000000011 3
b0000000011 T
b010 5
1U
b00000000000000000000000000000011 J
b00000000000000000000000000000101 z
b00000000000000000000000000000101 n
1/
#36
0U
0/
#41
b0000000100 T
b011 5
1U
1/
1?
#46
0U
0/
#51
b0000000101 T
1U
1u
1*
1/
#56
0U
0/
#61
b001 `
b00000000000000000000000000000001 !
b00000000000000000000000000000010 R
b00000000000000000000000000000011 $
b0000000110 T
1U
b00000000000000000000000000000101 V
b010 '
b00000000000000000000000000001010 Z
b00000000000000000000000000000010 ,
1/
#66
0U
0/
#71
b010 `
b00000000000000000000000000000010 !
b001 '
0H
b00000000000000000000000000001010 j
b00000000000000000000000000000011 +
b00000000000000000000000000000001 ,
b00000000000000000000000000010011 .
1/
b00000000000000000000000000000010 p
b00000000000000000000000000000001 R
b00000000000000000000000000000011 S
b0000000111 T
1U
0X
b00000000000000000000000000000101 Z
#76
0U
0/
#81
b011 `
b00000000000000000000000000000000 !
b000 '
b00000000000000000000000000000101 j
b00000000000000000000000000000101 +
b00000000000000000000000000000000 ,
b00000000000000000000000000010100 .
1/
b00000000000000000000000000000001 p
b00000000000000000000000000000000 R
b00000000000000000000000000000101 S
b0000001000 T
1U
b00000000000000000000000000000000 Z
b00000000000000000000000000010011 ;
b00000000000000000000000000000011 >
b00000000000000000000000000010011 ^
#86
0U
0/
#91
b100 `
b00000000000000000000000000000001 !
b111 '
b00000000000000000000000000000000 j
b00000000000000000000000000000000 +
b00000000000000000000000000000000 .
1/
b00000000000000000000000000000000 p
b00000000000000000000000000000000 S
b0000001001 T
1U
b00000000000000000000000000010011 x
b00000000000000000000000000010100 ;
b00000000000000000000000000000101 >
b00000000000000000000000000010100 ^
#96
0U
0/
#101
b101 `
b00000000000000000000000000000010 !
b0000001010 T
1U
b110 '
b00000000000000000000000000010100 x
b00000000000000000000000000000000 ;
b00000000000000000000000000000000 >
b00000000000000000000000000010011 N
b00000000000000000000000000000000 ^
1/
#106
0U
0/
#111
1@
b110 `
b00000000000000000000000000000011 !
b0000001011 T
1U
b101 '
1/
#116
0U
0/
#121
0@
b000 `
b00000000000000000000000000000000 !
b00000000000000000000000000010100 #
b00000000000000000000000000010011 E
b011 '
1/
b00000000000000000000000000010011 Q
b0000001100 T
b100 5
1U
b00000000000000000000000000010100 v
0?
#126
0U
0/
#131
b00000000000000000000000000000000 Q
b00000000000000000000000000000000 #
1D
b0000001101 T
b001 5
b00000000000000000000000000000000 E
1U
1&
b00000000000000000000000000000000 v
1/
1?
#136
0q
b00000000000000000000000000000000 t
0U
b00000000000000000000000000000000 7
0(
b00000000000000000000000000000000 )
b00000000000000000000000000000000 [
b00000000000000000000000000000000 \
b00000000000000000000000000000000 |
0/
