test_run_dir/TPU_test_should_mult_one_cycle/ChiselTPU.vcd
$date
2023-03-14T02:05+0000
$end
$version
0.2
$end
$comment

$end
$timescale 1ns  $end
$scope module ChiselTPU $end
 $var wire 32 ! myOut_1_2 $end
 $var wire 32 " myOut_1_1 $end
 $var wire 32 # myOut_1_0 $end
 $var wire 32 & io_a_bits_0_0 $end
 $var wire 32 ) paddedA_1_0 $end
 $var wire 32 * paddedA_1_1 $end
 $var wire 32 + paddedA_1_2 $end
 $var wire 32 , paddedA_1_3 $end
 $var wire 1 - io_a_ready $end
 $var wire 32 0 io_b_bits_0_2 $end
 $var wire 3 1 state $end
 $var wire 32 2 io_b_bits_0_1 $end
 $var wire 32 3 io_b_bits_0_0 $end
 $var wire 32 6 paddedB_3_3 $end
 $var wire 32 7 paddedB_3_1 $end
 $var wire 32 8 paddedB_3_2 $end
 $var wire 32 9 paddedB_3_0 $end
 $var wire 1 : b_ready $end
 $var wire 32 ; io_out_0_0 $end
 $var wire 32 < io_out_0_1 $end
 $var wire 32 = io_out_0_2 $end
 $var wire 32 > slicedB_1_1 $end
 $var wire 32 ? slicedB_1_0 $end
 $var wire 1 @ a_ready $end
 $var wire 32 A paddedOut_2_3 $end
 $var wire 32 B paddedOut_2_2 $end
 $var wire 32 C paddedOut_2_1 $end
 $var wire 32 D paddedOut_2_0 $end
 $var wire 32 E slicedOut_0_0 $end
 $var wire 32 F slicedOut_0_1 $end
 $var wire 32 G myOut_0_2 $end
 $var wire 32 H myOut_0_1 $end
 $var wire 32 I myOut_0_0 $end
 $var wire 32 L myOut_2_1 $end
 $var wire 32 M myOut_2_0 $end
 $var wire 32 N myOut_2_2 $end
 $var wire 32 R io_a_bits_1_2 $end
 $var wire 32 S io_a_bits_1_1 $end
 $var wire 32 T io_a_bits_1_0 $end
 $var wire 32 X paddedA_0_1 $end
 $var wire 32 Y paddedA_0_2 $end
 $var wire 32 Z paddedA_0_3 $end
 $var wire 32 [ paddedA_0_0 $end
 $var wire 1 \ systArr $end
 $var wire 32 ] slicedA_0_1 $end
 $var wire 32 ^ slicedA_0_0 $end
 $var wire 32 f paddedB_2_2 $end
 $var wire 32 g paddedB_2_3 $end
 $var wire 32 h paddedB_2_0 $end
 $var wire 32 i paddedB_2_1 $end
 $var wire 1 j printf_9 $end
 $var wire 1 k printf_8 $end
 $var wire 1 l printf_7 $end
 $var wire 1 m printf_6 $end
 $var wire 1 n printf_1 $end
 $var wire 1 o printf_5 $end
 $var wire 1 p printf_4 $end
 $var wire 1 q printf_3 $end
 $var wire 1 r printf_2 $end
 $var wire 1 s printf $end
 $var wire 32 t io_a_bits_0_2 $end
 $var wire 32 u io_a_bits_0_1 $end
 $var wire 32 v paddedOut_1_3 $end
 $var wire 32 w paddedOut_1_2 $end
 $var wire 32 x paddedOut_1_1 $end
 $var wire 32 y paddedOut_1_0 $end
 $var wire 32 z slicedOut_1_0 $end
 $var wire 32 { slicedOut_1_1 $end
 $var wire 1 | printf_28 $end
 $var wire 32 } cycleIdx $end
 $var wire 1 ~ printf_29 $end
 $var wire 1 "! printf_24 $end
 $var wire 1 "" printf_25 $end
 $var wire 1 "# printf_26 $end
 $var wire 1 "$ printf_27 $end
 $var wire 1 "% printf_20 $end
 $var wire 1 "& printf_21 $end
 $var wire 1 "' printf_22 $end
 $var wire 1 "( printf_23 $end
 $var wire 1 ") printf_17 $end
 $var wire 1 "* printf_18 $end
 $var wire 1 "+ printf_19 $end
 $var wire 1 ", printf_13 $end
 $var wire 1 "- printf_14 $end
 $var wire 1 ". printf_15 $end
 $var wire 1 "/ printf_16 $end
 $var wire 1 "0 printf_10 $end
 $var wire 1 "1 printf_11 $end
 $var wire 1 "2 printf_12 $end
 $var wire 1 "3 io_b_ready $end
 $var wire 1 "5 io_a_valid $end
 $var wire 32 "8 io_a_bits_2_2 $end
 $var wire 32 "9 io_a_bits_2_1 $end
 $var wire 32 ": io_a_bits_2_0 $end
 $var wire 1 "; clock $end
 $var wire 1 "< printf_35 $end
 $var wire 1 "= printf_31 $end
 $var wire 1 "> printf_32 $end
 $var wire 1 "? printf_33 $end
 $var wire 1 "@ printf_34 $end
 $var wire 1 "A printf_30 $end
 $var wire 32 "B paddedB_1_3 $end
 $var wire 32 "C paddedB_1_1 $end
 $var wire 32 "D paddedB_1_2 $end
 $var wire 32 "E paddedB_1_0 $end
 $var wire 32 "F paddedA_3_2 $end
 $var wire 32 "G paddedA_3_3 $end
 $var wire 32 "H paddedA_3_0 $end
 $var wire 32 "I paddedA_3_1 $end
 $var wire 32 "M io_out_2_0 $end
 $var wire 32 "N io_out_2_1 $end
 $var wire 32 "O io_out_2_2 $end
 $var wire 1 "P counterFlag $end
 $var wire 1 "Q wrap_wrap $end
 $var wire 4 "R boundK $end
 $var wire 5 "S boundM $end
 $var wire 32 "T paddedOut_0_3 $end
 $var wire 5 "U boundN $end
 $var wire 32 "V paddedOut_0_2 $end
 $var wire 32 "W paddedOut_0_1 $end
 $var wire 32 "X paddedOut_0_0 $end
 $var wire 1 "Y reset $end
 $var wire 32 "[ io_b_bits_2_1 $end
 $var wire 32 "\ io_b_bits_2_0 $end
 $var wire 32 "] io_b_bits_2_2 $end
 $var wire 32 "^ slicedA_1_1 $end
 $var wire 32 "_ slicedA_1_0 $end
 $var wire 3 "a sliceCycle $end
 $var wire 4 "b cycle $end
 $var wire 1 "c actReg $end
 $var wire 32 "d paddedB_0_2 $end
 $var wire 32 "e paddedB_0_3 $end
 $var wire 32 "f paddedB_0_0 $end
 $var wire 32 "g paddedB_0_1 $end
 $var wire 32 "h paddedA_2_3 $end
 $var wire 32 "i paddedA_2_0 $end
 $var wire 32 "j paddedA_2_1 $end
 $var wire 32 "k paddedA_2_2 $end
 $var wire 1 "l io_b_valid $end
 $var wire 32 "m io_out_1_0 $end
 $var wire 32 "n io_out_1_1 $end
 $var wire 32 "o io_out_1_2 $end
 $var wire 32 "p slicedB_0_1 $end
 $var wire 32 "q slicedB_0_0 $end
 $var wire 32 "r io_b_bits_1_2 $end
 $var wire 32 "s paddedOut_3_3 $end
 $var wire 32 "t io_b_bits_1_1 $end
 $var wire 32 "u paddedOut_3_2 $end
 $var wire 32 "v paddedOut_3_1 $end
 $var wire 32 "w paddedOut_3_0 $end
 $var wire 32 "x io_b_bits_1_0 $end
  $scope module systArr $end
   $var wire 32 $ b_reg_1_0 $end
   $var wire 32 % b_reg_1_1 $end
   $var wire 32 ' cmp_input_1_1 $end
   $var wire 32 ( cmp_input_1_0 $end
   $var wire 32 . io_b_in_1_0 $end
   $var wire 32 / io_b_in_1_1 $end
   $var wire 32 4 cms_reg_1_1 $end
   $var wire 32 5 cms_reg_1_0 $end
   $var wire 32 J io_a_in_0 $end
   $var wire 32 K io_a_in_1 $end
   $var wire 32 O b_reg_0_0 $end
   $var wire 32 P b_reg_0_1 $end
   $var wire 32 Q cmp_input_0_0 $end
   $var wire 32 U io_out_1 $end
   $var wire 32 V io_out_0 $end
   $var wire 32 W cmp_input_0_1 $end
   $var wire 32 _ cms_reg_0_0 $end
   $var wire 32 ` cms_reg_0_1 $end
   $var wire 32 c io_b_in_0_0 $end
   $var wire 32 d io_b_in_0_1 $end
   $var wire 32 e a_reg_0_0 $end
   $var wire 32 "L a_reg_1_0 $end
   $var wire 1 "Z io_b_readingin $end
   $var wire 1 "` clock $end
  $upscope $end
  $scope module actReg $end
   $var wire 32 a io_a_1_1 $end
   $var wire 32 b io_a_1_0 $end
   $var wire 3 "4 io_index $end
   $var wire 32 "6 io_a_out_1 $end
   $var wire 32 "7 io_a_out_0 $end
   $var wire 32 "J io_a_0_1 $end
   $var wire 32 "K io_a_0_0 $end
  $upscope $end
$upscope $end
$enddefinitions $end
$dumpvars
b00000000000000000000000000000000 +
b00000000000000000000000000000000 *
b00000000000000000000000000000000 ,
b00000000000000000000000000000000 '
b00000000000000000000000000000000 &
b00000000000000000000000000000000 )
b00000000000000000000000000000000 (
b00000000000000000000000000000000 #
b00000000000000000000000000000000 "
0:
b00000000000000000000000000000000 %
b00000000000000000000000000000000 $
b00000000000000000000000000000000 !
0@
b00000000000000000000000000000000 ;
b00000000000000000000000000000000 =
b00000000000000000000000000000000 <
b00000000000000000000000000000000 "C
b00000000000000000000000000000000 7
b00000000000000000000000000000000 "B
b00000000000000000000000000000000 6
b00000000000000000000000000000000 9
b00000000000000000000000000000000 8
b00000000000000000000000000000000 "7
b00000000000000000000000000000000 3
b00000000000000000000000000000000 "6
b00000000000000000000000000000000 2
b00000000000000000000000000000000 5
b00000000000000000000000000000000 4
b00000000000000000000000000000000 /
b00000000000000000000000000000000 ":
b00000000000000000000000000000000 .
b00000000000000000000000000000000 "9
b00000000000000000000000000000000 "8
b00000000000000000000000000000000 0
b00000000000000000000000000000000 "O
b00000000000000000000000000000000 "N
b00000000000000000000000000000000 "M
b00000000000000000000000000000000 "L
b00000000000000000000000000000000 "G
b00000000000000000000000000000000 "F
b00000000000000000000000000000000 "E
b00000000000000000000000000000000 "D
b00000000000000000000000000000000 "K
0\
b00000000000000000000000000000000 "J
b00000000000000000000000000000000 "I
b00000000000000000000000000000000 "H
b00000000000000000000000000000000 "_
b00000000000000000000000000000000 "^
b00000000000000000000000000000000 "]
b00000000000000000000000000000000 "\
b00000000000000000000000000000000 "W
b00000000000000000000000000000000 "V
0j
b00000000000000000000000000000000 "T
0k
b00000000000000000000000000000000 "[
0l
0m
0n
b00000000000000000000000000000000 "X
0o
0p
0q
0r
0s
0|
0~
0"!
0""
0"#
0"$
0"%
0"&
0"'
0"(
0")
0"*
0"+
0",
0"-
0".
0"/
0"0
0"1
0"2
0"3
0"5
0";
0"<
0"=
0">
0"?
0"@
0"A
b000 "a
0"P
0"Q
0"Y
0"Z
0"`
0"c
0"l
b00000000000000000000000000000000 "o
b00000000000000000000000000000000 "n
b00000000000000000000000000000000 "m
b00000000000000000000000000000000 "s
b00000000000000000000000000000000 g
b00000000000000000000000000000000 "r
b00000000000000000000000000000000 f
b00000000000000000000000000000000 "q
b00000000000000000000000000000000 i
b00000000000000000000000000000000 "p
b00000000000000000000000000000000 h
b00000000000000000000000000000000 "g
b00000000000000000000000000000000 c
b00000000000000000000000000000000 "f
b00000000000000000000000000000000 b
b00000000000000000000000000000000 "e
b00000000000000000000000000000000 e
b00000000000000000000000000000000 "d
b00000000000000000000000000000000 d
b00000000000000000000000000000000 "k
b00000000000000000000000000000000 _
b00000000000000000000000000000000 "j
b00000000000000000000000000000000 ^
b00000000000000000000000000000000 "i
b00000000000000000000000000000000 a
b00000000000000000000000000000000 "h
b00000000000000000000000000000000 `
b00000000000000000000000000000000 {
b00000000000000000000000000000000 z
b00000000000000000000000000000000 }
b00000000000000000000000000000000 w
b00000000000000000000000000000000 v
b00000000000000000000000000000000 y
b00000000000000000000000000000000 x
b00000000000000000000000000000000 "w
b00000000000000000000000000000000 "v
b00000000000000000000000000000000 "u
b00000000000000000000000000000000 u
b00000000000000000000000000000000 "t
b00000000000000000000000000000000 t
b00000000000000000000000000000000 "x
b00000000000000000000000000000000 K
b00000000000000000000000000000000 J
b000 "4
b00000000000000000000000000000000 M
b00000000000000000000000000000000 L
b00000000000000000000000000000000 G
b00000000000000000000000000000000 F
b00000000000000000000000000000000 I
b00000000000000000000000000000000 H
b00000000000000000000000000000000 C
b00000000000000000000000000000000 B
b000 1
b00000000000000000000000000000000 E
b00000000000000000000000000000000 D
b00000000000000000000000000000000 ?
b00000000000000000000000000000000 >
b00000000000000000000000000000000 A
b0000 "R
b00000000000000000000000000000000 [
b00000000000000000000000000000000 Z
b00000000000000000000000000000000 ]
b00000000000000000000000000000000 W
b00000000000000000000000000000000 V
b00000000000000000000000000000000 Y
b00000000000000000000000000000000 X
b00000000000000000000000000000000 S
b00000000000000000000000000000000 R
b00000000000000000000000000000000 U
b00000 "S
b00000000000000000000000000000000 T
b00000000000000000000000000000000 O
b00000 "U
0-
b00000000000000000000000000000000 N
b00000000000000000000000000000000 Q
b0000 "b
b00000000000000000000000000000000 P
$end
#0
b011 "4
1"Y
#1
1@
1"3
1";
1:
1-
1"`
#6
1"l
b00000000000000000000000000000011 "r
b00000000000000000000000000000100 R
b00000000000000000000000000000001 "t
b00000000000000000000000000000101 S
1"5
b00000000000000000000000000000001 T
b00000000000000000000000000000001 "8
b00000000000000000000000000000100 "x
b00000000000000000000000000000100 "9
b00000000000000000000000000000011 ":
0";
b00000000000000000000000000000101 a
b00000000000000000000000000000001 b
b00000000000000000000000000000010 &
b00000000000000000000000000000011 "J
b00000000000000000000000000000010 "K
b00000000000000000000000000000101 0
b00000000000000000000000000000101 2
b00000000000000000000000000000010 3
b00000000000000000000000000000001 t
b00000000000000000000000000000011 u
0"Y
b00000000000000000000000000000011 "[
b00000000000000000000000000000010 "\
b00000000000000000000000000000001 "]
0"`
#11
0@
b00000000000000000000000000000011 "i
b00000000000000000000000000000100 "j
b00000000000000000000000000000001 "k
b00000000000000000000000000000011 X
b00000000000000000000000000000001 Y
1";
b00000000000000000000000000000010 [
b00000000000000000000000000000000 a
b00000000000000000000000000000000 b
b00000000000000000000000000000010 c
b00000000000000000000000000000101 d
b00000000000000000000000000000000 "J
b00000000000000000000000000000001 )
b00000000000000000000000000000000 "K
b00000000000000000000000000000101 *
b00000000000000000000000000000100 +
0-
b00000000000000000000000000000100 .
1"P
b00000000000000000000000000000001 /
b001 1
1"Z
1"`
#16
0";
0"`
#21
b00000000000000000000000000000101 "d
b00000000000000000000000000000010 "f
b00000000000000000000000000000101 "g
b00000000000000000000000000000010 O
b00000000000000000000000000000101 P
0"3
1";
b00000000000000000000000000000011 ]
b00000000000000000000000000000010 ^
b00000000000000000000000000000101 a
b00000000000000000000000000000001 "C
b00000000000000000000000000000001 b
b00000000000000000000000000000011 "D
b00000000000000000000000000000000 c
b00000000000000000000000000000100 "E
b00000000000000000000000000000100 $
b00000000000000000000000000000000 d
b00000000000000000000000000000001 %
b00000000000000000000000000000001 f
b00000000000000000000000000000010 h
b00000000000000000000000000000011 "J
b00000000000000000000000000000011 i
b00000000000000000000000000000010 "K
b00000000000000000000000000000000 .
0"P
b00000000000000000000000000000000 /
0"Z
0:
b00000000000000000000000000000101 "^
b00000000000000000000000000000001 "_
1"`
#26
0";
0"`
#31
b00000000000000000000000000000010 c
b00000000000000000000000000000101 d
b00000000000000000000000000000100 .
b00000000000000000000000000000101 "p
b00000000000000000000000000000001 /
b00000000000000000000000000000010 "q
b0010 "R
b010 1
b00010 "S
b00010 "U
1";
b00000000000000000000000000000001 >
1"`
b00000000000000000000000000000100 ?
b111 "a
#36
0";
0"`
#41
b00000000000000000000000000000000 "p
b00000000000000000000000000000001 "q
1";
b00000000000000000000000000000000 ]
b00000000000000000000000000000001 ^
b00000000000000000000000000000000 a
b00000000000000000000000000000000 b
b00000000000000000000000000000001 c
b00000000000000000000000000000000 d
b00000000000000000000000000000000 "J
b00000000000000000000000000000001 "K
b00000000000000000000000000000000 .
1"P
b00000000000000000000000000000000 /
b0000 "R
b011 1
b00000 "S
b00000 "U
b00000000000000000000000000000000 "^
b00000000000000000000000000000000 "_
b00000000000000000000000000000000 >
1"`
b00000000000000000000000000000000 ?
b000 "a
#46
0";
0"`
#51
b0001 "b
b00000000000000000000000000000010 J
b00000000000000000000000000000101 "p
b00000000000000000000000000000010 "q
b00000000000000000000000000000100 Q
b010 "4
b00000000000000000000000000000010 "7
1";
b00000000000000000000000000000011 ]
b00000000000000000000000000000010 ^
b00000000000000000000000000000101 a
b00000000000000000000000000000001 b
b00000000000000000000000000000010 c
b00000000000000000000000000000101 d
b00000000000000000000000000000011 "J
b00000000000000000000000000000010 "K
b00000000000000000000000000000100 .
b00000000000000000000000000000001 /
b00000000000000000000000000000101 "^
b00000000000000000000000000000001 }
b00000000000000000000000000000001 "_
b00000000000000000000000000000001 >
1"`
b00000000000000000000000000000100 ?
#56
0";
0"`
#61
b0010 "b
b00000000000000000000000000000010 e
b00000000000000000000000000010000 (
b00000000000000000000000000000001 J
b00000000000000000000000000000011 K
b00000000000000000000000000000010 Q
b001 "4
b00000000000000000000000000000011 "6
b00000000000000000000000000000001 "7
b00000000000000000000000000001010 W
1";
b00000000000000000000000000000010 }
1"`
b00000000000000000000000000000100 _
#66
0";
0"`
#71
b00000000000000000000000000001010 `
b0011 "b
b00000000000000000000000000000001 e
b00000000000000000000000000001101 '
b00000000000000000000000000010110 (
b00000000000000000000000000000000 J
b00000000000000000000000000000011 "L
b00000000000000000000000000000101 K
b00000000000000000000000000000000 Q
b000 "4
b00000000000000000000000000000101 "6
b00000000000000000000000000010000 5
b00000000000000000000000000000000 "7
b00000000000000000000000000010000 V
b00000000000000000000000000000101 W
1";
b00000000000000000000000000000000 }
1"`
b00000000000000000000000000000010 _
#76
0";
0"`
#81
b00000000000000000000000000000101 `
b0100 "b
b00000000000000000000000000000000 e
b00000000000000000000000000001010 '
b00000000000000000000000000000000 (
b00000000000000000000000000000101 "L
b00000000000000000000000000000000 K
b111 "4
b00000000000000000000000000001101 4
b00000000000000000000000000000000 "6
b00000000000000000000000000010110 5
b00000000000000000000000000001101 U
b00000000000000000000000000010110 V
b00000000000000000000000000000000 W
1";
b00000000000000000000000000010000 z
b00000000000000000000000000000001 }
1"`
b00000000000000000000000000000000 _
#86
0";
0"`
#91
b00000000000000000000000000000000 `
b0101 "b
b00000000000000000000000000010000 E
b00000000000000000000000000000000 '
b00000000000000000000000000000000 "L
b110 "4
b00000000000000000000000000001010 4
b00000000000000000000000000000000 5
b00000000000000000000000000001010 U
b00000000000000000000000000000000 V
1";
b00000000000000000000000000010110 z
b00000000000000000000000000001101 {
b00000000000000000000000000000010 }
1"`
#96
0";
0"`
#101
b0110 "b
b101 "4
b00000000000000000000000000000000 4
b00000000000000000000000000000000 U
b00000000000000000000000000001101 F
1";
b00000000000000000000000000001010 {
b00000000000000000000000000000011 }
1"`
#106
0";
0"`
#111
b0111 "b
b100 "4
1";
b00000000000000000000000000000100 }
1"`
#116
0";
0"`
#121
b1000 "b
b011 "4
1";
b00000000000000000000000000000101 }
1"`
#126
0";
0"`
#131
b1001 "b
b00000000000000000000000000000100 Q
b010 "4
b00000000000000000000000000000010 "7
1";
b00000000000000000000000000000010 J
b00000000000000000000000000000110 }
1"`
1"Q
#136
0";
0"`
#141
b0000 "b
b00000000000000000000000000001010 "
b00000000000000000000000000010110 #
b00000000000000000000000000000010 e
b00000000000000000000000000000100 (
b00000000000000000000000000001101 H
b00000000000000000000000000010000 I
b00000000000000000000000000000000 J
b00000000000000000000000000010110 "m
b00000000000000000000000000001010 "n
0"P
0"Q
b010 1
b00000000000000000000000000000000 Q
b011 "4
b00000000000000000000000000000000 "7
b00000000000000000000000000001010 W
1";
b00000000000000000000000000010000 ;
b00000000000000000000000000001101 <
b00000000000000000000000000000000 }
1"`
b00000000000000000000000000000100 _
#146
0";
0"`
#151
b00000000000000000000000000001010 `
b00000000000000000000000000000000 E
b00000000000000000000000000000000 e
b00000000000000000000000000000000 F
b00000000000000000000000000001010 '
b00000000000000000000000000000000 (
1"P
b0010 "R
b011 1
b00000000000000000000000000000100 5
b00000000000000000000000000000100 V
b00000000000000000000000000000000 W
1";
b00000000000000000000000000000000 z
b00000000000000000000000000000000 {
1"`
b00000000000000000000000000000000 _
b001 "a
#156
0";
0"`
#161
b0001 "b
b00000000000000000000000000000001 J
b00000000000000000000000000000011 "p
b00000000000000000000000000000010 Q
b010 "4
b00000000000000000000000000001010 U
b00000000000000000000000000000001 "7
b00000000000000000000000000000000 V
1";
b00000000000000000000000000000000 ]
b00000000000000000000000000000001 ^
b00000000000000000000000000000000 `
b00000000000000000000000000000000 a
b00000000000000000000000000000100 b
b00000000000000000000000000000011 d
b00000000000000000000000000000000 '
b00000000000000000000000000000000 "J
b00000000000000000000000000000001 "K
b00000000000000000000000000000000 .
b00000000000000000000000000000000 /
b00000000000000000000000000001010 4
b00000000000000000000000000000000 5
b00000000000000000000000000000000 "^
b00000000000000000000000000000001 }
b00000000000000000000000000000100 "_
b00000000000000000000000000000000 >
1"`
b00000000000000000000000000000000 ?
#166
0";
0"`
#171
b0010 "b
b00000000000000000000000000000001 e
b00000000000000000000000000000010 (
b00000000000000000000000000000100 J
b00000000000000000000000000001000 Q
b001 "4
b00000000000000000000000000000000 4
b00000000000000000000000000000000 U
b00000000000000000000000000000100 "7
b00000000000000000000000000000101 W
1";
b00000000000000000000000000000010 }
1"`
b00000000000000000000000000000010 _
