test_run_dir/TPU_test_should_mult_one_cycle/ChiselTPU.vcd
$date
2023-03-14T01:15+0000
$end
$version
0.2
$end
$comment

$end
$timescale 1ns  $end
$scope module ChiselTPU $end
 $var wire 32 ! myOut_1_2 $end
 $var wire 32 " myOut_1_1 $end
 $var wire 32 # myOut_1_0 $end
 $var wire 32 ' io_a_bits_0_0 $end
 $var wire 32 ( paddedA_1_0 $end
 $var wire 32 ) paddedA_1_1 $end
 $var wire 32 * paddedA_1_2 $end
 $var wire 1 + io_a_ready $end
 $var wire 32 , io_b_bits_0_2 $end
 $var wire 3 - state $end
 $var wire 32 . io_b_bits_0_1 $end
 $var wire 32 / io_b_bits_0_0 $end
 $var wire 1 3 b_ready $end
 $var wire 1 4 a_ready $end
 $var wire 32 5 myOut_0_2 $end
 $var wire 32 6 myOut_0_1 $end
 $var wire 32 7 myOut_0_0 $end
 $var wire 32 8 myOut_2_1 $end
 $var wire 32 9 myOut_2_0 $end
 $var wire 32 : myOut_2_2 $end
 $var wire 32 > io_a_bits_1_2 $end
 $var wire 32 ? io_a_bits_1_1 $end
 $var wire 32 @ io_a_bits_1_0 $end
 $var wire 32 A paddedA_0_1 $end
 $var wire 32 B paddedA_0_2 $end
 $var wire 32 C paddedA_0_0 $end
 $var wire 32 I paddedB_2_2 $end
 $var wire 32 J paddedB_2_0 $end
 $var wire 32 K paddedB_2_1 $end
 $var wire 1 L printf_9 $end
 $var wire 1 M printf_8 $end
 $var wire 1 N printf_7 $end
 $var wire 1 O printf_6 $end
 $var wire 1 P printf_1 $end
 $var wire 1 Q printf_5 $end
 $var wire 1 R printf_4 $end
 $var wire 1 S printf_3 $end
 $var wire 1 T printf_2 $end
 $var wire 1 U printf $end
 $var wire 32 V io_a_bits_0_2 $end
 $var wire 32 W io_a_bits_0_1 $end
 $var wire 1 X printf_28 $end
 $var wire 32 Y cycleIdx $end
 $var wire 1 Z printf_29 $end
 $var wire 1 [ printf_24 $end
 $var wire 1 \ printf_25 $end
 $var wire 1 ] printf_26 $end
 $var wire 1 ^ printf_27 $end
 $var wire 1 _ printf_20 $end
 $var wire 1 ` printf_21 $end
 $var wire 1 a printf_22 $end
 $var wire 1 b printf_23 $end
 $var wire 1 c printf_17 $end
 $var wire 1 d printf_18 $end
 $var wire 1 e printf_19 $end
 $var wire 1 f printf_13 $end
 $var wire 1 g printf_14 $end
 $var wire 1 h printf_15 $end
 $var wire 1 i printf_16 $end
 $var wire 1 j printf_10 $end
 $var wire 1 k printf_11 $end
 $var wire 1 l printf_12 $end
 $var wire 1 m io_b_ready $end
 $var wire 1 o io_a_valid $end
 $var wire 32 s io_a_bits_2_2 $end
 $var wire 32 t io_a_bits_2_1 $end
 $var wire 32 u io_a_bits_2_0 $end
 $var wire 1 v printf_31 $end
 $var wire 1 w printf_32 $end
 $var wire 1 x printf_33 $end
 $var wire 1 y printf_34 $end
 $var wire 1 z printf_30 $end
 $var wire 32 { paddedB_1_1 $end
 $var wire 32 | paddedB_1_2 $end
 $var wire 32 } paddedB_1_0 $end
 $var wire 1 ~ wrap_wrap $end
 $var wire 32 "" io_b_bits_2_1 $end
 $var wire 32 "# io_b_bits_2_0 $end
 $var wire 32 "$ io_b_bits_2_2 $end
 $var wire 32 "% slicedA_1_2 $end
 $var wire 32 "& slicedA_1_1 $end
 $var wire 32 "' slicedA_1_0 $end
 $var wire 1 "( actReg $end
 $var wire 32 ") paddedB_0_2 $end
 $var wire 32 "* paddedB_0_0 $end
 $var wire 32 "+ paddedB_0_1 $end
 $var wire 32 "/ slicedA_2_2 $end
 $var wire 32 "0 slicedA_2_1 $end
 $var wire 32 "1 slicedA_2_0 $end
 $var wire 32 "2 io_b_bits_1_2 $end
 $var wire 32 "3 io_b_bits_1_1 $end
 $var wire 32 "4 io_b_bits_1_0 $end
 $var wire 32 "5 slicedOut_0_2 $end
 $var wire 32 "< io_out_0_0 $end
 $var wire 32 "= io_out_0_1 $end
 $var wire 32 "> io_out_0_2 $end
 $var wire 32 "? slicedB_1_2 $end
 $var wire 32 "@ slicedB_1_1 $end
 $var wire 32 "A slicedB_1_0 $end
 $var wire 32 "B paddedOut_2_2 $end
 $var wire 32 "C paddedOut_2_1 $end
 $var wire 32 "D paddedOut_2_0 $end
 $var wire 32 "E slicedOut_0_0 $end
 $var wire 32 "F slicedOut_0_1 $end
 $var wire 1 "P systArr $end
 $var wire 32 "T slicedA_0_2 $end
 $var wire 32 "U slicedA_0_1 $end
 $var wire 32 "V slicedA_0_0 $end
 $var wire 32 "] slicedB_2_1 $end
 $var wire 32 "^ slicedB_2_0 $end
 $var wire 32 "_ slicedB_2_2 $end
 $var wire 32 "` paddedOut_1_2 $end
 $var wire 32 "a paddedOut_1_1 $end
 $var wire 32 "b paddedOut_1_0 $end
 $var wire 32 "c slicedOut_1_0 $end
 $var wire 32 "d slicedOut_1_1 $end
 $var wire 32 "e slicedOut_1_2 $end
 $var wire 1 "f clock $end
 $var wire 32 "l io_out_2_0 $end
 $var wire 32 "m io_out_2_1 $end
 $var wire 32 "n io_out_2_2 $end
 $var wire 1 "o counterFlag $end
 $var wire 3 "p boundK $end
 $var wire 3 "q boundM $end
 $var wire 3 "r boundN $end
 $var wire 32 "s paddedOut_0_2 $end
 $var wire 32 "t paddedOut_0_1 $end
 $var wire 32 "u paddedOut_0_0 $end
 $var wire 1 "v reset $end
 $var wire 32 "w slicedOut_2_0 $end
 $var wire 32 "x slicedOut_2_1 $end
 $var wire 32 "y slicedOut_2_2 $end
 $var wire 1 "~ sliceCycle $end
 $var wire 4 #! cycle $end
 $var wire 32 #( paddedA_2_0 $end
 $var wire 32 #) paddedA_2_1 $end
 $var wire 32 #* paddedA_2_2 $end
 $var wire 1 #+ io_b_valid $end
 $var wire 32 #. io_out_1_0 $end
 $var wire 32 #/ io_out_1_1 $end
 $var wire 32 #0 io_out_1_2 $end
 $var wire 32 #1 slicedB_0_2 $end
 $var wire 32 #2 slicedB_0_1 $end
 $var wire 32 #3 slicedB_0_0 $end
  $scope module systArr $end
   $var wire 32 $ b_reg_1_0 $end
   $var wire 32 % b_reg_1_1 $end
   $var wire 32 & b_reg_1_2 $end
   $var wire 32 0 cms_reg_1_1 $end
   $var wire 32 1 cms_reg_1_2 $end
   $var wire 32 2 cms_reg_1_0 $end
   $var wire 32 ; b_reg_0_0 $end
   $var wire 32 < b_reg_0_1 $end
   $var wire 32 = b_reg_0_2 $end
   $var wire 32 D cms_reg_0_2 $end
   $var wire 32 E cms_reg_0_0 $end
   $var wire 32 F cms_reg_0_1 $end
   $var wire 32 G a_reg_0_1 $end
   $var wire 32 H a_reg_0_0 $end
   $var wire 1 "! io_b_readingin $end
   $var wire 32 ", io_b_in_2_0 $end
   $var wire 32 "- io_b_in_2_1 $end
   $var wire 32 ". io_b_in_2_2 $end
   $var wire 32 "6 cmp_input_1_2 $end
   $var wire 32 "7 cmp_input_1_1 $end
   $var wire 32 "8 cmp_input_1_0 $end
   $var wire 32 "9 io_b_in_1_0 $end
   $var wire 32 ": io_b_in_1_1 $end
   $var wire 32 "; io_b_in_1_2 $end
   $var wire 32 "G io_a_in_0 $end
   $var wire 32 "H io_a_in_2 $end
   $var wire 32 "I io_a_in_1 $end
   $var wire 32 "J cmp_input_0_0 $end
   $var wire 32 "K io_out_2 $end
   $var wire 32 "L io_out_1 $end
   $var wire 32 "M io_out_0 $end
   $var wire 32 "N cmp_input_0_2 $end
   $var wire 32 "O cmp_input_0_1 $end
   $var wire 32 "Z io_b_in_0_0 $end
   $var wire 32 "[ io_b_in_0_1 $end
   $var wire 32 "\ io_b_in_0_2 $end
   $var wire 32 "j a_reg_1_1 $end
   $var wire 32 "k a_reg_1_0 $end
   $var wire 32 "z b_reg_2_0 $end
   $var wire 32 "{ b_reg_2_1 $end
   $var wire 32 "| b_reg_2_2 $end
   $var wire 1 "} clock $end
   $var wire 32 #" cms_reg_2_2 $end
   $var wire 32 ## cms_reg_2_0 $end
   $var wire 32 #$ cms_reg_2_1 $end
   $var wire 32 #% cmp_input_2_2 $end
   $var wire 32 #& cmp_input_2_1 $end
   $var wire 32 #' cmp_input_2_0 $end
   $var wire 32 #, a_reg_2_1 $end
   $var wire 32 #- a_reg_2_0 $end
  $upscope $end
  $scope module actReg $end
   $var wire 4 n io_index $end
   $var wire 32 p io_a_out_2 $end
   $var wire 32 q io_a_out_1 $end
   $var wire 32 r io_a_out_0 $end
   $var wire 32 "Q io_a_2_2 $end
   $var wire 32 "R io_a_2_1 $end
   $var wire 32 "S io_a_2_0 $end
   $var wire 32 "W io_a_1_2 $end
   $var wire 32 "X io_a_1_1 $end
   $var wire 32 "Y io_a_1_0 $end
   $var wire 32 "g io_a_0_2 $end
   $var wire 32 "h io_a_0_1 $end
   $var wire 32 "i io_a_0_0 $end
  $upscope $end
$upscope $end
$enddefinitions $end
$dumpvars
b00000000000000000000000000000000 *
03
b00000000000000000000000000000000 ,
04
b00000000000000000000000000000000 '
b00000000000000000000000000000000 &
b00000000000000000000000000000000 )
b00000000000000000000000000000000 (
b00000000000000000000000000000000 #
b00000000000000000000000000000000 "
b00000000000000000000000000000000 %
b00000000000000000000000000000000 $
b00000000000000000000000000000000 !
b00000000000000000000000000000000 ;
b00000000000000000000000000000000 :
b00000000000000000000000000000000 =
b00000000000000000000000000000000 <
b00000000000000000000000000000000 7
b00000000000000000000000000000000 6
b00000000000000000000000000000000 9
b00000000000000000000000000000000 8
b00000000000000000000000000000000 2
b00000000000000000000000000000000 5
0L
b00000000000000000000000000000000 /
0M
b00000000000000000000000000000000 .
0N
b00000000000000000000000000000000 1
0O
b00000000000000000000000000000000 0
0P
0Q
0R
0S
0T
0U
0X
0Z
0[
0\
0]
0^
0_
0`
0a
0b
0c
0d
0e
0f
0g
0h
0i
0j
0k
0l
0m
0o
0v
0w
0x
0y
0z
0~
0"!
0"(
0#+
0"P
0"f
0"o
b00000000000000000000000000000000 "n
b00000000000000000000000000000000 "m
b00000000000000000000000000000000 "l
b00000000000000000000000000000000 "s
0"v
b00000000000000000000000000000000 "g
b00000000000000000000000000000000 "e
b00000000000000000000000000000000 "d
0"}
b00000000000000000000000000000000 "k
0"~
b00000000000000000000000000000000 "j
b00000000000000000000000000000000 "i
b00000000000000000000000000000000 "h
b00000000000000000000000000000000 "|
b00000000000000000000000000000000 "w
b00000000000000000000000000000000 "u
b00000000000000000000000000000000 "t
b00000000000000000000000000000000 "{
b00000000000000000000000000000000 "z
b00000000000000000000000000000000 "y
b00000000000000000000000000000000 "x
b000 -
b00000000000000000000000000000000 "/
b00000000000000000000000000000000 ".
b00000000000000000000000000000000 "-
b00000000000000000000000000000000 ",
b00000000000000000000000000000000 "3
b00000000000000000000000000000000 "2
b00000000000000000000000000000000 "1
b00000000000000000000000000000000 "0
b00000000000000000000000000000000 "'
b00000000000000000000000000000000 "&
b00000000000000000000000000000000 "%
b00000000000000000000000000000000 "$
b00000000000000000000000000000000 "+
b00000000000000000000000000000000 "*
b00000000000000000000000000000000 ")
b00000000000000000000000000000000 "?
b00000000000000000000000000000000 ">
b00000000000000000000000000000000 "=
b00000000000000000000000000000000 "<
b00000000000000000000000000000000 "C
b00000000000000000000000000000000 #$
b00000000000000000000000000000000 "B
b00000000000000000000000000000000 ##
b00000000000000000000000000000000 "A
b00000000000000000000000000000000 #"
b00000000000000000000000000000000 "@
b00000000000000000000000000000000 "7
b00000000000000000000000000000000 "6
b00000000000000000000000000000000 "5
b00000000000000000000000000000000 "4
b00000000000000000000000000000000 ";
b00000000000000000000000000000000 ":
b00000000000000000000000000000000 "9
b00000000000000000000000000000000 "8
b00000000000000000000000000000000 "O
b00000000000000000000000000000000 #0
b00000000000000000000000000000000 "N
b00000000000000000000000000000000 #/
b00000000000000000000000000000000 "M
b00000000000000000000000000000000 #.
b00000000000000000000000000000000 "L
b00000000000000000000000000000000 #-
b00000000000000000000000000000000 "S
b00000000000000000000000000000000 "R
b00000000000000000000000000000000 #3
b00000000000000000000000000000000 "Q
b00000000000000000000000000000000 #2
b00000000000000000000000000000000 #1
b00000000000000000000000000000000 "G
b00000000000000000000000000000000 #(
b00000000000000000000000000000000 "F
b00000000000000000000000000000000 #'
b00000000000000000000000000000000 "E
b00000000000000000000000000000000 #&
b00000000000000000000000000000000 "D
b00000000000000000000000000000000 #%
b00000000000000000000000000000000 "K
b00000000000000000000000000000000 #,
b00000000000000000000000000000000 "J
b00000000000000000000000000000000 "I
b00000000000000000000000000000000 #*
b00000000000000000000000000000000 "H
b00000000000000000000000000000000 #)
b00000000000000000000000000000000 "_
b00000000000000000000000000000000 "^
b00000000000000000000000000000000 "]
b00000000000000000000000000000000 "\
b00000000000000000000000000000000 "c
b00000000000000000000000000000000 "b
b00000000000000000000000000000000 "a
b00000000000000000000000000000000 "`
b00000000000000000000000000000000 "W
b00000000000000000000000000000000 "V
b00000000000000000000000000000000 "U
b00000000000000000000000000000000 "T
b00000000000000000000000000000000 "[
b00000000000000000000000000000000 "Z
b00000000000000000000000000000000 "Y
b00000000000000000000000000000000 "X
b00000000000000000000000000000000 "#
b00000000000000000000000000000000 ""
b000 "r
b000 "p
b000 "q
b00000000000000000000000000000000 {
b00000000000000000000000000000000 }
b00000000000000000000000000000000 |
b00000000000000000000000000000000 s
b00000000000000000000000000000000 r
b00000000000000000000000000000000 u
b00000000000000000000000000000000 t
b0000 #!
b00000000000000000000000000000000 q
b00000000000000000000000000000000 p
b00000000000000000000000000000000 K
b00000000000000000000000000000000 J
b00000000000000000000000000000000 G
b00000000000000000000000000000000 F
b00000000000000000000000000000000 I
b00000000000000000000000000000000 H
b00000000000000000000000000000000 C
b00000000000000000000000000000000 B
b00000000000000000000000000000000 E
b00000000000000000000000000000000 D
b00000000000000000000000000000000 ?
b00000000000000000000000000000000 >
b00000000000000000000000000000000 A
b00000000000000000000000000000000 @
b00000000000000000000000000000000 W
b00000000000000000000000000000000 V
b0000 n
b00000000000000000000000000000000 Y
0+
$end
#0
1"v
b0101 n
#1
13
14
1"f
1+
1"}
1m
#6
b00000000000000000000000000000001 @
b00000000000000000000000000000011 ""
b00000000000000000000000000000010 "#
b00000000000000000000000000000001 "$
0"f
b00000000000000000000000000000001 "g
b00000000000000000000000000000011 "h
b00000000000000000000000000000010 "i
b00000000000000000000000000000011 "2
b00000000000000000000000000000001 "3
b00000000000000000000000000000100 "4
0"v
b00000000000000000000000000000001 V
b00000000000000000000000000000011 W
0"}
b00000000000000000000000000000010 '
1#+
b00000000000000000000000000000101 ,
b00000000000000000000000000000101 .
b00000000000000000000000000000010 /
1o
b00000000000000000000000000000001 "Q
b00000000000000000000000000000100 "R
b00000000000000000000000000000011 "S
b00000000000000000000000000000001 s
b00000000000000000000000000000100 t
b00000000000000000000000000000011 u
b00000000000000000000000000000100 "W
b00000000000000000000000000000101 "X
b00000000000000000000000000000001 "Y
b00000000000000000000000000000100 >
b00000000000000000000000000000101 ?
#11
b00000000000000000000000000000011 A
b00000000000000000000000000000001 B
b00000000000000000000000000000010 C
1"f
b00000000000000000000000000000000 "g
b00000000000000000000000000000000 "h
b00000000000000000000000000000000 "i
b00000000000000000000000000000010 ",
b00000000000000000000000000000011 "-
b00000000000000000000000000000001 ".
1"o
b00000000000000000000000000000100 "9
b00000000000000000000000000000001 ":
b00000000000000000000000000000011 ";
1"}
b00000000000000000000000000000011 #(
b00000000000000000000000000000100 #)
b00000000000000000000000000000001 #*
b00000000000000000000000000000001 (
b00000000000000000000000000000101 )
b00000000000000000000000000000100 *
0+
b001 -
b00000000000000000000000000000000 "Q
b00000000000000000000000000000000 "R
b00000000000000000000000000000000 "S
04
b00000000000000000000000000000000 "W
b00000000000000000000000000000000 "X
b00000000000000000000000000000000 "Y
b00000000000000000000000000000010 "Z
b00000000000000000000000000000101 "[
b00000000000000000000000000000101 "\
1"!
#16
0"f
0"}
#21
1"f
b00000000000000000000000000000001 "g
b00000000000000000000000000000011 "h
b00000000000000000000000000000010 "i
0"o
b00000000000000000000000000000010 "z
b00000000000000000000000000000011 "{
b00000000000000000000000000000001 "|
1"}
b00000000000000000000000000000100 $
b00000000000000000000000000000001 %
b00000000000000000000000000000011 &
03
b00000000000000000000000000000010 ;
b00000000000000000000000000000101 <
b00000000000000000000000000000101 =
0"!
b00000000000000000000000000000100 "%
b00000000000000000000000000000101 "&
b00000000000000000000000000000001 "'
b00000000000000000000000000000101 ")
b00000000000000000000000000000010 "*
b00000000000000000000000000000001 I
b00000000000000000000000000000101 "+
b00000000000000000000000000000010 J
b00000000000000000000000000000000 ",
b00000000000000000000000000000011 K
b00000000000000000000000000000000 "-
b00000000000000000000000000000000 ".
b00000000000000000000000000000001 "/
b00000000000000000000000000000100 "0
b00000000000000000000000000000011 "1
b00000000000000000000000000000000 "9
b00000000000000000000000000000000 ":
b00000000000000000000000000000000 ";
0m
b00000000000000000000000000000001 "Q
b00000000000000000000000000000100 "R
b00000000000000000000000000000011 "S
b00000000000000000000000000000001 "T
b00000000000000000000000000000011 "U
b00000000000000000000000000000010 "V
b00000000000000000000000000000100 "W
b00000000000000000000000000000101 "X
b00000000000000000000000000000001 "Y
b00000000000000000000000000000000 "Z
b00000000000000000000000000000000 "[
b00000000000000000000000000000000 "\
b00000000000000000000000000000001 {
b00000000000000000000000000000011 |
b00000000000000000000000000000100 }
#26
0"f
0"}
#31
1"f
b00000000000000000000000000000010 ",
b00000000000000000000000000000011 "-
b00000000000000000000000000000001 ".
b010 -
b00000000000000000000000000000101 #1
b00000000000000000000000000000101 #2
b00000000000000000000000000000010 #3
b00000000000000000000000000000100 "9
b00000000000000000000000000000001 ":
b00000000000000000000000000000010 "Z
b00000000000000000000000000000011 ";
b00000000000000000000000000000101 "[
b00000000000000000000000000000101 "\
b00000000000000000000000000000011 "]
1"}
b00000000000000000000000000000010 "^
b00000000000000000000000000000011 "?
b00000000000000000000000000000001 "_
b00000000000000000000000000000001 "@
b00000000000000000000000000000100 "A
#36
0"f
0"}
#41
1"f
1"}
b011 -
1"o
#46
0"f
0"}
#51
b00000000000000000000000000000010 r
1"f
b00000000000000000000000000000010 "G
b00000000000000000000000000000100 "J
b00000000000000000000000000000001 Y
1"}
b0100 n
b0001 #!
#56
0"f
0"}
#61
1"f
b00000000000000000000000000000100 E
b00000000000000000000000000000001 "G
b00000000000000000000000000000011 "I
b00000000000000000000000000000010 H
b00000000000000000000000000000010 "J
b00000000000000000000000000001010 "O
b0011 n
b00000000000000000000000000000011 q
b00000000000000000000000000000001 r
b00000000000000000000000000010000 "8
b00000000000000000000000000000010 Y
1"}
b0010 #!
#66
0"f
0"}
#71
b00000000000000000000000000010010 #'
1"f
b00000000000000000000000000000010 E
b00000000000000000000000000000011 "G
b00000000000000000000000000001010 F
b00000000000000000000000000000001 "H
b00000000000000000000000000000010 G
b00000000000000000000000000000101 "I
b00000000000000000000000000000001 H
b00000000000000000000000000000110 "J
b00000000000000000000000000000011 "k
b00000000000000000000000000001010 "N
b00000000000000000000000000000101 "O
b0010 n
b00000000000000000000000000000001 p
b00000000000000000000000000000101 q
b00000000000000000000000000010000 2
b00000000000000000000000000000011 r
b00000000000000000000000000001101 "7
b00000000000000000000000000010110 "8
b00000000000000000000000000000011 Y
1"}
b0011 #!
#76
0"f
0"}
#81
b00000000000000000000000000001010 D
1"f
b00000000000000000000000000000110 E
b00000000000000000000000000000101 F
b00000000000000000000000000000001 G
b00000000000000000000000000000011 H
b00000000000000000000000000000011 "j
b00000000000000000000000000000101 "k
b00000000000000000000000000010011 "6
b00000000000000000000000000001010 "7
b00000000000000000000000000000000 Y
1"}
b0100 #!
b00000000000000000000000000010010 ##
b00000000000000000000000000010000 #&
b00000000000000000000000000011110 #'
b00000000000000000000000000000000 "G
b00000000000000000000000000000100 "H
b00000000000000000000000000000100 "I
b00000000000000000000000000000000 "J
b00000000000000000000000000000001 #-
b00000000000000000000000000010010 "M
b00000000000000000000000000000101 "N
b00000000000000000000000000001111 "O
b0001 n
b00000000000000000000000000001101 0
b00000000000000000000000000000100 p
b00000000000000000000000000000100 q
b00000000000000000000000000010110 2
b00000000000000000000000000000000 r
#86
0"f
0"}
#91
b00000000000000000000000000000101 D
1"f
b00000000000000000000000000000000 E
b00000000000000000000000000001111 F
b00000000000000000000000000000011 G
b00000000000000000000000000000000 H
b00000000000000000000000000000101 "j
b00000000000000000000000000000100 "k
b00000000000000000000000000010100 "6
b00000000000000000000000000010011 "7
b00000000000000000000000000010010 "w
b00000000000000000000000000000000 "8
b00000000000000000000000000000001 Y
1"}
b0101 #!
b00000000000000000000000000011110 ##
b00000000000000000000000000010000 #$
b00000000000000000000000000010100 #%
b00000000000000000000000000010110 #&
b00000000000000000000000000011000 #'
b00000000000000000000000000000001 "H
b00000000000000000000000000000000 "I
b00000000000000000000000000000001 #,
b00000000000000000000000000010000 "L
b00000000000000000000000000000100 #-
b00000000000000000000000000011110 "M
b00000000000000000000000000001111 "N
b00000000000000000000000000000000 "O
b0000 n
b00000000000000000000000000001010 0
b00000000000000000000000000000001 p
b00000000000000000000000000010011 1
b00000000000000000000000000000000 q
#96
0"f
0"}
#101
b00000000000000000000000000010010 "c
b00000000000000000000000000001111 D
1"f
b00000000000000000000000000000000 F
b00000000000000000000000000000000 G
b00000000000000000000000000000100 "j
b00000000000000000000000000000000 "k
b00000000000000000000000000011011 "6
b00000000000000000000000000000000 "7
b00000000000000000000000000011110 "w
b00000000000000000000000000010000 "x
b00000000000000000000000000000010 Y
1"}
b0110 #!
b00000000000000000000000000010100 #"
b00000000000000000000000000011000 ##
b00000000000000000000000000010110 #$
b00000000000000000000000000011000 #%
b00000000000000000000000000000000 #'
b00000000000000000000000000000000 "H
b00000000000000000000000000010100 "K
b00000000000000000000000000000100 #,
b00000000000000000000000000010110 "L
b00000000000000000000000000000001 #-
b00000000000000000000000000011000 "M
b00000000000000000000000000000000 "N
b1111 n
b00000000000000000000000000010011 0
b00000000000000000000000000000000 p
b00000000000000000000000000010100 1
b00000000000000000000000000000000 2
#106
0"f
0"}
#111
b00000000000000000000000000011110 "c
b00000000000000000000000000010000 "d
b00000000000000000000000000000000 D
1"f
b00000000000000000000000000000000 "j
b00000000000000000000000000000000 "6
b00000000000000000000000000011000 "w
b00000000000000000000000000010110 "x
b00000000000000000000000000010100 "y
b00000000000000000000000000000011 Y
1"}
b0111 #!
b00000000000000000000000000011000 #"
b00000000000000000000000000000000 ##
b00000000000000000000000000011100 #%
b00000000000000000000000000010010 "E
b00000000000000000000000000000000 #&
b00000000000000000000000000011000 "K
b00000000000000000000000000000001 #,
b00000000000000000000000000000000 #-
b00000000000000000000000000000000 "M
b1110 n
b00000000000000000000000000000000 0
b00000000000000000000000000011011 1
#116
0"f
0"}
#121
b00000000000000000000000000000000 #$
b00000000000000000000000000000000 #%
b00000000000000000000000000010110 "d
b00000000000000000000000000010100 "e
b00000000000000000000000000010000 "F
1"f
b00000000000000000000000000011100 "K
b00000000000000000000000000000000 #,
b00000000000000000000000000000000 "L
b1101 n
b00000000000000000000000000000000 1
b00000000000000000000000000011000 "y
b00000000000000000000000000000100 Y
1"}
b1000 #!
b00000000000000000000000000011100 #"
#126
0"f
0"}
#131
b00000000000000000000000000010100 "5
b00000000000000000000000000011000 "e
1"f
b00000000000000000000000000011100 "y
b00000000000000000000000000000101 Y
b00000000000000000000000000000000 "K
1"}
b1100 n
1~
b1001 #!
b00000000000000000000000000000000 #"
#136
0"f
0"}
#141
1"f
b00000000000000000000000000011000 "l
b00000000000000000000000000010110 "m
b00000000000000000000000000011100 "n
0"o
b00000000000000000000000000000000 Y
b00000000000000000000000000010010 "<
b00000000000000000000000000010000 "=
1"}
b00000000000000000000000000010100 ">
b0000 #!
b00000000000000000000000000011000 !
b00000000000000000000000000010110 "
b00000000000000000000000000011110 #
b00000000000000000000000000011110 #.
b00000000000000000000000000010110 #/
b100 -
1m
b00000000000000000000000000011000 #0
b0101 n
b00000000000000000000000000010100 5
b00000000000000000000000000010000 6
b00000000000000000000000000010010 7
b00000000000000000000000000010110 8
b00000000000000000000000000011000 9
b00000000000000000000000000011100 :
0~
#146
0"f
0"}
#151
b00000000000000000000000000000000 !
b00000000000000000000000000000000 "
b00000000000000000000000000000000 #
1"f
b00000000000000000000000000000000 "l
b00000000000000000000000000000000 #.
b00000000000000000000000000000000 "m
b00000000000000000000000000000000 #/
b00000000000000000000000000000000 "n
b001 -
0m
b00000000000000000000000000000000 #0
b00000000000000000000000000000000 5
b00000000000000000000000000000000 6
b00000000000000000000000000000000 7
b00000000000000000000000000000000 8
b00000000000000000000000000000000 9
b00000000000000000000000000000000 :
b00000000000000000000000000000000 "<
b00000000000000000000000000000000 "=
1"}
b00000000000000000000000000000000 ">
#156
0"f
0"}
#161
1"f
1"}
b010 -
