test_run_dir/TPU_test_should_mult_one_cycle/ChiselTPU.vcd
$date
2023-03-14T22:37+0000
$end
$version
0.2
$end
$comment

$end
$timescale 1ns  $end
$scope module ChiselTPU $end
 $var wire 32 ! myOut_1_2 $end
 $var wire 32 " myOut_1_1 $end
 $var wire 32 # myOut_1_0 $end
 $var wire 32 $ myOut_1_6 $end
 $var wire 32 % myOut_1_5 $end
 $var wire 32 & myOut_1_4 $end
 $var wire 32 ' myOut_1_3 $end
 $var wire 32 * io_a_bits_0_0 $end
 $var wire 32 + paddedA_1_0 $end
 $var wire 32 , paddedA_1_1 $end
 $var wire 32 - paddedA_1_2 $end
 $var wire 32 . paddedA_1_3 $end
 $var wire 32 / io_out_4_5 $end
 $var wire 1 0 io_a_ready $end
 $var wire 32 1 io_out_4_6 $end
 $var wire 32 2 io_b_bits_0_3 $end
 $var wire 32 3 io_b_bits_0_2 $end
 $var wire 32 4 io_b_bits_0_5 $end
 $var wire 3 5 state $end
 $var wire 32 6 io_b_bits_0_4 $end
 $var wire 32 7 io_b_bits_0_6 $end
 $var wire 32 8 io_b_bits_0_1 $end
 $var wire 32 9 io_b_bits_0_0 $end
 $var wire 32 : io_out_4_1 $end
 $var wire 32 ; io_out_4_2 $end
 $var wire 32 < io_out_4_3 $end
 $var wire 32 = io_out_4_4 $end
 $var wire 32 > io_out_4_0 $end
 $var wire 32 A paddedB_3_3 $end
 $var wire 32 B paddedB_3_4 $end
 $var wire 32 C paddedB_3_1 $end
 $var wire 32 D paddedB_3_2 $end
 $var wire 32 E paddedB_3_7 $end
 $var wire 32 F paddedB_3_5 $end
 $var wire 32 G paddedB_3_6 $end
 $var wire 32 H paddedB_3_0 $end
 $var wire 1 I b_ready $end
 $var wire 1 J a_ready $end
 $var wire 32 K myOut_0_3 $end
 $var wire 32 L myOut_0_2 $end
 $var wire 32 M myOut_0_1 $end
 $var wire 32 N myOut_0_0 $end
 $var wire 32 O myOut_0_6 $end
 $var wire 32 P myOut_0_5 $end
 $var wire 32 Q myOut_0_4 $end
 $var wire 32 R myOut_2_1 $end
 $var wire 32 S myOut_2_0 $end
 $var wire 32 T myOut_2_5 $end
 $var wire 32 U myOut_2_4 $end
 $var wire 32 V myOut_2_3 $end
 $var wire 32 W myOut_2_2 $end
 $var wire 32 X myOut_2_6 $end
 $var wire 1 [ allowReadB $end
 $var wire 32 \ io_a_bits_1_2 $end
 $var wire 32 ] io_a_bits_1_1 $end
 $var wire 32 ^ io_a_bits_1_0 $end
 $var wire 1 _ wrap_wrap_2 $end
 $var wire 1 ` wrap_wrap_1 $end
 $var wire 32 a paddedA_0_1 $end
 $var wire 32 b paddedA_0_2 $end
 $var wire 32 c paddedA_0_3 $end
 $var wire 32 d paddedA_0_0 $end
 $var wire 32 h paddedB_2_4 $end
 $var wire 32 i paddedB_2_5 $end
 $var wire 32 j paddedB_2_2 $end
 $var wire 32 k paddedB_2_3 $end
 $var wire 32 l paddedB_2_6 $end
 $var wire 32 m paddedB_2_7 $end
 $var wire 32 n paddedB_2_0 $end
 $var wire 32 o paddedB_2_1 $end
 $var wire 1 p printf_9 $end
 $var wire 1 q printf_8 $end
 $var wire 1 r printf_7 $end
 $var wire 1 s printf_6 $end
 $var wire 1 t printf_1 $end
 $var wire 1 u printf_5 $end
 $var wire 1 v printf_4 $end
 $var wire 1 w printf_3 $end
 $var wire 1 x printf_2 $end
 $var wire 32 y io_out_3_6 $end
 $var wire 1 z printf $end
 $var wire 32 { io_a_bits_0_2 $end
 $var wire 32 | io_a_bits_0_1 $end
 $var wire 32 } io_out_3_2 $end
 $var wire 32 ~ io_out_3_3 $end
 $var wire 32 "! io_out_3_4 $end
 $var wire 32 "" io_out_3_5 $end
 $var wire 32 "# io_out_3_0 $end
 $var wire 32 "$ io_out_3_1 $end
 $var wire 1 "% printf_28 $end
 $var wire 32 "& cycleIdx $end
 $var wire 1 "' printf_29 $end
 $var wire 1 "( printf_24 $end
 $var wire 1 ") printf_25 $end
 $var wire 1 "* printf_26 $end
 $var wire 1 "+ printf_27 $end
 $var wire 1 ", printf_20 $end
 $var wire 1 "- printf_21 $end
 $var wire 1 ". printf_22 $end
 $var wire 1 "/ printf_23 $end
 $var wire 1 "0 printf_17 $end
 $var wire 1 "1 printf_18 $end
 $var wire 1 "2 printf_19 $end
 $var wire 1 "3 printf_13 $end
 $var wire 1 "4 printf_14 $end
 $var wire 1 "5 printf_15 $end
 $var wire 1 "6 printf_16 $end
 $var wire 1 "7 printf_10 $end
 $var wire 1 "8 printf_11 $end
 $var wire 1 "9 printf_12 $end
 $var wire 1 ": io_b_ready $end
 $var wire 1 "< io_a_valid $end
 $var wire 32 "? io_a_bits_2_2 $end
 $var wire 32 "@ io_a_bits_2_1 $end
 $var wire 32 "A io_a_bits_2_0 $end
 $var wire 1 "B printf_31 $end
 $var wire 1 "C printf_32 $end
 $var wire 1 "D printf_33 $end
 $var wire 1 "E printf_34 $end
 $var wire 1 "F printf_30 $end
 $var wire 32 "G paddedB_1_5 $end
 $var wire 32 "H paddedB_1_6 $end
 $var wire 32 "I paddedB_1_3 $end
 $var wire 32 "J paddedB_1_4 $end
 $var wire 32 "K paddedB_1_7 $end
 $var wire 32 "L paddedB_1_1 $end
 $var wire 32 "M paddedB_1_2 $end
 $var wire 32 "N paddedB_1_0 $end
 $var wire 32 "P io_b_bits_2_1 $end
 $var wire 32 "Q io_b_bits_2_0 $end
 $var wire 32 "R io_b_bits_2_3 $end
 $var wire 32 "S io_b_bits_2_2 $end
 $var wire 32 "T io_b_bits_2_5 $end
 $var wire 32 "U io_b_bits_2_4 $end
 $var wire 32 "V io_b_bits_2_6 $end
 $var wire 32 "W slicedA_1_1 $end
 $var wire 32 "X slicedA_1_0 $end
 $var wire 10 "Y totalCycle $end
 $var wire 1 "Z actReg $end
 $var wire 32 "[ io_a_bits_3_2 $end
 $var wire 32 "\ io_a_bits_3_1 $end
 $var wire 32 "] io_a_bits_3_0 $end
 $var wire 32 "^ paddedB_0_6 $end
 $var wire 32 "_ paddedB_0_7 $end
 $var wire 32 "` paddedB_0_4 $end
 $var wire 32 "a paddedB_0_5 $end
 $var wire 32 "b paddedB_0_2 $end
 $var wire 32 "c paddedB_0_3 $end
 $var wire 32 "d paddedB_0_0 $end
 $var wire 32 "e paddedB_0_1 $end
 $var wire 32 "g io_b_bits_1_2 $end
 $var wire 32 "h io_b_bits_1_1 $end
 $var wire 32 "i io_b_bits_1_4 $end
 $var wire 32 "j io_b_bits_1_3 $end
 $var wire 32 "k io_b_bits_1_6 $end
 $var wire 32 "l io_b_bits_1_5 $end
 $var wire 32 "m io_b_bits_1_0 $end
 $var wire 32 "p io_a_bits_4_2 $end
 $var wire 32 "q io_a_bits_4_1 $end
 $var wire 32 "r io_a_bits_4_0 $end
 $var wire 32 "u paddedA_5_0 $end
 $var wire 32 "v paddedA_5_1 $end
 $var wire 32 "w paddedA_5_2 $end
 $var wire 32 "x paddedA_5_3 $end
 $var wire 32 "y io_out_0_0 $end
 $var wire 32 "z io_out_0_5 $end
 $var wire 32 "{ io_out_0_6 $end
 $var wire 32 "| io_out_0_1 $end
 $var wire 32 "} io_out_0_2 $end
 $var wire 32 "~ io_out_0_3 $end
 $var wire 32 #! io_out_0_4 $end
 $var wire 32 #" slicedB_1_1 $end
 $var wire 32 ## slicedB_1_0 $end
 $var wire 32 #$ slicedOut_0_0 $end
 $var wire 32 #% slicedOut_0_1 $end
 $var wire 1 #, systArr $end
 $var wire 32 #- slicedA_0_1 $end
 $var wire 32 #. slicedA_0_0 $end
 $var wire 32 #3 paddedA_4_1 $end
 $var wire 32 #4 paddedA_4_2 $end
 $var wire 32 #5 paddedA_4_3 $end
 $var wire 32 #6 paddedA_4_0 $end
 $var wire 32 #7 slicedOut_1_0 $end
 $var wire 32 #8 slicedOut_1_1 $end
 $var wire 32 #9 myOut_3_0 $end
 $var wire 32 #: myOut_3_4 $end
 $var wire 32 #; myOut_3_3 $end
 $var wire 32 #< myOut_3_2 $end
 $var wire 32 #= myOut_3_1 $end
 $var wire 32 #> myOut_3_6 $end
 $var wire 32 #? myOut_3_5 $end
 $var wire 1 #@ enabledSyst $end
 $var wire 1 #A clock $end
 $var wire 32 #B paddedA_3_2 $end
 $var wire 32 #C paddedA_3_3 $end
 $var wire 32 #D paddedA_3_0 $end
 $var wire 32 #E paddedA_3_1 $end
 $var wire 32 #I io_out_2_3 $end
 $var wire 32 #J io_out_2_4 $end
 $var wire 32 #K io_out_2_5 $end
 $var wire 32 #L io_out_2_6 $end
 $var wire 32 #M io_out_2_0 $end
 $var wire 32 #N io_out_2_1 $end
 $var wire 32 #O io_out_2_2 $end
 $var wire 1 #P counterFlag $end
 $var wire 4 #Q boundK $end
 $var wire 5 #R boundM $end
 $var wire 7 #S boundN $end
 $var wire 1 #T reset $end
 $var wire 5 #V sliceCycle $end
 $var wire 32 #W myOut_4_3 $end
 $var wire 32 #X myOut_4_2 $end
 $var wire 32 #Y myOut_4_1 $end
 $var wire 32 #Z myOut_4_0 $end
 $var wire 32 #[ myOut_4_6 $end
 $var wire 32 #\ myOut_4_5 $end
 $var wire 32 #] myOut_4_4 $end
 $var wire 4 #^ cycle $end
 $var wire 32 #_ paddedA_2_3 $end
 $var wire 32 #` paddedA_2_0 $end
 $var wire 32 #a paddedA_2_1 $end
 $var wire 32 #b paddedA_2_2 $end
 $var wire 1 #c io_b_valid $end
 $var wire 32 #d io_out_1_4 $end
 $var wire 32 #e io_out_1_5 $end
 $var wire 32 #f io_out_1_6 $end
 $var wire 32 #g io_out_1_0 $end
 $var wire 32 #h io_out_1_1 $end
 $var wire 32 #i io_out_1_2 $end
 $var wire 32 #j io_out_1_3 $end
 $var wire 32 #k slicedB_0_1 $end
 $var wire 32 #l slicedB_0_0 $end
  $scope module systArr $end
   $var wire 32 ( b_reg_1_0 $end
   $var wire 32 ) b_reg_1_1 $end
   $var wire 32 ? cms_reg_1_1 $end
   $var wire 32 @ cms_reg_1_0 $end
   $var wire 32 Y b_reg_0_0 $end
   $var wire 32 Z b_reg_0_1 $end
   $var wire 32 e cms_reg_0_0 $end
   $var wire 32 f cms_reg_0_1 $end
   $var wire 32 g a_reg_0_0 $end
   $var wire 1 "O io_b_readingin $end
   $var wire 1 "f io_en $end
   $var wire 32 "n cmp_input_1_1 $end
   $var wire 32 "o cmp_input_1_0 $end
   $var wire 32 "s io_b_in_1_0 $end
   $var wire 32 "t io_b_in_1_1 $end
   $var wire 32 #& io_a_in_0 $end
   $var wire 32 #' io_a_in_1 $end
   $var wire 32 #( cmp_input_0_0 $end
   $var wire 32 #) io_out_1 $end
   $var wire 32 #* io_out_0 $end
   $var wire 32 #+ cmp_input_0_1 $end
   $var wire 32 #1 io_b_in_0_0 $end
   $var wire 32 #2 io_b_in_0_1 $end
   $var wire 32 #H a_reg_1_0 $end
   $var wire 1 #U clock $end
  $upscope $end
  $scope module actReg $end
   $var wire 3 "; io_index $end
   $var wire 32 "= io_a_out_1 $end
   $var wire 32 "> io_a_out_0 $end
   $var wire 32 #/ io_a_1_1 $end
   $var wire 32 #0 io_a_1_0 $end
   $var wire 32 #F io_a_0_1 $end
   $var wire 32 #G io_a_0_0 $end
  $upscope $end
$upscope $end
$enddefinitions $end
$dumpvars
00
b00000000000000000000000000000000 +
b00000000000000000000000000000000 *
b00000000000000000000000000000000 -
b00000000000000000000000000000000 ,
b00000000000000000000000000000000 '
b00000000000000000000000000000000 &
b00000000000000000000000000000000 )
b00000000000000000000000000000000 (
b00000000000000000000000000000000 #
b00000000000000000000000000000000 "
b00000000000000000000000000000000 %
b00000000000000000000000000000000 $
b0000 #Q
b00000000000000000000000000000000 !
b00000000000000000000000000000000 ;
b00000000000000000000000000000000 :
b00000000000000000000000000000000 =
b00000000000000000000000000000000 <
b00000000000000000000000000000000 7
b00000000000000000000000000000000 6
b00000000000000000000000000000000 9
b00000000000000000000000000000000 8
b0000 #^
b00000000000000000000000000000000 3
0I
b00000000000000000000000000000000 2
0J
b00000000000000000000000000000000 4
b00000000000000000000000000000000 /
b00000000000000000000000000000000 .
b00000000000000000000000000000000 1
0[
0_
0`
0p
0q
0r
0s
0t
0u
0v
0w
0x
0z
b0000000 #S
0"%
0"'
0"(
0")
0"*
0"+
0",
0"-
0".
0"/
0"0
0"1
0"2
0"3
0"4
0"5
0"6
0"7
0"8
0"9
0":
0"<
0"B
0"C
0"D
0"E
0"F
0#,
0"O
0"Z
0#@
0#A
0"f
0#P
b00000000000000000000000000000000 "o
b00000000000000000000000000000000 "n
b00000000000000000000000000000000 #O
0#T
b00000000000000000000000000000000 "m
b00000000000000000000000000000000 #N
0#U
b00000000000000000000000000000000 "l
b00000000000000000000000000000000 #M
b00000000000000000000000000000000 "s
b00000000000000000000000000000000 "r
b00000000000000000000000000000000 "q
b00000000000000000000000000000000 "p
b00000000000000000000000000000000 "g
b00000000000000000000000000000000 #H
b00000000000000000000000000000000 #G
b00000000000000000000000000000000 "e
b00000000000000000000000000000000 #F
b00000000000000000000000000000000 "d
b00000000000000000000000000000000 #E
b00000000000000000000000000000000 "k
b00000000000000000000000000000000 #L
b00000000000000000000000000000000 "j
b00000000000000000000000000000000 #K
b00000000000000000000000000000000 "i
b00000000000000000000000000000000 #J
b00000000000000000000000000000000 "h
b00000000000000000000000000000000 #I
b00000000000000000000000000000000 #`
0#c
b00000000000000000000000000000000 "~
b00000000000000000000000000000000 #_
b00000000000000000000000000000000 "}
b00000000000000000000000000000000 "|
b00000000000000000000000000000000 #]
b00000000000000000000000000000000 #d
b000 5
b00000000000000000000000000000000 #b
b00000000000000000000000000000000 #a
b00000000000000000000000000000000 "w
b00000000000000000000000000000000 #X
b00000 #R
b00000000000000000000000000000000 "v
b00000000000000000000000000000000 #W
b00000000000000000000000000000000 "u
b00000000000000000000000000000000 "t
b00000000000000000000000000000000 "{
b00000000000000000000000000000000 #\
b00000 #V
b00000000000000000000000000000000 "z
b00000000000000000000000000000000 #[
b00000000000000000000000000000000 "y
b00000000000000000000000000000000 #Z
b00000000000000000000000000000000 "x
b00000000000000000000000000000000 #Y
b00000000000000000000000000000000 #h
b00000000000000000000000000000000 #g
b00000000000000000000000000000000 #f
b00000000000000000000000000000000 #e
b00000000000000000000000000000000 #l
b00000000000000000000000000000000 #k
b00000000000000000000000000000000 #j
b00000000000000000000000000000000 #i
b00000000000000000000000000000000 "&
b00000000000000000000000000000000 "$
b00000000000000000000000000000000 "?
b00000000000000000000000000000000 ">
b00000000000000000000000000000000 "=
b00000000000000000000000000000000 #$
b00000000000000000000000000000000 ##
b00000000000000000000000000000000 "A
b00000000000000000000000000000000 #"
b00000000000000000000000000000000 "@
b00000000000000000000000000000000 #!
b00000000000000000000000000000000 #0
b00000000000000000000000000000000 "N
b00000000000000000000000000000000 #/
b00000000000000000000000000000000 "M
b00000000000000000000000000000000 #.
b00000000000000000000000000000000 "L
b00000000000000000000000000000000 #-
b00000000000000000000000000000000 "S
b00000000000000000000000000000000 #4
b00000000000000000000000000000000 "R
b00000000000000000000000000000000 #3
b00000000000000000000000000000000 "Q
b00000000000000000000000000000000 #2
b00000000000000000000000000000000 "P
b00000000000000000000000000000000 #1
b00000000000000000000000000000000 "G
b00000000000000000000000000000000 #(
b00000000000000000000000000000000 #'
b00000000000000000000000000000000 #&
b00000000000000000000000000000000 #%
b00000000000000000000000000000000 "K
b00000000000000000000000000000000 "J
b00000000000000000000000000000000 #+
b00000000000000000000000000000000 "I
b00000000000000000000000000000000 #*
b00000000000000000000000000000000 "H
b00000000000000000000000000000000 #)
b00000000000000000000000000000000 "_
b00000000000000000000000000000000 "^
b00000000000000000000000000000000 #?
b00000000000000000000000000000000 "]
b00000000000000000000000000000000 #>
b00000000000000000000000000000000 "\
b00000000000000000000000000000000 #=
b00000000000000000000000000000000 "c
b00000000000000000000000000000000 #D
b00000000000000000000000000000000 "b
b00000000000000000000000000000000 #C
b00000000000000000000000000000000 "a
b00000000000000000000000000000000 #B
b00000000000000000000000000000000 "`
b00000000000000000000000000000000 "W
b00000000000000000000000000000000 #8
b00000000000000000000000000000000 "V
b00000000000000000000000000000000 #7
b00000000000000000000000000000000 "U
b00000000000000000000000000000000 #6
b00000000000000000000000000000000 "T
b00000000000000000000000000000000 #5
b00000000000000000000000000000000 "[
b00000000000000000000000000000000 #<
b0000000000 "Y
b00000000000000000000000000000000 #;
b00000000000000000000000000000000 #:
b00000000000000000000000000000000 "X
b00000000000000000000000000000000 #9
b00000000000000000000000000000000 "#
b00000000000000000000000000000000 ""
b00000000000000000000000000000000 "!
b00000000000000000000000000000000 ~
b00000000000000000000000000000000 k
b00000000000000000000000000000000 j
b00000000000000000000000000000000 m
b00000000000000000000000000000000 l
b00000000000000000000000000000000 g
b00000000000000000000000000000000 f
b00000000000000000000000000000000 i
b00000000000000000000000000000000 h
b00000000000000000000000000000000 c
b00000000000000000000000000000000 b
b00000000000000000000000000000000 e
b00000000000000000000000000000000 d
b00000000000000000000000000000000 ^
b00000000000000000000000000000000 a
b00000000000000000000000000000000 {
b00000000000000000000000000000000 }
b00000000000000000000000000000000 |
b00000000000000000000000000000000 y
b00000000000000000000000000000000 o
b00000000000000000000000000000000 n
b00000000000000000000000000000000 K
b00000000000000000000000000000000 M
b00000000000000000000000000000000 L
b00000000000000000000000000000000 G
b00000000000000000000000000000000 F
b00000000000000000000000000000000 H
b00000000000000000000000000000000 C
b00000000000000000000000000000000 B
b00000000000000000000000000000000 E
b00000000000000000000000000000000 D
b00000000000000000000000000000000 ?
b000 ";
b00000000000000000000000000000000 >
b00000000000000000000000000000000 A
b00000000000000000000000000000000 @
b00000000000000000000000000000000 Z
b00000000000000000000000000000000 ]
b00000000000000000000000000000000 \
b00000000000000000000000000000000 W
b00000000000000000000000000000000 V
b00000000000000000000000000000000 Y
b00000000000000000000000000000000 X
b00000000000000000000000000000000 S
b00000000000000000000000000000000 R
b00000000000000000000000000000000 U
b00000000000000000000000000000000 T
b00000000000000000000000000000000 O
b00000000000000000000000000000000 N
b00000000000000000000000000000000 Q
b00000000000000000000000000000000 P
$end
#0
1#T
b011 ";
#1
10
1#U
1":
1I
1J
1#A
#6
b00000000000000000000000000000010 #F
b00000000000000000000000000000001 #G
b00000000000000000000000000000110 "g
b00000000000000000000000000000101 "h
b00000000000000000000000000000001 "i
b00000000000000000000000000000100 "j
b00000000000000000000000000000011 "k
b00000000000000000000000000000010 "l
b00000000000000000000000000001000 "m
b00000000000000000000000000000011 "p
b00000000000000000000000000000110 "q
b00000000000000000000000000000001 "r
0#T
0#U
1"<
b00000000000000000000000000000100 \
b00000000000000000000000000001000 ]
b00000000000000000000000000000001 "?
b00000000000000000000000000000111 ^
b00000000000000000000000000000011 "@
b00000000000000000000000000000010 "A
1#c
b00000000000000000000000000000001 *
b00000000000000000000000000001000 #/
b00000000000000000000000000000111 #0
b00000000000000000000000000000010 "P
b00000000000000000000000000000011 "Q
b00000000000000000000000000000111 "R
b00000000000000000000000000000101 "S
b00000000000000000000000000000011 2
b00000000000000000000000000000100 "T
b00000000000000000000000000000101 "U
b00000000000000000000000000000101 4
b00000000000000000000000000000111 "V
b00000000000000000000000000000100 6
b00000000000000000000000000000001 7
b00000000000000000000000000001001 8
b00000000000000000000000000000001 9
b00000000000000000000000000000110 "[
b00000000000000000000000000000001 "\
b00000000000000000000000000000011 {
b00000000000000000000000000000101 "]
b00000000000000000000000000000010 |
0#A
#11
b00000000000000000000000000000101 #D
b00000000000000000000000000000001 #E
b00000000000000000000000000000000 #F
b00000000000000000000000000000000 #G
0J
1#P
b00000000000000000000000000001000 "s
b00000000000000000000000000000101 "t
1#U
b00000000000000000000000000000010 #`
b00000000000000000000000000000011 #a
b00000000000000000000000000000001 #b
b00000000000000000000000000000010 a
b00000000000000000000000000000011 b
b00000000000000000000000000000001 d
b00000000000000000000000000000111 +
b00000000000000000000000000001000 ,
b00000000000000000000000000000000 #/
b00000000000000000000000000000100 -
b00000000000000000000000000000000 #0
b00000000000000000000000000000001 #1
b00000000000000000000000000001001 #2
00
b00000000000000000000000000000110 #3
b00000000000000000000000000000011 #4
b00000000000000000000000000000001 #6
b001 5
b0000000001 "Y
1#A
b00000000000000000000000000000110 #B
#16
0#U
0#A
#21
b00000000000000000000000000000011 "c
b00000000000000000000000000000001 "d
b00000000000000000000000000001001 "e
b00000000000000000000000000000010 #F
b00000000000000000000000000000001 #G
0I
0#P
b00000000000000000000000000000000 "s
b00000000000000000000000000000000 "t
1#U
0":
1[
b00000000000000000000000000000010 "G
b00000000000000000000000000000011 "H
b00000000000000000000000000000100 "I
b00000000000000000000000000000101 h
b00000000000000000000000000000001 "J
b00000000000000000000000000000100 i
b00000000000000000000000000000101 j
b00000000000000000000000000000010 #-
b00000000000000000000000000000101 "L
b00000000000000000000000000000111 k
b00000000000000000000000000000001 #.
b00000000000000000000000000000110 "M
b00000000000000000000000000000111 l
b00000000000000000000000000001000 "N
b00000000000000000000000000001000 #/
1"O
b00000000000000000000000000000111 #0
b00000000000000000000000000000011 n
b00000000000000000000000000000000 #1
b00000000000000000000000000000010 o
b00000000000000000000000000000000 #2
b00000000000000000000000000001000 "W
b00000000000000000000000000000111 "X
b0000000010 "Y
b00000000000000000000000000000001 "^
1#A
b00000000000000000000000000000100 "`
b00000000000000000000000000000101 "a
#26
0#U
0#A
#31
b00000000000000000000000000001000 ##
b00000000000000000000000000001001 #k
b00000000000000000000000000000001 #l
b00000000000000000000000000000001 #1
b0010 #Q
b00000000000000000000000000001001 #2
b00100 #R
b0000110 #S
b00000000000000000000000000001000 "s
b00000000000000000000000000000101 "t
1#U
b10111 #V
b010 5
b0000000011 "Y
1#A
1_
b00000000000000000000000000000101 #"
#36
0#U
0#A
#41
b00000000000000000000000000000000 #F
b00000000000000000000000000000011 #G
1#P
b0000 #Q
b00000 #R
b0000000 #S
b00000000000000000000000000000000 "s
b00000000000000000000000000000000 "t
1#U
b00000 #V
0_
b00000000000000000000000000000000 #"
b00000000000000000000000000000000 ##
b00000000000000000000000000000000 #k
b00000000000000000000000000000111 #l
b00000000000000000000000000000000 #-
b00000000000000000000000000000011 #.
b00000000000000000000000000000000 #/
b00000000000000000000000000000000 #0
b00000000000000000000000000000111 #1
b00000000000000000000000000000000 #2
b011 5
b00000000000000000000000000000000 "W
b00000000000000000000000000000000 "X
b0000000100 "Y
1#A
#46
0#U
0#A
#51
b00000000000000000000000000001000 ##
b00000000000000000000000000000010 #F
1"f
b00000000000000000000000000000001 #G
b00000000000000000000000000001001 #k
b00000000000000000000000000000001 #l
b00000000000000000000000000000010 #-
b00000000000000000000000000000001 #.
b00000000000000000000000000001000 #/
b00000000000000000000000000000111 #0
b00000000000000000000000000000001 #1
b00000000000000000000000000001001 #2
b00000000000000000000000000001000 "s
b00000000000000000000000000000101 "t
1#U
b00000000000000000000000000001000 "W
b00000000000000000000000000000111 "X
b0000000101 "Y
1#@
1#A
b00000000000000000000000000000101 #"
#56
0#U
0#A
#61
b00000000000000000000000000000001 #&
b00000000000000000000000000000001 "&
b00000000000000000000000000000001 #(
b00000000000000000000000000001000 (
b00000000000000000000000000000101 )
1#U
b0000000110 "Y
b00000000000000000000000000000001 Y
b010 ";
b00000000000000000000000000001001 Z
b0001 #^
b00000000000000000000000000000001 ">
1#A
#66
0#U
0#A
#71
b00000000000000000000000000000111 #&
b00000000000000000000000000000010 "&
b00000000000000000000000000000010 #'
b00000000000000000000000000000001 e
b00000000000000000000000000000111 #(
b00000000000000000000000000000001 g
b00000000000000000000000000001001 #+
0"O
b00000000000000000000000000010001 "o
1#U
b0000000111 "Y
b001 ";
0[
b00000000000000000000000000000010 "=
b0010 #^
b00000000000000000000000000000111 ">
1#A
#76
0#U
0#A
#81
b00000000000000000000000000010001 @
b00000000000000000000000000000000 #&
b00000000000000000000000000000000 "&
b00000000000000000000000000001000 #'
b00000000000000000000000000000111 e
b00000000000000000000000000000000 #(
b00000000000000000000000000000010 #H
b00000000000000000000000000001001 f
b00000000000000000000000000000111 g
b00000000000000000000000000010001 #*
b00000000000000000000000000111111 #+
b00000000000000000000000000010011 "n
b00000000000000000000000001000111 "o
1#U
b0000001000 "Y
b000 ";
b00000000000000000000000000001000 "=
b0011 #^
b00000000000000000000000000000000 ">
1#A
#86
0#U
0#A
#91
b00000000000000000000000001000111 @
b00000000000000000000000000000001 "&
b00000000000000000000000000000000 #'
b00000000000000000000000000000000 e
b00000000000000000000000000001000 #H
b00000000000000000000000000111111 f
b00000000000000000000000000010011 #)
b00000000000000000000000000000000 g
b00000000000000000000000001000111 #*
b00000000000000000000000000000000 #+
b00000000000000000000000001100111 "n
b00000000000000000000000000000000 "o
1#U
b00000000000000000000000000010001 #7
b0000001001 "Y
b111 ";
b00000000000000000000000000000000 "=
b0100 #^
1#A
b00000000000000000000000000010011 ?
#96
0#U
0#A
#101
b00000000000000000000000000000000 @
b00000000000000000000000000010001 #$
b00000000000000000000000000000010 "&
b00000000000000000000000000000000 #H
b00000000000000000000000000000000 f
b00000000000000000000000001100111 #)
b00000000000000000000000000000000 #*
b00000000000000000000000000000000 "n
1#U
b00000000000000000000000001000111 #7
b00000000000000000000000000010011 #8
b0000001010 "Y
b110 ";
b0101 #^
1#A
b00000000000000000000000001100111 ?
#106
0#U
0#A
#111
b00000000000000000000000000010011 #%
1#U
b00000000000000000000000000000011 "&
b00000000000000000000000001100111 #8
b00000000000000000000000000000000 #)
b0000001011 "Y
b101 ";
b0110 #^
1#A
b00000000000000000000000000000000 ?
#116
0#U
0#A
#121
1#U
b00000000000000000000000000000100 "&
b0000001100 "Y
b100 ";
b0111 #^
1#A
#126
0#U
0#A
#131
1#U
b00000000000000000000000000000101 "&
b0000001101 "Y
b011 ";
b1000 #^
1#A
#136
0#U
0#A
#141
1#U
b00000000000000000000000000000001 #&
b00000000000000000000000000000110 "&
b00000000000000000000000000000001 #(
b0000001110 "Y
b010 ";
b1001 #^
b00000000000000000000000000000001 ">
1#A
#146
0#U
0#A
#151
b00000000000000000000000000000111 #&
b00000000000000000000000000000111 "&
b00000000000000000000000000000010 #'
b00000000000000000000000000000001 e
b00000000000000000000000000000111 #(
b00000000000000000000000000000001 g
b00000000000000000000000000001001 #+
b00000000000000000000000000010001 "o
1#U
b0000001111 "Y
b001 ";
b00000000000000000000000000000010 "=
b1010 #^
b00000000000000000000000000000111 ">
1#A
#156
0#U
0#A
#161
b00000000000000000000000000010001 @
b00000000000000000000000000000000 #&
b00000000000000000000000000001000 "&
b00000000000000000000000000001000 #'
b00000000000000000000000000000111 e
b00000000000000000000000000000000 #(
b00000000000000000000000000000010 #H
b00000000000000000000000000001001 f
b00000000000000000000000000000111 g
b00000000000000000000000000010001 #*
b00000000000000000000000000111111 #+
b00000000000000000000000000010011 "n
b00000000000000000000000001000111 "o
1#U
b0000010000 "Y
b000 ";
b00000000000000000000000000001000 "=
b1011 #^
b00000000000000000000000000000000 ">
1#A
#166
0#U
0#A
#171
b00000000000000000000000001000111 @
b00000000000000000000000000001001 "&
b00000000000000000000000000000000 #'
b00000000000000000000000000000000 e
b00000000000000000000000000001000 #H
b00000000000000000000000000111111 f
b00000000000000000000000000010011 #)
b00000000000000000000000000000000 g
b00000000000000000000000001000111 #*
b00000000000000000000000000000000 #+
b00000000000000000000000001100111 "n
b00000000000000000000000000000000 "o
1#U
b0000010001 "Y
b111 ";
b00000000000000000000000000000000 "=
b1100 #^
1#A
b00000000000000000000000000010011 ?
#176
0#U
0#A
#181
b00000000000000000000000000000000 @
b00000000000000000000000000001010 "&
b00000000000000000000000000000000 #H
b00000000000000000000000000000000 f
b00000000000000000000000001100111 #)
b00000000000000000000000000000000 #*
b00000000000000000000000000000000 "n
1#U
b0000010010 "Y
b110 ";
b1101 #^
1#A
b00000000000000000000000001100111 ?
#186
0#U
0#A
#191
1#U
b00000000000000000000000000001011 "&
b00000000000000000000000000000000 #)
b0000010011 "Y
b101 ";
b1110 #^
1#A
b00000000000000000000000000000000 ?
#196
0#U
0#A
#201
1#U
b00000000000000000000000000001100 "&
b0000010100 "Y
b100 ";
b1111 #^
1#A
#206
0#U
0#A
#211
b00000000000000000000000001100111 "
b00000000000000000000000001000111 #
b00000000000000000000000000000000 "&
b00000000000000000000000001000111 #g
b00000000000000000000000001100111 #h
b00000000000000000000000000010011 M
0#P
b00000000000000000000000000010001 N
1#U
b010 5
b0000010101 "Y
b00000000000000000000000000010001 "y
b011 ";
b00000000000000000000000000010011 "|
b0000 #^
1#A
#216
0#U
0#A
#221
b00000000000000000000000000000000 #$
b00000000000000000000000000000000 #%
0"f
1#P
b0010 #Q
1#U
b00001 #V
b00000000000000000000000000000000 #7
b011 5
b00000000000000000000000000000000 #8
b0000010110 "Y
0#@
1#A
#226
0#U
0#A
#231
b00000000000000000000000000000000 ##
b00000000000000000000000000000000 #F
1"f
b00000000000000000000000000000011 #G
b00000000000000000000000000000010 #k
b00000000000000000000000000000011 #l
b00000000000000000000000000000000 #-
b00000000000000000000000000000011 #.
b00000000000000000000000000000000 #/
1"O
b00000000000000000000000000000100 #0
b00000000000000000000000000000011 #1
b00000000000000000000000000000010 #2
b00000000000000000000000000000000 "s
b00000000000000000000000000000000 "t
1#U
b00000000000000000000000000000000 "W
b00000000000000000000000000000100 "X
b0000010111 "Y
1[
1#@
1#A
b00000000000000000000000000000000 #"
#236
0#U
0#A
#241
b00000000000000000000000000000011 #&
b00000000000000000000000000000001 "&
b00000000000000000000000000001001 #(
b00000000000000000000000000000000 (
b00000000000000000000000000000000 )
1#U
b0000011000 "Y
b00000000000000000000000000000011 Y
b010 ";
b00000000000000000000000000000010 Z
b0001 #^
b00000000000000000000000000000011 ">
1#A
#246
0#U
0#A
