test_run_dir/TPU_test_should_mult_one_cycle/ChiselTPU.vcd
$date
2023-03-13T06:02+0000
$end
$version
0.2
$end
$comment

$end
$timescale 1ns  $end
$scope module ChiselTPU $end
 $var wire 32 ! myOut_1_2 $end
 $var wire 32 " myOut_1_1 $end
 $var wire 32 # myOut_1_0 $end
 $var wire 32 * io_debug_cycleIdxRows_0 $end
 $var wire 32 + io_debug_cycleIdxRows_1 $end
 $var wire 32 , io_debug_cycleIdxRows_2 $end
 $var wire 32 - io_debug_b_regs_1_2 $end
 $var wire 32 . io_debug_b_regs_1_0 $end
 $var wire 32 / io_debug_b_regs_1_1 $end
 $var wire 32 0 io_a_bits_0_0 $end
 $var wire 32 4 paddedA_1_0 $end
 $var wire 32 5 paddedA_1_1 $end
 $var wire 32 6 paddedA_1_2 $end
 $var wire 32 7 paddedA_1_3 $end
 $var wire 1 8 io_a_ready $end
 $var wire 32 < io_b_bits_0_2 $end
 $var wire 3 = state $end
 $var wire 32 > io_b_bits_0_1 $end
 $var wire 32 ? io_b_bits_0_0 $end
 $var wire 32 C paddedB_3_3 $end
 $var wire 32 D paddedB_3_1 $end
 $var wire 32 E paddedB_3_2 $end
 $var wire 32 F io_debug_systout_upperLim $end
 $var wire 32 G paddedB_3_0 $end
 $var wire 32 H act_in_1_1 $end
 $var wire 32 I act_in_1_2 $end
 $var wire 32 J act_in_1_0 $end
 $var wire 1 K b_ready $end
 $var wire 32 L io_out_0_0 $end
 $var wire 32 M io_debug_a_regs_1_0 $end
 $var wire 32 N io_debug_a_regs_1_2 $end
 $var wire 32 O io_debug_a_regs_1_1 $end
 $var wire 32 P io_out_0_1 $end
 $var wire 32 Q io_out_0_2 $end
 $var wire 32 R slicedB_1_1 $end
 $var wire 32 S slicedB_1_0 $end
 $var wire 1 T a_ready $end
 $var wire 32 X myOut_0_2 $end
 $var wire 32 Y myOut_0_1 $end
 $var wire 32 Z myOut_0_0 $end
 $var wire 32 ^ myOut_2_1 $end
 $var wire 32 _ myOut_2_0 $end
 $var wire 32 ` myOut_2_2 $end
 $var wire 32 a io_debug_b_regs_2_1 $end
 $var wire 32 b io_debug_b_regs_2_2 $end
 $var wire 32 c io_debug_b_regs_2_0 $end
 $var wire 32 k io_a_bits_1_2 $end
 $var wire 32 l io_a_bits_1_1 $end
 $var wire 32 m io_a_bits_1_0 $end
 $var wire 32 s paddedA_0_1 $end
 $var wire 32 t paddedA_0_2 $end
 $var wire 32 u paddedA_0_3 $end
 $var wire 32 v paddedA_0_0 $end
 $var wire 1 z systArr $end
 $var wire 32 ~ slicedA_0_1 $end
 $var wire 32 "! slicedA_0_0 $end
 $var wire 32 ". paddedB_2_2 $end
 $var wire 32 "/ paddedB_2_3 $end
 $var wire 32 "0 io_debug_cycleIdx $end
 $var wire 32 "1 paddedB_2_0 $end
 $var wire 32 "2 paddedB_2_1 $end
 $var wire 1 "3 printf_9 $end
 $var wire 1 "4 printf_8 $end
 $var wire 1 "5 printf_7 $end
 $var wire 1 "6 printf_6 $end
 $var wire 1 "7 printf_1 $end
 $var wire 32 "8 act_in_2_2 $end
 $var wire 1 "9 printf_5 $end
 $var wire 1 ": printf_4 $end
 $var wire 1 "; printf_3 $end
 $var wire 1 "< printf_2 $end
 $var wire 32 "= act_in_2_0 $end
 $var wire 32 "> act_in_2_1 $end
 $var wire 1 "? printf $end
 $var wire 32 "@ io_a_bits_0_2 $end
 $var wire 32 "A io_a_bits_0_1 $end
 $var wire 32 "E io_debug_a_regs_0_1 $end
 $var wire 32 "F io_debug_a_regs_0_0 $end
 $var wire 32 "G io_debug_a_regs_0_2 $end
 $var wire 1 "H printf_28 $end
 $var wire 32 "I cycleIdx $end
 $var wire 1 "J printf_24 $end
 $var wire 1 "K printf_25 $end
 $var wire 1 "L printf_26 $end
 $var wire 1 "M printf_27 $end
 $var wire 1 "N printf_20 $end
 $var wire 1 "O printf_21 $end
 $var wire 1 "P printf_22 $end
 $var wire 1 "Q printf_23 $end
 $var wire 1 "R printf_17 $end
 $var wire 1 "S printf_18 $end
 $var wire 1 "T printf_19 $end
 $var wire 1 "U printf_13 $end
 $var wire 1 "V printf_14 $end
 $var wire 1 "W printf_15 $end
 $var wire 1 "X printf_16 $end
 $var wire 1 "Y printf_10 $end
 $var wire 1 "Z printf_11 $end
 $var wire 1 "[ printf_12 $end
 $var wire 1 "\ io_b_ready $end
 $var wire 1 "^ io_a_valid $end
 $var wire 32 "b io_a_bits_2_2 $end
 $var wire 32 "c io_a_bits_2_1 $end
 $var wire 32 "d io_a_bits_2_0 $end
 $var wire 1 "h clock $end
 $var wire 32 "i io_debug_1_1_1 $end
 $var wire 32 "j io_debug_1_1_2 $end
 $var wire 32 "k io_debug_1_1_0 $end
 $var wire 32 "l io_debug_a_out_2 $end
 $var wire 32 "m io_debug_a_out_1 $end
 $var wire 32 "n io_debug_a_out_0 $end
 $var wire 32 "o paddedB_1_3 $end
 $var wire 32 "p paddedB_1_1 $end
 $var wire 32 "q paddedB_1_2 $end
 $var wire 32 "r paddedB_1_0 $end
 $var wire 32 "s paddedA_3_2 $end
 $var wire 32 "t paddedA_3_3 $end
 $var wire 32 "u paddedA_3_0 $end
 $var wire 32 "v paddedA_3_1 $end
 $var wire 32 "z io_debug_1_2_0 $end
 $var wire 32 "{ io_debug_1_2_1 $end
 $var wire 32 "| io_debug_1_2_2 $end
 $var wire 32 #% io_out_2_0 $end
 $var wire 32 #& io_out_2_1 $end
 $var wire 32 #' io_out_2_2 $end
 $var wire 1 #( counterFlag $end
 $var wire 1 #) wrap_wrap $end
 $var wire 4 #* boundK $end
 $var wire 5 #+ boundM $end
 $var wire 5 #, boundN $end
 $var wire 1 #- reset $end
 $var wire 32 #/ cycleIdxCols_0 $end
 $var wire 32 #0 cycleIdxCols_2 $end
 $var wire 32 #1 cycleIdxCols_1 $end
 $var wire 32 #2 io_b_bits_2_1 $end
 $var wire 32 #3 io_b_bits_2_0 $end
 $var wire 32 #4 io_b_bits_2_2 $end
 $var wire 32 #5 io_debug_cycleIdxCols_2 $end
 $var wire 32 #6 io_debug_cycleIdxCols_0 $end
 $var wire 32 #7 io_debug_cycleIdxCols_1 $end
 $var wire 32 #8 slicedA_1_1 $end
 $var wire 32 #9 slicedA_1_0 $end
 $var wire 32 #: io_debug_systreg_out_2 $end
 $var wire 32 #; io_debug_systreg_out_0 $end
 $var wire 32 #< io_debug_systreg_out_1 $end
 $var wire 32 #= io_debug_b_regs_0_0 $end
 $var wire 32 #> io_debug_b_regs_0_1 $end
 $var wire 32 #? io_debug_b_regs_0_2 $end
 $var wire 3 #G REG $end
 $var wire 3 #I sliceCycle $end
 $var wire 32 #J act_in_0_1 $end
 $var wire 32 #K act_in_0_0 $end
 $var wire 32 #L act_in_0_2 $end
 $var wire 4 #M cycle $end
 $var wire 1 #N actReg $end
 $var wire 32 #U io_debug_00 $end
 $var wire 32 #V io_debug_1_0_2 $end
 $var wire 32 #W io_debug_1_0_0 $end
 $var wire 32 #X io_debug_1_0_1 $end
 $var wire 32 #Y paddedB_0_2 $end
 $var wire 32 #Z paddedB_0_3 $end
 $var wire 32 #[ paddedB_0_0 $end
 $var wire 32 #\ paddedB_0_1 $end
 $var wire 32 #] paddedA_2_3 $end
 $var wire 32 #^ paddedA_2_0 $end
 $var wire 32 #_ paddedA_2_1 $end
 $var wire 32 #` paddedA_2_2 $end
 $var wire 1 #d io_b_valid $end
 $var wire 32 #k io_debug_cycleOut $end
 $var wire 32 #l io_debug_a_regs_2_1 $end
 $var wire 32 #m io_debug_a_regs_2_0 $end
 $var wire 32 #n io_debug_a_regs_2_2 $end
 $var wire 32 #o io_out_1_0 $end
 $var wire 32 #p io_out_1_1 $end
 $var wire 32 #q io_out_1_2 $end
 $var wire 32 #r cycleIdxRows_0 $end
 $var wire 32 #s cycleIdxRows_2 $end
 $var wire 32 #t cycleIdxRows_1 $end
 $var wire 32 #u slicedB_0_1 $end
 $var wire 32 #v slicedB_0_0 $end
 $var wire 32 #w io_b_bits_1_2 $end
 $var wire 32 #x io_b_bits_1_1 $end
 $var wire 32 #y io_b_bits_1_0 $end
  $scope module systArr $end
   $var wire 32 $ io_cmp_debug_1_0 $end
   $var wire 32 % io_cmp_debug_1_1 $end
   $var wire 32 & io_cmp_debug_1_2 $end
   $var wire 32 ' b_reg_1_0 $end
   $var wire 32 ( b_reg_1_1 $end
   $var wire 32 ) b_reg_1_2 $end
   $var wire 32 1 cmp_input_1_2 $end
   $var wire 32 2 cmp_input_1_1 $end
   $var wire 32 3 cmp_input_1_0 $end
   $var wire 32 9 io_b_in_1_0 $end
   $var wire 32 : io_b_in_1_1 $end
   $var wire 32 ; io_b_in_1_2 $end
   $var wire 32 @ cms_reg_1_1 $end
   $var wire 32 A cms_reg_1_2 $end
   $var wire 32 B cms_reg_1_0 $end
   $var wire 32 U io_debug_a_regs_2_0 $end
   $var wire 32 V io_debug_a_regs_2_1 $end
   $var wire 32 W io_debug_a_regs_2_2 $end
   $var wire 32 [ io_a_in_0 $end
   $var wire 32 \ io_a_in_2 $end
   $var wire 32 ] io_a_in_1 $end
   $var wire 32 d io_cmp_debug_0_0 $end
   $var wire 32 e io_cmp_debug_0_1 $end
   $var wire 32 f io_cmp_debug_0_2 $end
   $var wire 32 g b_reg_0_0 $end
   $var wire 32 h b_reg_0_1 $end
   $var wire 32 i b_reg_0_2 $end
   $var wire 32 j cmp_input_0_0 $end
   $var wire 32 n io_out_2 $end
   $var wire 32 o io_out_1 $end
   $var wire 32 p io_out_0 $end
   $var wire 32 q cmp_input_0_2 $end
   $var wire 32 r cmp_input_0_1 $end
   $var wire 32 w io_debug_b_regs_0_2 $end
   $var wire 32 x io_debug_b_regs_0_1 $end
   $var wire 32 y io_debug_b_regs_0_0 $end
   $var wire 32 "" cms_reg_0_2 $end
   $var wire 32 "# cms_reg_0_0 $end
   $var wire 32 "$ cms_reg_0_1 $end
   $var wire 32 "( io_b_in_0_0 $end
   $var wire 32 ") io_b_in_0_1 $end
   $var wire 32 "* io_b_in_0_2 $end
   $var wire 32 "+ a_reg_0_2 $end
   $var wire 32 ", a_reg_0_1 $end
   $var wire 32 "- a_reg_0_0 $end
   $var wire 32 "B io_debug_a_regs_1_1 $end
   $var wire 32 "C io_debug_a_regs_1_2 $end
   $var wire 32 "D io_debug_a_regs_1_0 $end
   $var wire 32 "e io_debug_b_regs_1_2 $end
   $var wire 32 "f io_debug_b_regs_1_1 $end
   $var wire 32 "g io_debug_b_regs_1_0 $end
   $var wire 32 "w io_debug_a_regs_0_2 $end
   $var wire 32 "x io_debug_a_regs_0_0 $end
   $var wire 32 "y io_debug_a_regs_0_1 $end
   $var wire 32 #" a_reg_1_2 $end
   $var wire 32 ## a_reg_1_1 $end
   $var wire 32 #$ a_reg_1_0 $end
   $var wire 1 #. io_b_readingin $end
   $var wire 32 #@ io_cmp_debug_2_0 $end
   $var wire 32 #A io_cmp_debug_2_1 $end
   $var wire 32 #B io_cmp_debug_2_2 $end
   $var wire 32 #C b_reg_2_0 $end
   $var wire 32 #D b_reg_2_1 $end
   $var wire 32 #E b_reg_2_2 $end
   $var wire 32 #F io_debug_00 $end
   $var wire 1 #H clock $end
   $var wire 32 #O cms_reg_2_2 $end
   $var wire 32 #P cms_reg_2_0 $end
   $var wire 32 #Q cms_reg_2_1 $end
   $var wire 32 #R cmp_input_2_2 $end
   $var wire 32 #S cmp_input_2_1 $end
   $var wire 32 #T cmp_input_2_0 $end
   $var wire 32 #a io_debug_b_regs_2_2 $end
   $var wire 32 #b io_debug_b_regs_2_1 $end
   $var wire 32 #c io_debug_b_regs_2_0 $end
   $var wire 32 #e io_b_in_2_0 $end
   $var wire 32 #f io_b_in_2_1 $end
   $var wire 32 #g io_b_in_2_2 $end
   $var wire 32 #h a_reg_2_2 $end
   $var wire 32 #i a_reg_2_1 $end
   $var wire 32 #j a_reg_2_0 $end
  $upscope $end
  $scope module actReg $end
   $var wire 32 { io_a_2_2 $end
   $var wire 32 | io_a_2_1 $end
   $var wire 32 } io_a_2_0 $end
   $var wire 32 "% io_a_1_2 $end
   $var wire 32 "& io_a_1_1 $end
   $var wire 32 "' io_a_1_0 $end
   $var wire 4 "] io_index $end
   $var wire 32 "_ io_a_out_2 $end
   $var wire 32 "` io_a_out_1 $end
   $var wire 32 "a io_a_out_0 $end
   $var wire 32 "} io_a_0_2 $end
   $var wire 32 "~ io_a_0_1 $end
   $var wire 32 #! io_a_0_0 $end
  $upscope $end
$upscope $end
$enddefinitions $end
$dumpvars
b00000000000000000000000000000000 +
b00000000000000000000000000000000 *
b00000000000000000000000000000000 -
b00000000000000000000000000000000 ,
b00000000000000000000000000000000 '
b00000000000000000000000000000000 &
b00000000000000000000000000000000 )
b00000000000000000000000000000000 (
08
b00000000000000000000000000000000 #
b0000 #M
b00000000000000000000000000000000 "
b00000000000000000000000000000000 %
b00000000000000000000000000000000 $
b00000000000000000000000000000000 !
b00000000000000000000000000000000 ;
b00000000000000000000000000000000 :
b00000000000000000000000000000000 <
b00000000000000000000000000000000 7
b00000000000000000000000000000000 6
b00000000000000000000000000000000 9
b00000000000000000000000000000000 3
b00000000000000000000000000000000 2
b00000000000000000000000000000000 5
0K
b00000000000000000000000000000000 4
b00000000000000000000000000000000 /
b00000000000000000000000000000000 .
b00000000000000000000000000000000 1
b00000000000000000000000000000000 0
0T
0z
0"3
0"4
b00000 #,
0"5
b00000 #+
0"6
0"7
0"9
0":
0";
0"<
0"?
0#(
0"H
0#)
0"J
0"K
0"L
0#-
0"M
0#.
0"N
0"O
0"P
0"Q
0"R
0"S
0"T
0"U
0"V
0"W
0"X
0"Y
0"Z
0"[
0"\
0"^
0#H
0"h
0#N
b00000000000000000000000000000000 "o
b00000000000000000000000000000000 #P
b00000000000000000000000000000000 "n
b00000000000000000000000000000000 #O
b00000000000000000000000000000000 "m
b00000000000000000000000000000000 "l
b00000000000000000000000000000000 "s
b00000000000000000000000000000000 #T
b00000000000000000000000000000000 "r
b00000000000000000000000000000000 #S
b00000000000000000000000000000000 "q
b00000000000000000000000000000000 #R
b00000000000000000000000000000000 "p
b00000000000000000000000000000000 #Q
b00000000000000000000000000000000 "g
b00000000000000000000000000000000 "f
b00000000000000000000000000000000 "e
b00000000000000000000000000000000 #F
b00000000000000000000000000000000 "d
b00000000000000000000000000000000 #E
b00000000000000000000000000000000 "k
b00000000000000000000000000000000 #L
b00000000000000000000000000000000 "j
b00000000000000000000000000000000 #K
b00000000000000000000000000000000 "i
b00000000000000000000000000000000 #J
b00000000000000000000000000000000 #`
b00000000000000000000000000000000 "~
b00000000000000000000000000000000 #_
0#d
b00000000000000000000000000000000 "}
b00000000000000000000000000000000 #^
b00000000000000000000000000000000 "|
b00000000000000000000000000000000 #]
b00000000000000000000000000000000 #c
b00000000000000000000000000000000 #b
b00000000000000000000000000000000 #a
b00000000000000000000000000000000 "w
b00000000000000000000000000000000 #X
b00000000000000000000000000000000 "v
b00000000000000000000000000000000 #W
b00000000000000000000000000000000 "u
b00000000000000000000000000000000 #V
b00000000000000000000000000000000 "t
b00000000000000000000000000000000 #U
b00000000000000000000000000000000 "{
b00000000000000000000000000000000 #\
b00000000000000000000000000000000 "z
b00000000000000000000000000000000 #[
b000 =
b00000000000000000000000000000000 "y
b00000000000000000000000000000000 #Z
b00000000000000000000000000000000 "x
b00000000000000000000000000000000 #Y
b00000000000000000000000000000000 #p
b00000000000000000000000000000000 #o
b00000000000000000000000000000000 #n
b00000000000000000000000000000000 #m
b00000000000000000000000000000000 #t
b00000000000000000000000000000000 #s
b00000000000000000000000000000000 #r
b00000000000000000000000000000000 #q
b00000000000000000000000000000000 #h
b00000000000000000000000000000000 #g
b00000000000000000000000000000000 #f
b00000000000000000000000000000000 #e
b00000000000000000000000000000000 #l
b00000000000000000000000000000000 #k
b00000000000000000000000000000000 #j
b00000000000000000000000000000000 #i
b00000000000000000000000000000000 #x
b00000000000000000000000000000000 #w
b00000000000000000000000000000000 #v
b00000000000000000000000000000000 #u
b00000000000000000000000000000000 #y
b00000000000000000000000000000000 "/
b00000000000000000000000000000000 ".
b00000000000000000000000000000000 "-
b00000000000000000000000000000000 ",
b00000000000000000000000000000000 "2
b00000000000000000000000000000000 "1
b00000000000000000000000000000000 "0
b00000000000000000000000000000000 "'
b00000000000000000000000000000000 "&
b00000000000000000000000000000000 "%
b00000000000000000000000000000000 "$
b00000000000000000000000000000000 "+
b00000000000000000000000000000000 "*
b00000000000000000000000000000000 ")
b00000000000000000000000000000000 "(
b00000000000000000000000000000000 ">
b00000000000000000000000000000000 "=
b00000000000000000000000000000000 "C
b00000000000000000000000000000000 #$
b00000000000000000000000000000000 "B
b00000000000000000000000000000000 ##
b00000000000000000000000000000000 "A
b00000000000000000000000000000000 #"
b00000000000000000000000000000000 "@
b00000000000000000000000000000000 #!
b00000000000000000000000000000000 "8
b00000000000000000000000000000000 #0
b00000000000000000000000000000000 #/
b00000000000000000000000000000000 #4
b00000000000000000000000000000000 #3
b00000000000000000000000000000000 #2
b00000000000000000000000000000000 #1
b00000000000000000000000000000000 "G
b00000000000000000000000000000000 "F
b00000000000000000000000000000000 #'
b00000000000000000000000000000000 "E
b00000000000000000000000000000000 #&
b00000000000000000000000000000000 "D
b00000000000000000000000000000000 #%
b00000000000000000000000000000000 "I
b00000000000000000000000000000000 "_
b00000000000000000000000000000000 #@
b00000000000000000000000000000000 #?
b00000000000000000000000000000000 #>
b00000000000000000000000000000000 #=
b00000000000000000000000000000000 "c
b00000000000000000000000000000000 #D
b00000000000000000000000000000000 "b
b00000000000000000000000000000000 #C
b00000000000000000000000000000000 "a
b00000000000000000000000000000000 #B
b00000000000000000000000000000000 "`
b00000000000000000000000000000000 #A
b00000000000000000000000000000000 #8
b00000000000000000000000000000000 #7
b00000000000000000000000000000000 #6
b00000000000000000000000000000000 #5
b00000000000000000000000000000000 #<
b00000000000000000000000000000000 #;
b00000000000000000000000000000000 #:
b00000000000000000000000000000000 #9
b00000000000000000000000000000000 "#
b00000000000000000000000000000000 ""
b00000000000000000000000000000000 "!
b000 #G
b000 #I
b00000000000000000000000000000000 ~
b00000000000000000000000000000000 k
b00000000000000000000000000000000 j
b00000000000000000000000000000000 m
b00000000000000000000000000000000 l
b00000000000000000000000000000000 g
b00000000000000000000000000000000 f
b00000000000000000000000000000000 i
b00000000000000000000000000000000 h
b00000000000000000000000000000000 c
b00000000000000000000000000000000 b
b00000000000000000000000000000000 e
b00000000000000000000000000000000 d
b00000000000000000000000000000000 _
b00000000000000000000000000000000 ^
b00000000000000000000000000000000 a
b00000000000000000000000000000000 `
b00000000000000000000000000000000 {
b00000000000000000000000000000000 }
b00000000000000000000000000000000 |
b00000000000000000000000000000000 w
b00000000000000000000000000000000 v
b00000000000000000000000000000000 y
b00000000000000000000000000000000 x
b00000000000000000000000000000000 s
b00000000000000000000000000000000 r
b00000000000000000000000000000000 u
b00000000000000000000000000000000 t
b00000000000000000000000000000000 o
b00000000000000000000000000000000 n
b00000000000000000000000000000000 q
b00000000000000000000000000000000 p
b00000000000000000000000000000000 J
b00000000000000000000000000000000 M
b00000000000000000000000000000000 L
b0000 #*
b00000000000000000000000000000000 G
b00000000000000000000000000000000 F
b00000000000000000000000000000000 I
b00000000000000000000000000000000 H
b00000000000000000000000000000000 C
b00000000000000000000000000000000 B
b00000000000000000000000000000000 E
b00000000000000000000000000000000 D
b00000000000000000000000000000000 ?
b00000000000000000000000000000000 >
b00000000000000000000000000000000 A
b00000000000000000000000000000000 @
b00000000000000000000000000000000 [
b00000000000000000000000000000000 Z
b00000000000000000000000000000000 ]
b00000000000000000000000000000000 \
b00000000000000000000000000000000 W
b00000000000000000000000000000000 V
b00000000000000000000000000000000 Y
b00000000000000000000000000000000 X
b0000 "]
b00000000000000000000000000000000 S
b00000000000000000000000000000000 R
b00000000000000000000000000000000 U
b00000000000000000000000000000000 O
b00000000000000000000000000000000 N
b00000000000000000000000000000000 Q
b00000000000000000000000000000000 P
$end
#0
1#-
b0101 "]
#1
1T
1#H
1"h
18
1"\
1K
#6
b00000000000000000000000000000001 "b
b00000000000000000000000000000100 "c
b00000000000000000000000000000011 "d
0#H
b00000000000000000000000000000010 "(
0"h
b00000000000000000000000000000101 ")
b00000000000000000000000000000101 "*
b00000000000000000000000000000001 "@
b00000000000000000000000000000011 "A
1#d
b00000000000000000000000000000010 #e
b00000000000000000000000000000011 #f
b00000000000000000000000000000001 #g
0#-
b00000000000000000000000000000100 k
b00000000000000000000000000000101 l
b00000000000000000000000000000001 m
b00000000000000000000000000000011 #2
b00000000000000000000000000000010 0
b00000000000000000000000000000010 #3
b00000000000000000000000000000001 #4
b00000000000000000000000000000011 #w
b00000000000000000000000000000001 #x
b00000000000000000000000000000100 #y
b00000000000000000000000000000100 9
b00000000000000000000000000000001 :
b00000000000000000000000000000011 ;
b00000000000000000000000000000101 <
1"^
b00000000000000000000000000000101 >
b00000000000000000000000000000010 ?
#11
b00000000000000000000000000000100 "%
b00000000000000000000000000000101 "&
b00000000000000000000000000000001 "'
1#H
1"h
b00000000000000000000000000000011 #J
b00000000000000000000000000000101 H
b00000000000000000000000000000010 #K
b00000000000000000000000000000100 I
b00000000000000000000000000000001 #L
b00000000000000000000000000000001 J
0T
b00000000000000000000000000000001 "8
b00000000000000000000000000000011 "=
b00000000000000000000000000000011 #^
b00000000000000000000000000000001 "}
b00000000000000000000000000000100 ">
b00000000000000000000000000000100 #_
b00000000000000000000000000000011 "~
b00000000000000000000000000000001 #`
b00000000000000000000000000000010 #!
1#(
1#.
b00000000000000000000000000000011 s
b00000000000000000000000000000001 4
b00000000000000000000000000000001 t
b00000000000000000000000000000101 5
b00000000000000000000000000000100 6
b00000000000000000000000000000010 v
08
b00000000000000000000000000000001 {
b00000000000000000000000000000100 |
b001 =
b00000000000000000000000000000011 }
#16
0#H
0"h
#21
b00000000000000000000000000000010 #C
b00000000000000000000000000000011 #D
b00000000000000000000000000000001 #E
b00000000000000000000000000000011 "e
b001 #G
b00000000000000000000000000000001 "f
1#H
b00000000000000000000000000000100 "g
1"h
0K
b00000000000000000000000000000001 ".
b00000000000000000000000000000001 "p
b00000000000000000000000000000010 "1
b00000000000000000000000000000011 "q
b00000000000000000000000000000011 "2
b00000000000000000000000000000100 "r
b00000000000000000000000000000101 #Y
b00000000000000000000000000000010 #[
b00000000000000000000000000000101 #\
b00000000000000000000000000000001 #a
b00000000000000000000000000000011 #b
b00000000000000000000000000000010 #c
b00000000000000000000000000000011 a
b00000000000000000000000000000001 b
b00000000000000000000000000000010 c
0#(
b00000000000000000000000000000100 '
b00000000000000000000000000000010 g
b00000000000000000000000000000001 (
b00000000000000000000000000000101 h
b00000000000000000000000000000011 )
b00000000000000000000000000000101 i
0#.
b00000000000000000000000000000011 -
b00000000000000000000000000000100 .
b00000000000000000000000000000001 /
b00000000000000000000000000000101 w
b00000000000000000000000000000101 x
b00000000000000000000000000000010 y
0"\
b00000000000000000000000000000010 #=
b00000000000000000000000000000101 #>
b00000000000000000000000000000101 #?
b010 =
#26
0#H
0"h
#31
b010 #G
1#(
1#H
1"h
b00000000000000000000000000000001 R
b00000000000000000000000000000101 #u
b00000000000000000000000000000100 S
b00000000000000000000000000000010 #v
b00000000000000000000000000000101 #8
b00000000000000000000000000000001 #9
b011 =
b00000000000000000000000000000011 ~
b00000000000000000000000000000010 "!
#36
0#H
0"h
#41
b00000000000000000000000000000100 #F
b011 #G
1#H
1"h
b001 #I
b0010 #*
b00000000000000000000000000000001 "I
b00000000000000000000000000000001 #k
b00000000000000000000000000000100 j
b0001 #M
b00000000000000000000000000000010 "n
b00000000000000000000000000000001 "0
b00000000000000000000000000000100 #U
b00000000000000000000000000000010 [
b0100 "]
b00000000000000000000000000000010 "a
#46
0#H
0"h
#51
b00000000000000000000000000000100 "#
b00000000000000000000000000000010 #F
1#H
1"h
b0010 #M
b00000000000000000000000000000010 "-
b00000000000000000000000000000011 "m
b00000000000000000000000000000001 "n
b00000000000000000000000000000010 "0
b00000000000000000000000000000010 #U
b00000000000000000000000000000100 #W
b00000000000000000000000000000010 "x
b00000000000000000000000000000001 [
b00000000000000000000000000000011 ]
b00000000000000000000000000000100 d
b00000000000000000000000000000010 "F
b00000000000000000000000000000010 "I
b00000000000000000000000000000010 #k
b00000000000000000000000000000010 j
b00000000000000000000000000001010 r
b00000000000000000000000000010000 3
b0011 "]
b00000000000000000000000000000011 "`
b00000000000000000000000000000001 "a
#56
0#H
0"h
#61
b00000000000000000000000000000010 "#
b00000000000000000000000000010000 B
b00000000000000000000000000001010 "$
b00000000000000000000000000000110 #F
1#H
1"h
b00000000000000000000000000010000 "k
b00000000000000000000000000000010 ",
b0011 #M
b00000000000000000000000000000001 "l
b00000000000000000000000000000001 "-
b00000000000000000000000000000101 "m
b00000000000000000000000000000011 "n
b00000000000000000000000000000011 M
b00000000000000000000000000000011 "0
b00000000000000000000000000010010 #T
b00000000000000000000000000000110 #U
b00000000000000000000000000000010 #W
b00000000000000000000000000001010 #X
b00000000000000000000000000000001 "x
b00000000000000000000000000000010 "y
b00000000000000000000000000000011 [
b00000000000000000000000000000001 \
b00000000000000000000000000000101 ]
b00000000000000000000000000000011 #$
b00000000000000000000000000000011 "D
b00000000000000000000000000000010 "E
b00000000000000000000000000010000 $
b00000000000000000000000000000010 d
b00000000000000000000000000000001 "F
b00000000000000000000000000001010 e
b00000000000000000000000000000011 "I
b00000000000000000000000000000011 #k
b00000000000000000000000000000110 j
b00000000000000000000000000001010 q
b00000000000000000000000000001101 2
b00000000000000000000000000000101 r
b00000000000000000000000000010110 3
b0010 "]
b00000000000000000000000000000001 "_
b00000000000000000000000000000101 "`
b00000000000000000000000000000011 "a
#66
0#H
0"h
#71
b00000000000000000000000000000000 #F
1#H
1"h
b00000000000000000000000000001101 "i
b00000000000000000000000000010110 "k
b0100 #M
b00000000000000000000000000000100 "l
b00000000000000000000000000000100 "m
b00000000000000000000000000000000 "n
b00000000000000000000000000010010 #P
b00000000000000000000000000010000 #S
b00000000000000000000000000011110 #T
b00000000000000000000000000000000 #U
b00000000000000000000000000001010 #V
b00000000000000000000000000000110 #W
b00000000000000000000000000000101 #X
b00000000000000000000000000000010 "w
b00000000000000000000000000000011 "x
b00000000000000000000000000000001 "y
b00000000000000000000000000010010 "z
b00000000000000000000000000010110 $
b00000000000000000000000000001101 %
b00000000000000000000000000000001 #j
b00000000000000000000000000000100 #k
b00000000000000000000000000000001 #m
b00000000000000000000000000010011 1
b00000000000000000000000000001010 2
b00000000000000000000000000001101 @
b00000000000000000000000000001010 ""
b00000000000000000000000000000110 "#
b00000000000000000000000000010110 B
b00000000000000000000000000000101 "$
b00000000000000000000000000000010 "+
b00000000000000000000000000000001 ",
b00000000000000000000000000000011 "-
b00000000000000000000000000000101 M
b00000000000000000000000000000000 "0
b00000000000000000000000000000011 O
b00000000000000000000000000000001 U
b00000000000000000000000000000000 [
b00000000000000000000000000000100 \
b00000000000000000000000000000100 ]
b00000000000000000000000000000011 ##
b00000000000000000000000000000011 "B
b00000000000000000000000000000101 #$
b00000000000000000000000000000101 "D
b00000000000000000000000000000001 "E
b00000000000000000000000000000110 d
b00000000000000000000000000000011 "F
b00000000000000000000000000000101 e
b00000000000000000000000000000010 "G
b00000000000000000000000000001010 f
b00000000000000000000000000000000 "I
b00000000000000000000000000000000 j
b00000000000000000000000000010010 p
b00000000000000000000000000000101 q
b00000000000000000000000000001111 r
b00000000000000000000000000010010 #;
b0001 "]
b00000000000000000000000000010010 #@
b00000000000000000000000000000100 "_
b00000000000000000000000000000100 "`
b00000000000000000000000000000000 "a
#76
0#H
0"h
