test_run_dir/TPU_test_should_stagger_a/ChiselTPU.vcd
$date
2023-03-05T02:22+0000
$end
$version
0.2
$end
$comment

$end
$timescale 1ns  $end
$scope module ChiselTPU $end
 $var wire 8 " myOut_1_2 $end
 $var wire 8 # myOut_1_1 $end
 $var wire 8 $ myOut_1_0 $end
 $var wire 8 * syst_in_2_2 $end
 $var wire 8 + syst_in_2_1 $end
 $var wire 8 , syst_in_2_0 $end
 $var wire 8 / myOut_2_1 $end
 $var wire 8 0 myOut_2_0 $end
 $var wire 8 1 myOut_2_2 $end
 $var wire 1 3 io_b_ready $end
 $var wire 8 4 syst_in_1_2 $end
 $var wire 8 5 syst_in_1_1 $end
 $var wire 8 6 syst_in_1_0 $end
 $var wire 8 8 syst_in_0_0 $end
 $var wire 8 = syst_in_0_2 $end
 $var wire 8 > syst_in_0_1 $end
 $var wire 1 ? io_a_valid $end
 $var wire 8 @ io_a_bits_0_0 $end
 $var wire 8 A io_a_bits_1_2 $end
 $var wire 8 B io_a_bits_1_1 $end
 $var wire 8 C io_a_bits_1_0 $end
 $var wire 8 G act_in_0_1 $end
 $var wire 8 H act_in_0_0 $end
 $var wire 8 I act_in_0_2 $end
 $var wire 4 J cycle $end
 $var wire 8 N io_a_bits_2_2 $end
 $var wire 8 O io_a_bits_2_1 $end
 $var wire 8 P io_a_bits_2_0 $end
 $var wire 1 Q actReg $end
 $var wire 1 R clock $end
 $var wire 1 W systArr $end
 $var wire 1 [ io_a_ready $end
 $var wire 8 _ io_b_bits_0_2 $end
 $var wire 2 ` state $end
 $var wire 8 a io_b_bits_0_1 $end
 $var wire 8 b io_b_bits_0_0 $end
 $var wire 1 t io_b_valid $end
 $var wire 1 w printf_1 $end
 $var wire 8 x act_in_2_2 $end
 $var wire 1 y printf_4 $end
 $var wire 1 z printf_3 $end
 $var wire 1 { printf_2 $end
 $var wire 8 | act_in_2_0 $end
 $var wire 8 } io_out_2_0 $end
 $var wire 8 ~ act_in_2_1 $end
 $var wire 8 "! io_out_2_1 $end
 $var wire 8 "" io_out_2_2 $end
 $var wire 1 "# printf $end
 $var wire 8 ") io_a_bits_0_2 $end
 $var wire 8 "* io_a_bits_0_1 $end
 $var wire 1 "+ wrap_wrap $end
 $var wire 8 ", act_in_1_1 $end
 $var wire 8 "- act_in_1_2 $end
 $var wire 8 ". act_in_1_0 $end
 $var wire 1 "/ b_ready $end
 $var wire 8 "0 io_out_0_0 $end
 $var wire 1 "1 reset $end
 $var wire 8 "2 io_out_0_1 $end
 $var wire 8 "3 io_out_0_2 $end
 $var wire 8 "4 io_out_1_0 $end
 $var wire 8 "5 io_out_1_1 $end
 $var wire 8 "6 io_out_1_2 $end
 $var wire 8 "7 REG_2 $end
 $var wire 8 "8 REG_1 $end
 $var wire 8 "9 REG_0 $end
 $var wire 1 ": a_ready $end
 $var wire 8 "; io_b_bits_2_1 $end
 $var wire 8 "< io_b_bits_2_0 $end
 $var wire 8 "= io_b_bits_2_2 $end
 $var wire 8 "> io_b_bits_1_2 $end
 $var wire 8 "? io_b_bits_1_1 $end
 $var wire 8 "@ io_b_bits_1_0 $end
 $var wire 8 "I myOut_0_2 $end
 $var wire 8 "J myOut_0_1 $end
 $var wire 8 "K myOut_0_0 $end
  $scope module systArr $end
   $var wire 8 ! b_reg_2_0 $end
   $var wire 8 % b_reg_2_1 $end
   $var wire 8 & b_reg_2_2 $end
   $var wire 8 ' io_a_in_0 $end
   $var wire 8 ( io_a_in_2 $end
   $var wire 8 ) io_a_in_1 $end
   $var wire 8 - b_reg_1_0 $end
   $var wire 8 . b_reg_1_1 $end
   $var wire 8 2 b_reg_1_2 $end
   $var wire 1 7 clock $end
   $var wire 8 9 b_reg_0_0 $end
   $var wire 8 : b_reg_0_1 $end
   $var wire 8 ; b_reg_0_2 $end
   $var wire 8 D io_out_2 $end
   $var wire 8 E io_out_1 $end
   $var wire 8 F io_out_0 $end
   $var wire 8 S cms_reg_2_2 $end
   $var wire 8 T cms_reg_2_0 $end
   $var wire 8 U cms_reg_2_1 $end
   $var wire 8 V cmp_input $end
   $var wire 8 \ io_b_in_1_0 $end
   $var wire 8 ] io_b_in_1_1 $end
   $var wire 8 ^ io_b_in_1_2 $end
   $var wire 8 c cms_reg_0_2 $end
   $var wire 8 d cms_reg_0_0 $end
   $var wire 8 e cms_reg_0_1 $end
   $var wire 8 i io_b_in_0_0 $end
   $var wire 8 j io_b_in_0_1 $end
   $var wire 8 k io_b_in_0_2 $end
   $var wire 8 l a_reg_0_1 $end
   $var wire 8 m a_reg_0_0 $end
   $var wire 8 n cms_reg_1_1 $end
   $var wire 8 o cms_reg_1_2 $end
   $var wire 8 p cms_reg_1_0 $end
   $var wire 8 u a_reg_1_1 $end
   $var wire 8 v a_reg_1_0 $end
   $var wire 8 "$ io_b_in_2_0 $end
   $var wire 8 "% io_b_in_2_1 $end
   $var wire 8 "& io_b_in_2_2 $end
   $var wire 8 "' a_reg_2_1 $end
   $var wire 8 "( a_reg_2_0 $end
   $var wire 8 "A cmp_input_8 $end
   $var wire 8 "B cmp_input_6 $end
   $var wire 8 "C cmp_input_7 $end
   $var wire 8 "D cmp_input_4 $end
   $var wire 8 "E cmp_input_5 $end
   $var wire 8 "F cmp_input_2 $end
   $var wire 8 "G cmp_input_3 $end
   $var wire 8 "H cmp_input_1 $end
  $upscope $end
  $scope module actReg $end
   $var wire 4 < io_index $end
   $var wire 8 K io_a_out_2 $end
   $var wire 8 L io_a_out_1 $end
   $var wire 8 M io_a_out_0 $end
   $var wire 8 X io_a_2_2 $end
   $var wire 8 Y io_a_2_1 $end
   $var wire 8 Z io_a_2_0 $end
   $var wire 8 f io_a_1_2 $end
   $var wire 8 g io_a_1_1 $end
   $var wire 8 h io_a_1_0 $end
   $var wire 8 q io_a_0_2 $end
   $var wire 8 r io_a_0_1 $end
   $var wire 8 s io_a_0_0 $end
  $upscope $end
$upscope $end
$enddefinitions $end
$dumpvars
b00000000 k
b00000000 j
b00000000 m
03
b00000000 l
b00000000 g
b00000000 f
b00000000 i
07
b00000000 h
b00000000 c
b00000000 b
b00000000 e
b00000000 d
b00000000 _
b00000000 ^
b00000000 a
0?
b00000000 }
b00000000 |
b00000000 v
b00000000 x
b00000000 s
b00000000 r
b00000000 u
b00000000 o
b00000000 n
b00000000 q
b00000000 p
b00000000 K
0Q
0R
b00000000 M
b00000000 L
b00000000 G
b00000000 F
b00000000 I
0W
b00000000 H
b00000000 C
b00000000 B
b00000000 E
0[
b00000000 D
b00000000 >
b00000000 A
b00000000 @
b00000000 Z
b00000000 ]
b00000000 \
b00000000 V
b00000000 Y
b00000000 X
b0000 <
b00000000 S
b00000000 U
b00000000 T
b00000000 O
b00000000 ""
b00000000 N
b00000000 "!
b00000000 P
b00000000 "'
b00000000 "&
b00000000 "%
b00000000 "$
0t
b00000000 "*
b00000000 ")
0w
b00000000 "(
0y
b00000000 ".
0z
b00000000 "-
0{
b00000000 ",
b00000000 "3
b00000000 "2
b00000000 "0
b00000000 "7
b00000000 "6
b00000000 "5
b00000000 "4
b00000000 ";
b00000000 "9
b00000000 "8
b00000000 "?
b00000000 ">
b00000000 "=
b00000000 "<
b00000000 "C
b00000000 "B
b00000000 "A
b00000000 "@
b00000000 "G
b00000000 "F
b00000000 "E
b00000000 "D
b00000000 "K
b00000000 "J
b00000000 "I
b00000000 "H
b00000000 ~
0"#
0"+
0"/
0"1
0":
b00000000 +
b00000000 *
b00000000 -
b00000000 ,
b00000000 '
b00000000 &
b00000000 )
b00000000 (
b00000000 #
b00000000 "
b0000 J
b00000000 %
b00000000 $
b00000000 !
b00000000 ;
b00000000 :
b00000000 =
b00000000 6
b00000000 9
b00000000 8
b00 `
b00000000 2
b00000000 5
b00000000 4
b00000000 /
b00000000 .
b00000000 1
b00000000 0
$end
#0
b0100 <
1"1
#1
1R
13
17
1":
1[
1"/
#6
b00000010 @
b00000100 A
b00000101 a
b00000101 B
b00000010 b
b00000001 C
b00000001 ")
b00000011 "*
b00000001 N
b00000100 O
0"1
b00000011 P
0R
1t
07
b00000011 ";
b00000010 "<
b00000001 "=
b00000011 ">
b00000001 "?
b00000100 "@
1?
b00000101 _
#11
b00000011 G
b00000010 H
b00000001 I
b00000101 ",
b00000100 "-
b00000001 ".
b00000010 M
1R
b00000001 X
0":
b00000100 Y
b00000011 Z
0[
b01 `
b00000100 f
b00000101 g
b00000001 h
b00000001 q
b00000011 r
b00000010 s
17
b00000001 x
b00000011 |
b00000100 ~
#16
0R
07
#21
b00000010 "$
b00000011 "%
b00000001 "&
0"/
1R
b00000010 "9
b00000100 \
b00000001 ]
b00000011 ^
b10 `
b00000010 '
b00000010 i
b00000001 *
b00000101 j
b00000011 +
b00000101 k
b00000010 ,
03
b00000011 4
b00000001 5
b00000100 6
17
b00000010 8
b00000101 =
b00000101 >
#26
0R
07
#31
b00000010 !
b00000011 %
b00000001 &
b00001010 "H
b0001 J
b00000011 L
b00000100 -
b00000001 M
b00000010 m
b00000001 .
b00000011 2
1R
b00000100 V
17
b00000010 9
b00000101 :
b00000101 ;
b0011 <
#36
0R
07
#41
b00001010 "D
b00000100 d
b00001010 "F
b00001010 e
b00010000 "G
b00000001 '
b00000011 )
b0010 J
b00000001 K
b00000101 L
b00000010 l
b00000011 M
1R
b00000010 V
b00000011 "8
17
b00000001 "9
b0010 <
#46
0R
07
#51
b0011 J
b00000100 K
b00000100 L
b00000000 M
1R
b00000001 "7
b00000110 V
b00000101 "8
b00000011 "9
b00010010 "B
b00001010 "C
b00001101 "D
b00001010 c
b00001010 "E
b00000010 d
b00010110 "G
b00000101 "H
b00000011 '
b00000001 (
b00000101 )
b00000001 m
b00001010 n
b00010000 p
b00000011 v
17
b0001 <
#56
0R
07
#61
b00001010 E
b00010010 F
b00000001 "(
b0100 J
b00000001 K
b00000000 L
1R
b00010010 T
b00001010 U
b00000100 "7
b00000000 V
b00000100 "8
b00000000 "9
b00001010 "A
b00011110 "B
b00010000 "C
b00001010 "D
b00010011 "E
b00000110 d
b00000101 "F
b00000101 e
b00001111 "H
b00000000 '
b00000100 (
b00000100 )
b00000001 l
b00000011 m
b00001101 n
b00001010 o
b00010110 p
b00000011 u
b00000101 v
17
b0000 <
#66
0R
07
#71
b00001010 D
b00010000 E
b00000001 "'
b00011110 F
b00000100 "(
b0101 J
b00000000 K
b00010010 "0
1R
b00001010 S
b00011110 T
b00010000 U
b00000001 "7
b00000000 "8
b00010100 "A
b00011000 "B
b00010110 "C
b00010011 "D
b00000101 c
b00010100 "E
b00000000 d
b00001111 "F
b00001111 e
b00000000 "G
b00000000 "H
b00000001 (
b00000000 )
b00010010 "K
b00000011 l
b00000000 m
b00001010 n
b00010011 o
b00000101 u
b00000100 v
17
b1111 <
#76
0R
07
#81
b00010100 D
b00010110 E
b00000100 "'
b00011000 F
b00000001 "(
b0110 J
b00010000 "2
1R
b00011110 "4
b00010100 S
b00011000 T
b00010110 U
b00000000 "7
b00011000 "A
b00000000 "B
b00000000 "D
b00001111 c
b00011011 "E
b00011110 $
b00000000 "F
b00000000 e
b00000000 (
b00010000 "J
b00000000 l
b00010011 n
b00010100 o
b00000000 p
b00000100 u
b00000000 v
17
b1110 <
#86
0R
07
#91
b00000000 "C
b00010110 #
b00000000 c
b00000000 "E
b00011000 D
b00000001 "'
b00000000 F
b00000000 "(
b00010100 "I
b0111 J
b00000000 n
b00011011 o
b00011000 0
b00010100 "3
1R
b00011000 S
b00010110 "5
b00000000 T
b00000000 u
17
b1101 <
b00011000 }
b00011100 "A
#96
0R
07
#101
b00011000 "
b00011100 D
b00000000 E
b00000000 "'
b1000 J
b00010110 /
b00000000 o
1R
b00011100 S
b00011000 "6
b00000000 U
17
b1100 <
b00010110 "!
b00000000 "A
#106
0R
07
#111
b00011100 ""
b00011100 1
1R
b00000000 S
b00000000 D
17
1"+
b1001 J
b1011 <
#116
0R
07
#121
b11 `
1R
17
0"+
b0000 J
b0100 <
b00000010 M
#126
0R
07
#131
b00000000 ""
1"/
b00000000 "0
b00000000 "2
b00000000 "3
1R
b00000000 "4
b00000000 "5
b00000000 "6
b00000100 V
b00000010 "9
b01 `
b00000000 "
b00000000 #
b00000000 $
b00000010 '
b00000000 "I
b00000000 "J
b00000000 "K
b00000000 /
b00000000 0
b00000000 1
13
17
b00000000 }
b00000000 "!
#136
b00000011 a
0R
07
b00000100 ";
b00000011 "<
b00000100 ">
b00000101 "?
b00000001 "@
b00000001 _
#141
b10 `
b00000011 "$
b00000100 "%
b00000100 d
b00000100 "G
b00001010 "H
b00000011 j
b00000100 +
b00000001 k
b00000011 ,
b00000010 m
0"/
1R
03
b00000100 4
b00000101 5
b00000001 6
17
b00000001 \
b00000001 =
b00000101 ]
b00000011 >
b00000100 ^
#146
0R
07
#151
b00000100 "B
b00000011 !
b00001010 "D
b00000010 "F
b00000100 %
b00001010 e
b00000110 "H
b0001 J
b00000011 L
b00000010 l
b00000001 -
b00000001 M
b00000101 .
b00000100 p
b00000100 2
1R
17
b00000011 :
b00000001 ;
b0011 <
#156
0R
07
#161
b00001010 "C
b00000110 "D
b00000010 c
b00000010 "E
b00000110 e
b00000111 "G
b00000100 F
b00000001 '
b00000011 )
b0010 J
b00000001 K
b00000101 L
b00000011 M
b00001010 n
1R
b00000100 T
b00000010 V
b00000011 "8
17
b00000001 "9
b0010 <
#166
0R
07
#171
b00001010 E
b0011 J
b00000100 K
b00000100 L
b00000000 M
1R
b00001010 U
b00000001 "7
b00000110 V
b00000101 "8
b00000011 "9
b00000010 "A
b00001010 "B
b00000110 "C
b00010101 "D
b00000010 d
b00000011 "H
b00000011 '
b00000001 (
b00000101 )
b00000001 m
b00000110 n
b00000010 o
b00000111 p
b00000011 v
17
b0001 <
#176
0R
07
#181
b00000010 D
b00000110 E
b00001010 F
b00000001 "(
b0100 J
b00000001 K
b00000000 L
1R
b00000010 S
b00001010 T
b00000110 U
b00000100 "7
b00000000 V
b00000100 "8
b00000000 "9
b00010011 "B
b00011001 "C
b00011100 "D
b00001110 "E
b00000110 d
b00000001 "F
b00000011 e
b00001010 "G
b00001001 "H
b00000000 '
b00000100 (
b00000100 )
b00000001 l
b00000011 m
b00010101 n
b00000011 u
b00000101 v
17
b0000 <
#186
0R
07
#191
b00011001 E
b00000001 "'
b00010011 F
b00000100 "(
b0101 J
b00000000 K
b00001010 "0
1R
b00010011 T
b00011001 U
b00000001 "7
b00000000 "8
b00001111 "A
b00001101 "B
b00101100 "C
b00011101 "D
b00000001 c
b00010101 "E
b00000000 d
b00000011 "F
b00001001 e
b00000000 "G
b00000000 "H
b00000001 (
b00000000 )
b00001010 "K
b00000011 l
b00000000 m
b00011100 n
b00001110 o
b00001010 p
b00000101 u
b00000100 v
17
b1111 <
#196
0R
07
#201
b00001111 D
b00101100 E
b00000100 "'
b00001101 F
b00000001 "(
b0110 J
b00011001 "2
1R
b00010011 "4
b00001111 S
b00001101 T
b00101100 U
b00000000 "7
b00011001 "A
b00000000 "B
b00100001 "C
b00000000 "D
b00000011 c
b00010011 "E
b00010011 $
b00000000 "F
b00000000 e
b00000000 (
b00011001 "J
b00000000 l
b00011101 n
b00010101 o
b00000000 p
b00000100 u
b00000000 v
17
b1110 <
#206
0R
07
#211
b00011001 D
b00100001 E
b00000001 "'
b00000000 F
b00000000 "(
b0111 J
b00001111 "3
1R
b00011001 S
b00101100 "5
b00000000 T
b00100001 U
b00010100 "A
b00000000 "C
b00101100 #
b00000000 c
b00000000 "E
b00001111 "I
b00000000 n
b00010011 o
b00001101 0
b00000000 u
17
b1101 <
b00001101 }
#216
0R
07
#221
b00011001 "
b00010100 D
b00000000 E
b00000000 "'
b1000 J
b00100001 /
b00000000 o
1R
b00010100 S
b00011001 "6
b00000000 U
17
b1100 <
b00100001 "!
b00000000 "A
#226
0R
07
#231
b00010100 ""
b00010100 1
1R
b00000000 S
b00000000 D
17
1"+
b1001 J
b1011 <
#236
0R
07
#241
b11 `
1R
17
0"+
b0000 J
b0100 <
b00000010 M
#246
0R
07
#251
b00000000 ""
1"/
b00000000 "0
b00000000 "2
b00000000 "3
1R
b00000000 "4
b00000000 "5
b00000000 "6
b00000100 V
b00000010 "9
b01 `
b00000000 "
b00000000 #
b00000000 $
b00000010 '
b00000000 "I
b00000000 "J
b00000000 "K
b00000000 /
b00000000 0
b00000000 1
13
17
b00000000 }
b00000000 "!
#256
0R
07
#261
b10 `
1R
03
b00000100 d
b00000100 "G
b00000110 "H
17
b00000010 m
0"/
#266
b00000000 @
b00000000 A
b00000000 a
b00000000 B
b00000000 b
b00000000 C
b00000000 ")
b00000000 "*
b00000000 N
b00000000 O
b00000000 P
0R
0t
b00000000 ";
b00000000 "<
b00000000 "=
b00000000 ">
b00000000 "?
b00000000 "@
0?
b00000000 _
