test_run_dir/TPU_test_should_1/ChiselTPU.vcd
$date
2023-03-20T03:22+0000
$end
$version
0.2
$end
$comment

$end
$timescale 1ns  $end
$scope module ChiselTPU $end
 $var wire 1 ! printf_24 $end
 $var wire 1 " printf_25 $end
 $var wire 1 # printf_20 $end
 $var wire 1 $ printf_21 $end
 $var wire 1 % printf_22 $end
 $var wire 1 & printf_23 $end
 $var wire 1 ' printf_17 $end
 $var wire 1 ( printf_18 $end
 $var wire 1 ) printf_19 $end
 $var wire 1 * printf_13 $end
 $var wire 1 + printf_14 $end
 $var wire 1 , printf_15 $end
 $var wire 1 - printf_16 $end
 $var wire 1 . printf_10 $end
 $var wire 1 / printf_11 $end
 $var wire 1 0 printf_12 $end
 $var wire 32 1 myOut_1_1 $end
 $var wire 32 2 myOut_1_0 $end
 $var wire 1 7 io_b_ready $end
 $var wire 1 = io_a_valid $end
 $var wire 32 ? io_a_bits_0_0 $end
 $var wire 1 @ enabledSyst $end
 $var wire 1 E clock $end
 $var wire 32 F paddedA_1_0 $end
 $var wire 32 G paddedA_1_1 $end
 $var wire 1 H io_a_ready $end
 $var wire 3 K state $end
 $var wire 32 M io_b_bits_0_1 $end
 $var wire 32 O io_b_bits_0_0 $end
 $var wire 32 P paddedB_1_1 $end
 $var wire 32 Q paddedB_1_0 $end
 $var wire 1 T outReg $end
 $var wire 1 Y counterFlag $end
 $var wire 1 Z wrap_wrap $end
 $var wire 3 [ boundK $end
 $var wire 3 \ boundM $end
 $var wire 3 ] boundN $end
 $var wire 1 ^ b_ready $end
 $var wire 32 _ io_out_0_0 $end
 $var wire 1 ` reset $end
 $var wire 32 a io_out_0_1 $end
 $var wire 32 c slicedB_1_1 $end
 $var wire 32 d slicedB_1_0 $end
 $var wire 1 e a_ready $end
 $var wire 32 f slicedA_1_1 $end
 $var wire 32 g slicedA_1_0 $end
 $var wire 32 h slicedOut_0_0 $end
 $var wire 32 i slicedOut_0_1 $end
 $var wire 32 j myOut_0_1 $end
 $var wire 32 k myOut_0_0 $end
 $var wire 10 q totalCycle $end
 $var wire 1 u allowReadB $end
 $var wire 1 v sliceCycle $end
 $var wire 32 x io_a_bits_1_1 $end
 $var wire 32 y io_a_bits_1_0 $end
 $var wire 3 } cycle $end
 $var wire 1 "" wrap_wrap_1 $end
 $var wire 1 "# actReg $end
 $var wire 32 "$ paddedA_0_1 $end
 $var wire 32 "% paddedA_0_0 $end
 $var wire 1 "& systArr $end
 $var wire 32 "' slicedA_0_1 $end
 $var wire 32 "( slicedA_0_0 $end
 $var wire 32 ") paddedB_0_0 $end
 $var wire 32 "* paddedB_0_1 $end
 $var wire 1 "2 io_b_valid $end
 $var wire 1 "3 printf_9 $end
 $var wire 1 "4 printf_8 $end
 $var wire 1 "5 printf_7 $end
 $var wire 1 "6 printf_6 $end
 $var wire 1 "7 printf_1 $end
 $var wire 1 "8 printf_5 $end
 $var wire 1 "9 printf_4 $end
 $var wire 1 ": printf_3 $end
 $var wire 1 "; printf_2 $end
 $var wire 1 "< printf $end
 $var wire 32 "= io_a_bits_0_1 $end
 $var wire 32 "? io_out_1_0 $end
 $var wire 32 "@ io_out_1_1 $end
 $var wire 32 "A slicedOut_1_0 $end
 $var wire 32 "B slicedB_0_1 $end
 $var wire 32 "C slicedB_0_0 $end
 $var wire 32 "D io_b_bits_1_1 $end
 $var wire 32 "E io_b_bits_1_0 $end
 $var wire 32 "F slicedOut_1_1 $end
  $scope module outReg $end
   $var wire 32 3 slicedOut_1_0 $end
   $var wire 32 4 slicedOut_1_1 $end
   $var wire 32 8 io_slicedOut_0_1 $end
   $var wire 32 9 io_slicedOut_0_0 $end
   $var wire 8 : cycleIdx $end
   $var wire 1 < clock $end
   $var wire 1 > reset $end
   $var wire 32 L io_systArr_out_0 $end
   $var wire 32 N io_systArr_out_1 $end
   $var wire 8 X io_cycle $end
   $var wire 32 l slicedOut_0_1 $end
   $var wire 32 m slicedOut_0_0 $end
   $var wire 1 p io_clearsig $end
   $var wire 32 ~ io_slicedOut_1_1 $end
   $var wire 32 "! io_slicedOut_1_0 $end
  $upscope $end
  $scope module systArr $end
   $var wire 32 5 b_reg_1_0 $end
   $var wire 32 6 b_reg_1_1 $end
   $var wire 32 C cmp_input_1_1 $end
   $var wire 32 D cmp_input_1_0 $end
   $var wire 32 I io_b_in_1_0 $end
   $var wire 32 J io_b_in_1_1 $end
   $var wire 32 R cms_reg_1_1 $end
   $var wire 32 S cms_reg_1_0 $end
   $var wire 32 W a_reg_1_0 $end
   $var wire 1 b io_b_readingin $end
   $var wire 32 n io_a_in_0 $end
   $var wire 32 o io_a_in_1 $end
   $var wire 1 r clock $end
   $var wire 32 s b_reg_0_0 $end
   $var wire 32 t b_reg_0_1 $end
   $var wire 32 w cmp_input_0_0 $end
   $var wire 32 z io_out_1 $end
   $var wire 32 { io_out_0 $end
   $var wire 32 | cmp_input_0_1 $end
   $var wire 32 "+ cms_reg_0_0 $end
   $var wire 32 ", cms_reg_0_1 $end
   $var wire 32 "/ io_b_in_0_0 $end
   $var wire 32 "0 io_b_in_0_1 $end
   $var wire 32 "1 a_reg_0_0 $end
   $var wire 1 "> io_en $end
  $upscope $end
  $scope module actReg $end
   $var wire 3 ; io_index $end
   $var wire 32 A io_a_out_1 $end
   $var wire 32 B io_a_out_0 $end
   $var wire 32 U io_a_0_1 $end
   $var wire 32 V io_a_0_0 $end
   $var wire 32 "- io_a_1_1 $end
   $var wire 32 ". io_a_1_0 $end
  $upscope $end
$upscope $end
$enddefinitions $end
$dumpvars
b00000000000000000000000000000000 "/
00
b00000000000000000000000000000000 ".
b00000000000000000000000000000000 "-
b00000000000000000000000000000000 ",
b00000000000000000000000000000000 "1
b00000000000000000000000000000000 "0
07
b00000000000000000000000000000000 "'
b00000000000000000000000000000000 "%
b00000000000000000000000000000000 "$
b00000000000000000000000000000000 "+
0<
b00000000000000000000000000000000 "*
0=
b00000000000000000000000000000000 ")
0>
b00000000000000000000000000000000 "(
b00000000000000000000000000000000 "?
0@
b00000000000000000000000000000000 "=
b00000000000000000000000000000000 "C
b00000000000000000000000000000000 "B
0E
b00000000000000000000000000000000 6
b00000000000000000000000000000000 "A
b00000000000000000000000000000000 9
b00000000000000000000000000000000 "@
b00000000000000000000000000000000 8
0H
b00000000000000000000000000000000 3
b00000000000000000000000000000000 2
b00000000000000000000000000000000 5
b00000000000000000000000000000000 4
b00000000000000000000000000000000 1
0T
b00000000000000000000000000000000 "F
0Y
b00000000000000000000000000000000 "E
0Z
b00000000000000000000000000000000 "D
0^
0`
0b
0e
b00000000 X
0p
0r
0u
0v
b0000000000 q
0""
0"#
0"&
b00000000000000000000000000000000 "!
0"2
0"3
0"4
0"5
0"6
0"7
0"8
0"9
0":
0";
0"<
0">
b000 }
b00000000000000000000000000000000 ~
b000 [
b000 ]
b000 \
b00000000000000000000000000000000 k
b00000000000000000000000000000000 j
b00000000000000000000000000000000 m
b00000000000000000000000000000000 l
b00000000000000000000000000000000 g
b00000000000000000000000000000000 f
b00000000000000000000000000000000 i
b00000000000000000000000000000000 h
b00000000000000000000000000000000 c
b00000000000000000000000000000000 d
b000 K
b00000000000000000000000000000000 _
b00000000000000000000000000000000 a
b00000000000000000000000000000000 {
b00000000 :
b00000000000000000000000000000000 z
b00000000000000000000000000000000 |
b00000000000000000000000000000000 w
b00000000000000000000000000000000 y
b00000000000000000000000000000000 x
b00000000000000000000000000000000 s
b00000000000000000000000000000000 t
b000 ;
b00000000000000000000000000000000 o
b00000000000000000000000000000000 n
b00000000000000000000000000000000 J
b00000000000000000000000000000000 M
b00000000000000000000000000000000 L
b00000000000000000000000000000000 G
b00000000000000000000000000000000 F
b00000000000000000000000000000000 I
b00000000000000000000000000000000 C
b00000000000000000000000000000000 B
b00000000000000000000000000000000 D
b00000000000000000000000000000000 ?
b00000000000000000000000000000000 A
0!
0"
0#
0$
b00000000000000000000000000000000 W
0%
b00000000000000000000000000000000 V
0&
0'
0(
b00000000000000000000000000000000 S
0)
b00000000000000000000000000000000 R
0*
b00000000000000000000000000000000 U
0+
0,
b00000000000000000000000000000000 O
0-
b00000000000000000000000000000000 N
0.
b00000000000000000000000000000000 Q
0/
b00000000000000000000000000000000 P
$end
#0
1`
b011 ;
1>
#1
1r
1E
1e
17
1H
1<
1^
#6
0`
b00000000000000000000000000000011 "E
0E
b00000000000000000000000000000101 "-
b00000000000000000000000000000001 ".
b00000000000000000000000000000101 O
1"2
0r
b00000000000000000000000000000011 U
b00000000000000000000000000000010 V
b00000000000000000000000000000101 x
b00000000000000000000000000000001 y
b00000000000000000000000000000011 "=
0<
1=
0>
b00000000000000000000000000000010 ?
#11
b00000000000000000000000000000011 "$
b00000000000000000000000000000010 "%
1E
0e
b00000000000000000000000000000001 F
b00000000000000000000000000000101 G
0H
b00000000000000000000000000000011 I
b001 K
b00000000000000000000000000000000 "-
b00000000000000000000000000000000 ".
b00000000000000000000000000000101 "/
b0000000001 q
1r
b00000000000000000000000000000000 U
b00000000000000000000000000000000 V
1Y
1<
#16
0r
0E
0<
#21
1b
1E
b00000000000000000000000000000011 "'
b00000000000000000000000000000101 f
b00000000000000000000000000000010 "(
b00000000000000000000000000000001 g
b00000000000000000000000000000101 ")
b00000000000000000000000000000000 I
b00000000000000000000000000000101 "-
b00000000000000000000000000000001 ".
b00000000000000000000000000000000 "/
b00000000000000000000000000000011 Q
b0000000010 q
1r
b00000000000000000000000000000011 U
1u
b00000000000000000000000000000010 V
07
0Y
1<
0^
#26
0r
0E
0<
#31
1p
b0000000011 q
b00000000000000000000000000000101 "C
1r
b00000000000000000000000000000011 d
1E
b00000000000000000000000000000011 I
b010 K
1<
b00000000000000000000000000000101 "/
#36
0r
0E
0<
#41
0p
b0000000100 q
1r
1E
1Y
b011 K
1<
#46
0r
0E
0<
#51
1@
b0000000101 q
1r
1E
1<
1">
#56
0r
0E
0<
#61
b00000000000000000000000000000010 B
1E
b00000000000000000000000000000010 n
b0000000110 q
1r
b00000000000000000000000000000101 s
b00000000000000000000000000000011 5
b00000000000000000000000000001010 w
b00000001 X
b00000001 :
b010 ;
1<
b001 }
#66
0r
0E
0<
#71
b00000000000000000000000000000011 A
b00000000000000000000000000000001 B
0b
b00000000000000000000000000010011 D
1E
b00000000000000000000000000001010 "+
b00000000000000000000000000000001 n
b00000000000000000000000000000011 o
b00000000000000000000000000000010 "1
b0000000111 q
1r
0u
b00000000000000000000000000000101 w
b00000010 X
b00000010 :
b001 ;
1<
b010 }
#76
0r
0E
0<
#81
b00000000000000000000000000000101 A
b00000000000000000000000000000000 B
b00000000000000000000000000010100 D
1E
b00000000000000000000000000000101 "+
b00000000000000000000000000010011 L
b00000000000000000000000000000000 n
b00000000000000000000000000000101 o
b00000000000000000000000000000001 "1
b0000001000 q
1r
b00000000000000000000000000010011 S
b00000000000000000000000000000011 W
b00000000000000000000000000000000 w
b00000011 X
b00000000 :
b000 ;
b00000000000000000000000000010011 {
1<
b011 }
#86
0r
0E
0<
#91
b00000000000000000000000000000000 A
b00000000000000000000000000000000 D
1E
b00000000000000000000000000000000 "+
b00000000000000000000000000010100 L
b00000000000000000000000000000000 o
b00000000000000000000000000000000 "1
b0000001001 q
1r
b00000000000000000000000000010011 3
b00000000000000000000000000010100 S
b00000000000000000000000000000101 W
b00000100 X
b00000001 :
b111 ;
b00000000000000000000000000010100 {
1<
b100 }
b00000000000000000000000000010011 "!
b00000000000000000000000000010011 "A
#96
0r
0E
0<
#101
1E
b00000000000000000000000000010011 h
b00000000000000000000000000000000 L
b00000000000000000000000000010011 m
b0000001010 q
1r
b00000000000000000000000000010100 3
b00000000000000000000000000000000 S
b00000000000000000000000000000000 W
b00000101 X
b00000000000000000000000000010011 9
b00000010 :
b110 ;
b00000000000000000000000000000000 {
1<
b101 }
b00000000000000000000000000010100 "!
b00000000000000000000000000010100 "A
#106
0r
0E
0<
#111
b0000001011 q
1r
1E
b00000110 X
b00000011 :
1Z
b101 ;
1<
b110 }
#116
0r
0E
0<
#121
1E
b100 K
b00000000000000000000000000010011 k
b0000001100 q
b00000000000000000000000000010100 2
1r
b00000000 X
0Y
b00000000 :
0Z
b011 ;
1<
b000 }
b00000000000000000000000000010100 "?
b00000000000000000000000000010011 _
#126
0r
0E
0<
#131
1E
b001 K
b00000000000000000000000000000000 k
b0000001101 q
b00000000000000000000000000000000 2
1r
17
1Y
1<
b00000000000000000000000000000000 "?
1^
b00000000000000000000000000000000 _
#136
0"2
0r
b00000000000000000000000000000000 "E
0E
b00000000000000000000000000000000 x
b00000000000000000000000000000000 y
b00000000000000000000000000000000 "=
0<
0=
b00000000000000000000000000000000 ?
b00000000000000000000000000000000 O
