test_run_dir/TPU_test_should_stagger_b/ChiselTPU.vcd
$date
2023-03-20T03:09+0000
$end
$version
0.2
$end
$comment

$end
$timescale 1ns  $end
$scope module ChiselTPU $end
 $var wire 32 ! myOut_1_2 $end
 $var wire 32 " myOut_1_1 $end
 $var wire 32 # myOut_1_0 $end
 $var wire 32 ) io_a_bits_0_0 $end
 $var wire 32 , paddedA_1_0 $end
 $var wire 32 - paddedA_1_1 $end
 $var wire 32 . paddedA_1_2 $end
 $var wire 32 / paddedA_1_3 $end
 $var wire 1 0 io_a_ready $end
 $var wire 32 3 io_b_bits_0_2 $end
 $var wire 3 4 state $end
 $var wire 32 6 io_b_bits_0_1 $end
 $var wire 32 8 io_b_bits_0_0 $end
 $var wire 1 ; outReg $end
 $var wire 32 < paddedB_3_3 $end
 $var wire 32 = paddedB_3_1 $end
 $var wire 32 > paddedB_3_2 $end
 $var wire 32 ? paddedB_3_0 $end
 $var wire 1 @ b_ready $end
 $var wire 32 A io_out_0_0 $end
 $var wire 32 B io_out_0_1 $end
 $var wire 32 C io_out_0_2 $end
 $var wire 32 D slicedB_1_1 $end
 $var wire 32 E slicedB_1_0 $end
 $var wire 1 F a_ready $end
 $var wire 32 G slicedOut_0_0 $end
 $var wire 32 H slicedOut_0_1 $end
 $var wire 32 I myOut_0_2 $end
 $var wire 32 J myOut_0_1 $end
 $var wire 32 K myOut_0_0 $end
 $var wire 32 O myOut_2_1 $end
 $var wire 32 P myOut_2_0 $end
 $var wire 32 Q myOut_2_2 $end
 $var wire 1 T allowReadB $end
 $var wire 32 V io_a_bits_1_2 $end
 $var wire 32 W io_a_bits_1_1 $end
 $var wire 32 X io_a_bits_1_0 $end
 $var wire 1 ^ wrap_wrap_1 $end
 $var wire 32 _ paddedA_0_1 $end
 $var wire 32 ` paddedA_0_2 $end
 $var wire 32 a paddedA_0_3 $end
 $var wire 32 b paddedA_0_0 $end
 $var wire 1 c systArr $end
 $var wire 32 d slicedA_0_1 $end
 $var wire 32 e slicedA_0_0 $end
 $var wire 32 m paddedB_2_2 $end
 $var wire 32 n paddedB_2_3 $end
 $var wire 32 o paddedB_2_0 $end
 $var wire 32 p paddedB_2_1 $end
 $var wire 1 q printf_9 $end
 $var wire 1 r printf_8 $end
 $var wire 1 s printf_7 $end
 $var wire 1 t printf_6 $end
 $var wire 1 u printf_1 $end
 $var wire 1 v printf_5 $end
 $var wire 1 w printf_4 $end
 $var wire 1 x printf_3 $end
 $var wire 1 y printf_2 $end
 $var wire 1 z printf $end
 $var wire 32 { io_a_bits_0_2 $end
 $var wire 32 | io_a_bits_0_1 $end
 $var wire 32 } slicedOut_1_0 $end
 $var wire 32 ~ slicedOut_1_1 $end
 $var wire 1 "! printf_28 $end
 $var wire 1 "" printf_29 $end
 $var wire 1 "# printf_24 $end
 $var wire 1 "$ printf_25 $end
 $var wire 1 "% printf_26 $end
 $var wire 1 "& printf_27 $end
 $var wire 1 "' printf_20 $end
 $var wire 1 "( printf_21 $end
 $var wire 1 ") printf_22 $end
 $var wire 1 "* printf_23 $end
 $var wire 1 "+ printf_17 $end
 $var wire 1 ", printf_18 $end
 $var wire 1 "- printf_19 $end
 $var wire 1 ". printf_13 $end
 $var wire 1 "/ printf_14 $end
 $var wire 1 "0 printf_15 $end
 $var wire 1 "1 printf_16 $end
 $var wire 1 "2 printf_10 $end
 $var wire 1 "3 printf_11 $end
 $var wire 1 "4 printf_12 $end
 $var wire 1 "7 io_b_ready $end
 $var wire 1 "; io_a_valid $end
 $var wire 1 "< enabledSyst $end
 $var wire 32 "? io_a_bits_2_2 $end
 $var wire 32 "@ io_a_bits_2_1 $end
 $var wire 32 "A io_a_bits_2_0 $end
 $var wire 1 "B clock $end
 $var wire 1 "C printf_30 $end
 $var wire 32 "D paddedB_1_3 $end
 $var wire 32 "E paddedB_1_1 $end
 $var wire 32 "F paddedB_1_2 $end
 $var wire 32 "G paddedB_1_0 $end
 $var wire 32 "H paddedA_3_2 $end
 $var wire 32 "I paddedA_3_3 $end
 $var wire 32 "J paddedA_3_0 $end
 $var wire 32 "K paddedA_3_1 $end
 $var wire 32 "O io_out_2_0 $end
 $var wire 32 "P io_out_2_1 $end
 $var wire 32 "Q io_out_2_2 $end
 $var wire 1 "S counterFlag $end
 $var wire 1 "T wrap_wrap $end
 $var wire 4 "U boundK $end
 $var wire 5 "V boundM $end
 $var wire 5 "W boundN $end
 $var wire 1 "X reset $end
 $var wire 32 "Z io_b_bits_2_1 $end
 $var wire 32 "[ io_b_bits_2_0 $end
 $var wire 32 "\ io_b_bits_2_2 $end
 $var wire 32 "] slicedA_1_1 $end
 $var wire 32 "^ slicedA_1_0 $end
 $var wire 10 "a totalCycle $end
 $var wire 3 "c sliceCycle $end
 $var wire 4 "d cycle $end
 $var wire 1 "e actReg $end
 $var wire 32 "f paddedB_0_2 $end
 $var wire 32 "g paddedB_0_3 $end
 $var wire 32 "h paddedB_0_0 $end
 $var wire 32 "i paddedB_0_1 $end
 $var wire 32 "j paddedA_2_3 $end
 $var wire 32 "k paddedA_2_0 $end
 $var wire 32 "l paddedA_2_1 $end
 $var wire 32 "m paddedA_2_2 $end
 $var wire 1 "n io_b_valid $end
 $var wire 32 "p io_out_1_0 $end
 $var wire 32 "q io_out_1_1 $end
 $var wire 32 "r io_out_1_2 $end
 $var wire 32 "s slicedB_0_1 $end
 $var wire 32 "t slicedB_0_0 $end
 $var wire 32 "u io_b_bits_1_2 $end
 $var wire 32 "v io_b_bits_1_1 $end
 $var wire 32 "w io_b_bits_1_0 $end
  $scope module outReg $end
   $var wire 9 & cycleIdx $end
   $var wire 1 ' clock $end
   $var wire 1 ( reset $end
   $var wire 32 5 io_systArr_out_0 $end
   $var wire 32 7 io_systArr_out_1 $end
   $var wire 1 N io_clearsig $end
   $var wire 32 \ io_slicedOut_1_1 $end
   $var wire 32 ] io_slicedOut_1_0 $end
   $var wire 32 "5 slicedOut_1_0 $end
   $var wire 32 "6 slicedOut_1_1 $end
   $var wire 32 "8 io_slicedOut_0_1 $end
   $var wire 32 "9 io_slicedOut_0_0 $end
   $var wire 9 "R io_cycle $end
   $var wire 32 "_ slicedOut_0_1 $end
   $var wire 32 "` slicedOut_0_0 $end
  $upscope $end
  $scope module systArr $end
   $var wire 32 $ b_reg_1_0 $end
   $var wire 32 % b_reg_1_1 $end
   $var wire 32 * cmp_input_1_1 $end
   $var wire 32 + cmp_input_1_0 $end
   $var wire 32 1 io_b_in_1_0 $end
   $var wire 32 2 io_b_in_1_1 $end
   $var wire 32 9 cms_reg_1_1 $end
   $var wire 32 : cms_reg_1_0 $end
   $var wire 32 L io_a_in_0 $end
   $var wire 32 M io_a_in_1 $end
   $var wire 32 R b_reg_0_0 $end
   $var wire 32 S b_reg_0_1 $end
   $var wire 32 U cmp_input_0_0 $end
   $var wire 32 Y io_out_1 $end
   $var wire 32 Z io_out_0 $end
   $var wire 32 [ cmp_input_0_1 $end
   $var wire 32 f cms_reg_0_0 $end
   $var wire 32 g cms_reg_0_1 $end
   $var wire 32 j io_b_in_0_0 $end
   $var wire 32 k io_b_in_0_1 $end
   $var wire 32 l a_reg_0_0 $end
   $var wire 32 "N a_reg_1_0 $end
   $var wire 1 "Y io_b_readingin $end
   $var wire 1 "b clock $end
   $var wire 1 "o io_en $end
  $upscope $end
  $scope module actReg $end
   $var wire 32 h io_a_1_1 $end
   $var wire 32 i io_a_1_0 $end
   $var wire 3 ": io_index $end
   $var wire 32 "= io_a_out_1 $end
   $var wire 32 "> io_a_out_0 $end
   $var wire 32 "L io_a_0_1 $end
   $var wire 32 "M io_a_0_0 $end
  $upscope $end
$upscope $end
$enddefinitions $end
$dumpvars
00
b00000000000000000000000000000000 +
b0000 "d
b00000000000000000000000000000000 *
b00000000000000000000000000000000 -
b00000000000000000000000000000000 ,
b00000000000000000000000000000000 )
b00000000000000000000000000000000 #
b00000000000000000000000000000000 "
b00000000000000000000000000000000 %
0;
b00000000000000000000000000000000 $
b00000000000000000000000000000000 !
b00000000000000000000000000000000 "?
0@
b00000000000000000000000000000000 ">
b00000000000000000000000000000000 :
b00000000000000000000000000000000 "=
b00000000000000000000000000000000 =
b00000000000000000000000000000000 <
b00000000000000000000000000000000 7
b00000000000000000000000000000000 6
b00000000000000000000000000000000 "A
0F
b00000000000000000000000000000000 9
b00000000000000000000000000000000 "@
b000000000 &
b00000000000000000000000000000000 8
b00000000000000000000000000000000 3
b00000000000000000000000000000000 "6
b00000000000000000000000000000000 2
b00000000000000000000000000000000 "5
b00000000000000000000000000000000 5
b00000000000000000000000000000000 /
b00000000000000000000000000000000 .
b00000000000000000000000000000000 "9
0N
b00000000000000000000000000000000 1
b00000000000000000000000000000000 "8
b00000000000000000000000000000000 "O
b00000000000000000000000000000000 "N
b00000000000000000000000000000000 "M
b00000000000000000000000000000000 "L
0T
b00000000000000000000000000000000 "Q
b00000000000000000000000000000000 "P
b00000000000000000000000000000000 "G
b00000000000000000000000000000000 "F
b00000000000000000000000000000000 "E
b00000000000000000000000000000000 "D
b00000000000000000000000000000000 "K
b00000000000000000000000000000000 "J
b00000000000000000000000000000000 "I
0^
b00000000000000000000000000000000 "H
b00000000000000000000000000000000 "_
b00000000000000000000000000000000 "^
b00000000000000000000000000000000 "]
b00000000000000000000000000000000 "\
0c
b0000000000 "a
b00000000000000000000000000000000 "`
b000000000 "R
b00000000000000000000000000000000 "[
b00000000000000000000000000000000 "Z
0q
0r
0s
0t
0u
0v
0w
0x
0y
0z
0"!
0""
0"#
0"$
0"%
0"&
0"'
0"(
0")
0"*
0"+
0",
0"-
0".
0"/
0"0
0"1
0"2
0"3
0"4
0"7
0";
0"<
0"B
0"C
b000 "c
0"S
0"T
0"X
0"Y
b00000000000000000000000000000000 ~
0"b
0"e
0"n
0"o
b00000000000000000000000000000000 k
b00000000000000000000000000000000 j
b00000000000000000000000000000000 "m
b00000000000000000000000000000000 m
b00000000000000000000000000000000 "l
b00000000000000000000000000000000 l
b00000000000000000000000000000000 "s
b00000000000000000000000000000000 g
b00000000000000000000000000000000 "r
b00000000000000000000000000000000 f
b00000000000000000000000000000000 "q
b00000000000000000000000000000000 i
b00000000000000000000000000000000 "p
b00000000000000000000000000000000 h
b00000000000000000000000000000000 "g
b00000000000000000000000000000000 "f
b00000000000000000000000000000000 b
b00000000000000000000000000000000 e
b00000000000000000000000000000000 d
b00000000000000000000000000000000 "k
b00000000000000000000000000000000 _
b00000000000000000000000000000000 "j
b00000000000000000000000000000000 "i
b00000000000000000000000000000000 a
b00000000000000000000000000000000 "h
b00000000000000000000000000000000 `
b00000000000000000000000000000000 {
b00000000000000000000000000000000 }
b00000000000000000000000000000000 |
b000 4
b00000000000000000000000000000000 "w
b00000000000000000000000000000000 "v
b00000000000000000000000000000000 "u
b00000000000000000000000000000000 "t
b00000000000000000000000000000000 o
b00000000000000000000000000000000 n
b00000000000000000000000000000000 p
b00000000000000000000000000000000 K
b00000000000000000000000000000000 J
b00000000000000000000000000000000 M
b00000000000000000000000000000000 L
b00000000000000000000000000000000 G
b00000000000000000000000000000000 I
b00000000000000000000000000000000 H
b00000000000000000000000000000000 C
b00000000000000000000000000000000 B
b00000000000000000000000000000000 E
b00000000000000000000000000000000 D
b000 ":
b00000000000000000000000000000000 ?
b00000000000000000000000000000000 >
b00000000000000000000000000000000 A
b0000 "U
b00000000000000000000000000000000 [
b00000000000000000000000000000000 Z
b00000000000000000000000000000000 ]
b00000000000000000000000000000000 \
b00000000000000000000000000000000 W
b00000000000000000000000000000000 V
b00000000000000000000000000000000 Y
0'
b00000000000000000000000000000000 X
0(
b00000000000000000000000000000000 S
b00000000000000000000000000000000 R
b00000000000000000000000000000000 U
b00000000000000000000000000000000 O
b00000000000000000000000000000000 Q
b00000 "W
b00000000000000000000000000000000 P
b00000 "V
$end
#0
1"X
1(
b011 ":
#1
10
1@
1"B
1"b
1"7
1F
1'
#6
0"b
1"n
b00000000000000000000000000000011 "u
b00000000000000000000000000000001 "v
b00000000000000000000000000000100 "w
b00000000000000000000000000000100 V
b00000000000000000000000000000101 W
b00000000000000000000000000000001 X
1";
b00000000000000000000000000000001 "?
b00000000000000000000000000000100 "@
b00000000000000000000000000000011 "A
0"B
0'
0(
b00000000000000000000000000000101 h
b00000000000000000000000000000010 )
b00000000000000000000000000000001 i
b00000000000000000000000000000011 "L
b00000000000000000000000000000010 "M
b00000000000000000000000000000101 3
b00000000000000000000000000000101 6
0"X
b00000000000000000000000000000010 8
b00000000000000000000000000000011 "Z
b00000000000000000000000000000010 "[
b00000000000000000000000000000001 "\
b00000000000000000000000000000001 {
b00000000000000000000000000000011 |
#11
1"b
0F
b00000000000000000000000000000011 "k
b00000000000000000000000000000100 "l
b00000000000000000000000000000001 "m
b00000000000000000000000000000011 _
b00000000000000000000000000000001 `
1"B
b00000000000000000000000000000010 b
1'
b00000000000000000000000000000000 h
b00000000000000000000000000000000 i
b00000000000000000000000000000010 j
b00000000000000000000000000000000 "L
b00000000000000000000000000000101 k
b00000000000000000000000000000000 "M
b00000000000000000000000000000001 ,
b00000000000000000000000000000101 -
b00000000000000000000000000000100 .
00
b00000000000000000000000000000100 1
1"S
b00000000000000000000000000000001 2
b001 4
b0000000001 "a
#16
0"B
0"b
0'
#21
0@
1"b
b00000000000000000000000000000101 "f
b00000000000000000000000000000010 "h
b00000000000000000000000000000101 "i
1T
0"7
1"B
b00000000000000000000000000000001 "E
b00000000000000000000000000000011 d
b00000000000000000000000000000011 "F
b00000000000000000000000000000010 e
b00000000000000000000000000000100 "G
1'
b00000000000000000000000000000101 h
b00000000000000000000000000000001 i
b00000000000000000000000000000000 j
b00000000000000000000000000000011 "L
b00000000000000000000000000000000 k
b00000000000000000000000000000010 "M
b00000000000000000000000000000001 m
b00000000000000000000000000000010 o
b00000000000000000000000000000011 p
b00000000000000000000000000000000 1
0"S
b00000000000000000000000000000000 2
1"Y
b00000000000000000000000000000101 "]
b00000000000000000000000000000001 "^
b0000000010 "a
#26
0"B
0"b
0'
#31
1"B
1"b
b111 "c
b00000000000000000000000000000001 D
b00000000000000000000000000000100 E
1'
b00000000000000000000000000000010 j
b00000000000000000000000000000101 k
1N
b00000000000000000000000000000100 1
b00000000000000000000000000000101 "s
b00000000000000000000000000000001 2
b00000000000000000000000000000010 "t
b0010 "U
b010 4
b00010 "V
b00010 "W
b0000000011 "a
#36
0"B
0"b
0'
#41
1"b
b000 "c
b00000000000000000000000000000000 D
b00000000000000000000000000000000 E
0N
b00000000000000000000000000000000 "s
b00000000000000000000000000000001 "t
1"B
b00000000000000000000000000000000 d
b00000000000000000000000000000001 e
1'
b00000000000000000000000000000000 h
b00000000000000000000000000000000 i
b00000000000000000000000000000001 j
b00000000000000000000000000000000 "L
b00000000000000000000000000000000 k
b00000000000000000000000000000001 "M
b00000000000000000000000000000000 1
1"S
b00000000000000000000000000000000 2
b0000 "U
b011 4
b00000 "V
b00000 "W
b00000000000000000000000000000000 "]
b00000000000000000000000000000000 "^
b0000000100 "a
#46
0"B
0"b
0'
#51
1"B
1"b
b00000000000000000000000000000001 D
b00000000000000000000000000000011 d
b00000000000000000000000000000100 E
b00000000000000000000000000000010 e
1'
b00000000000000000000000000000101 h
b00000000000000000000000000000001 i
b00000000000000000000000000000010 j
b00000000000000000000000000000011 "L
b00000000000000000000000000000101 k
b00000000000000000000000000000010 "M
1"o
b00000000000000000000000000000100 1
b00000000000000000000000000000101 "s
b00000000000000000000000000000001 2
b00000000000000000000000000000010 "t
1"<
b00000000000000000000000000000101 "]
b00000000000000000000000000000001 "^
b0000000101 "a
#56
0"B
0"b
0'
#61
1"B
1"b
b0001 "d
b00000000000000000000000000000100 $
b00000000000000000000000000000001 %
b000000001 &
1'
b00000000000000000000000000000010 L
b000000001 "R
b00000000000000000000000000000010 R
b00000000000000000000000000000101 S
b00000000000000000000000000000100 U
b010 ":
b00000000000000000000000000000010 ">
b0000000110 "a
#66
0"B
0"b
0'
#71
1"B
1"b
b0010 "d
b000000010 &
b00000000000000000000000000000100 f
1'
b00000000000000000000000000010000 +
b00000000000000000000000000000001 L
b00000000000000000000000000000010 l
b00000000000000000000000000000011 M
b000000010 "R
0T
b00000000000000000000000000000010 U
0"Y
b001 ":
b00000000000000000000000000001010 [
b00000000000000000000000000000011 "=
b00000000000000000000000000000001 ">
b0000000111 "a
#76
0"B
0"b
0'
#81
1"B
1"b
b0011 "d
b000000000 &
b00000000000000000000000000000010 f
1'
b00000000000000000000000000001010 g
b00000000000000000000000000001101 *
b00000000000000000000000000010110 +
b00000000000000000000000000000000 L
b00000000000000000000000000000001 l
b00000000000000000000000000000011 "N
b00000000000000000000000000000101 M
b000000011 "R
b00000000000000000000000000010000 5
b00000000000000000000000000000000 U
b000 ":
b00000000000000000000000000010000 :
b00000000000000000000000000010000 Z
b00000000000000000000000000000101 [
b00000000000000000000000000000101 "=
b00000000000000000000000000000000 ">
b0000001000 "a
#86
0"B
0"b
0'
#91
1"b
b0100 "d
b00000000000000000000000000000000 M
b00000000000000000000000000010000 "5
b111 ":
b00000000000000000000000000001101 Y
b00000000000000000000000000010110 Z
b00000000000000000000000000000000 [
b00000000000000000000000000000000 "=
b00000000000000000000000000010000 ]
1"B
b000000001 &
b00000000000000000000000000000000 f
1'
b00000000000000000000000000000101 g
b00000000000000000000000000001010 *
b00000000000000000000000000000000 +
b00000000000000000000000000000000 l
b00000000000000000000000000000101 "N
b000000100 "R
b00000000000000000000000000010110 5
b00000000000000000000000000001101 7
b00000000000000000000000000001101 9
b00000000000000000000000000010110 :
b00000000000000000000000000010000 }
b0000001001 "a
#96
0"B
0"b
0'
#101
1"b
b0101 "d
b00000000000000000000000000010000 G
b00000000000000000000000000010110 "5
b00000000000000000000000000001101 "6
b00000000000000000000000000010000 "9
b110 ":
b00000000000000000000000000001010 Y
b00000000000000000000000000000000 Z
b00000000000000000000000000001101 \
b00000000000000000000000000010110 ]
1"B
b000000010 &
1'
b00000000000000000000000000000000 g
b00000000000000000000000000000000 *
b00000000000000000000000000000000 "N
b000000101 "R
b00000000000000000000000000000000 5
b00000000000000000000000000001010 7
b00000000000000000000000000001010 9
b00000000000000000000000000000000 :
b00000000000000000000000000010110 }
b00000000000000000000000000001101 ~
b00000000000000000000000000010000 "`
b0000001010 "a
#106
0"B
0"b
0'
#111
1"B
1"b
b0110 "d
b000000011 &
1'
b00000000000000000000000000001101 H
b000000110 "R
b00000000000000000000000000001010 "6
b00000000000000000000000000001101 "8
b00000000000000000000000000000000 7
b101 ":
b00000000000000000000000000000000 9
b00000000000000000000000000000000 Y
b00000000000000000000000000001010 \
b00000000000000000000000000001101 "_
b00000000000000000000000000001010 ~
b0000001011 "a
#116
0"B
0"b
0'
#121
1"B
b000000111 "R
1"b
b0111 "d
b000000100 &
1'
b100 ":
b0000001100 "a
#126
0"B
0"b
0'
#131
1"B
b000001000 "R
1"b
b1000 "d
b000000101 &
1'
b011 ":
b0000001101 "a
#136
0"B
0"b
0'
#141
1"B
1"b
b1001 "d
b000000110 &
1'
b00000000000000000000000000000010 L
b000001001 "R
1"T
b00000000000000000000000000000100 U
b010 ":
b00000000000000000000000000000010 ">
b0000001110 "a
#146
0"B
0"b
0'
#151
1"b
b00000000000000000000000000010000 A
b00000000000000000000000000001101 B
b0000 "d
b00000000000000000000000000001101 J
b00000000000000000000000000010000 K
b00000000000000000000000000000000 L
1N
b00000000000000000000000000010110 "p
b00000000000000000000000000001010 "q
b00000000000000000000000000000000 U
b011 ":
b00000000000000000000000000001010 [
b00000000000000000000000000000000 ">
1"B
b00000000000000000000000000001010 "
b00000000000000000000000000010110 #
b000000000 &
b00000000000000000000000000000100 f
1'
b00000000000000000000000000000100 +
b00000000000000000000000000000010 l
b000000000 "R
0"S
0"T
b010 4
b0000001111 "a
#156
0"B
0"b
0'
#161
1"b
b001 "c
b00000000000000000000000000000000 G
b00000000000000000000000000000000 H
0"o
0N
b00000000000000000000000000000000 "5
b00000000000000000000000000000000 "6
b00000000000000000000000000000000 "8
b00000000000000000000000000000000 "9
0"<
b00000000000000000000000000000000 [
b00000000000000000000000000000000 \
b00000000000000000000000000000000 ]
1"B
b00000000000000000000000000000000 f
1'
b00000000000000000000000000001010 g
b00000000000000000000000000001010 *
b00000000000000000000000000000000 +
b00000000000000000000000000000000 l
1"S
b0010 "U
b011 4
b00000000000000000000000000000100 :
b00000000000000000000000000000000 }
b00000000000000000000000000000000 "_
b00000000000000000000000000000000 ~
b00000000000000000000000000000000 "`
b0000010000 "a
#166
0"B
0"b
0'
#171
1"b
b00000000000000000000000000000000 D
b00000000000000000000000000000000 E
1"o
b00000000000000000000000000000011 "s
1T
1"<
1"B
b00000000000000000000000000000000 d
b00000000000000000000000000000001 e
1'
b00000000000000000000000000000000 g
b00000000000000000000000000000000 h
b00000000000000000000000000000100 i
b00000000000000000000000000000000 *
b00000000000000000000000000000000 "L
b00000000000000000000000000000011 k
b00000000000000000000000000000001 "M
b00000000000000000000000000000000 1
b00000000000000000000000000000000 2
1"Y
b00000000000000000000000000000000 :
b00000000000000000000000000000000 "]
b00000000000000000000000000000100 "^
b0000010001 "a
#176
0"B
0"b
0'
#181
1"B
1"b
b0001 "d
b00000000000000000000000000000000 $
b00000000000000000000000000000000 %
b000000001 &
1'
b00000000000000000000000000000001 L
b000000001 "R
b00000000000000000000000000000011 S
b00000000000000000000000000000010 U
b010 ":
b00000000000000000000000000000001 ">
b0000010010 "a
#186
0"B
0"b
0'
#191
1"B
1"b
b0010 "d
b000000010 &
b00000000000000000000000000000010 f
1'
b00000000000000000000000000000010 +
b00000000000000000000000000000100 L
b00000000000000000000000000000001 l
b000000010 "R
0T
b00000000000000000000000000001000 U
0"Y
b001 ":
b00000000000000000000000000000011 [
b00000000000000000000000000000100 ">
b0000010011 "a
#196
0"B
0"b
0'
#201
1"B
1"b
b0011 "d
b000000000 &
b00000000000000000000000000001000 f
1'
b00000000000000000000000000000011 g
b00000000000000000000000000000011 *
b00000000000000000000000000001000 +
b00000000000000000000000000000000 L
b00000000000000000000000000000100 l
b000000011 "R
b00000000000000000000000000000010 5
b00000000000000000000000000000000 U
b000 ":
b00000000000000000000000000000010 :
b00000000000000000000000000000010 Z
b00000000000000000000000000001100 [
b00000000000000000000000000000000 ">
b0000010100 "a
#206
0"B
0"b
0'
#211
1"B
1"b
b0100 "d
b000000001 &
b00000000000000000000000000000000 f
1'
b00000000000000000000000000001100 g
b00000000000000000000000000001100 *
b00000000000000000000000000000000 +
b00000000000000000000000000000000 l
b000000100 "R
b00000000000000000000000000000010 "5
b00000000000000000000000000001000 5
b00000000000000000000000000000011 7
b111 ":
b00000000000000000000000000000011 9
b00000000000000000000000000000011 Y
b00000000000000000000000000001000 :
b00000000000000000000000000001000 Z
b00000000000000000000000000000000 [
b00000000000000000000000000000010 ]
b00000000000000000000000000000010 }
b0000010101 "a
#216
0"B
0"b
0'
#221
1"b
b0101 "d
b00000000000000000000000000000010 G
b00000000000000000000000000001000 "5
b00000000000000000000000000000011 "6
b00000000000000000000000000000010 "9
b110 ":
b00000000000000000000000000001100 Y
b00000000000000000000000000000000 Z
b00000000000000000000000000000011 \
b00000000000000000000000000001000 ]
1"B
b000000010 &
1'
b00000000000000000000000000000000 g
b00000000000000000000000000000000 *
b000000101 "R
b00000000000000000000000000000000 5
b00000000000000000000000000001100 7
b00000000000000000000000000001100 9
b00000000000000000000000000000000 :
b00000000000000000000000000001000 }
b00000000000000000000000000000011 ~
b00000000000000000000000000000010 "`
b0000010110 "a
#226
0"B
0"b
0'
#231
1"B
1"b
b0110 "d
b000000011 &
1'
b00000000000000000000000000000011 H
b000000110 "R
b00000000000000000000000000001100 "6
b00000000000000000000000000000011 "8
b00000000000000000000000000000000 7
b101 ":
b00000000000000000000000000000000 9
b00000000000000000000000000000000 Y
b00000000000000000000000000001100 \
b00000000000000000000000000000011 "_
b00000000000000000000000000001100 ~
b0000010111 "a
#236
0"B
0"b
0'
#241
1"B
b000000111 "R
1"b
b0111 "d
b000000100 &
1'
b100 ":
b0000011000 "a
#246
0"B
0"b
0'
#251
1"B
b000001000 "R
1"b
b1000 "d
b000000101 &
1'
b011 ":
b0000011001 "a
#256
0"B
0"b
0'
#261
1"B
1"b
b1001 "d
b000000110 &
1'
b00000000000000000000000000000001 L
b000001001 "R
1"T
b00000000000000000000000000000010 U
b010 ":
b00000000000000000000000000000001 ">
b0000011010 "a
#266
0"B
0"b
0'
#271
1"b
b00000000000000000000000000010010 A
b00000000000000000000000000010000 B
b0000 "d
b00000000000000000000000000010000 J
b00000000000000000000000000010010 K
b00000000000000000000000000000000 L
1N
b00000000000000000000000000011110 "p
b00000000000000000000000000010110 "q
b00000000000000000000000000000000 U
b011 ":
b00000000000000000000000000000011 [
b00000000000000000000000000000000 ">
1"B
b00000000000000000000000000010110 "
b00000000000000000000000000011110 #
b000000000 &
b00000000000000000000000000000010 f
1'
b00000000000000000000000000000010 +
b00000000000000000000000000000001 l
b000000000 "R
0"S
0"T
b010 4
b0000011011 "a
#276
0"B
0"b
0'
#281
1"b
b010 "c
b00000000000000000000000000000000 G
b00000000000000000000000000000000 H
0"o
0N
b00000000000000000000000000000000 "5
b00000000000000000000000000000000 "6
b00000000000000000000000000000000 "8
b00000000000000000000000000000000 "9
0"<
b00000000000000000000000000000000 [
b00000000000000000000000000000000 \
b00000000000000000000000000000000 ]
1"B
b00000000000000000000000000000000 f
1'
b00000000000000000000000000000011 g
b00000000000000000000000000000011 *
b00000000000000000000000000000000 +
b00000000000000000000000000000000 l
1"S
b0000 "U
b011 4
b00010 "V
b00000000000000000000000000000010 :
b00000000000000000000000000000000 }
b00000000000000000000000000000000 "_
b00000000000000000000000000000000 ~
b00000000000000000000000000000000 "`
b0000011100 "a
#286
0"B
0"b
0'
#291
1"B
1"b
b00000000000000000000000000000001 D
b00000000000000000000000000000100 d
b00000000000000000000000000000100 E
b00000000000000000000000000000011 e
1'
b00000000000000000000000000000000 g
b00000000000000000000000000000000 i
b00000000000000000000000000000000 *
b00000000000000000000000000000100 "L
b00000000000000000000000000000101 k
b00000000000000000000000000000011 "M
1"o
b00000000000000000000000000000100 1
b00000000000000000000000000000101 "s
b00000000000000000000000000000001 2
1T
1"Y
b00000000000000000000000000000000 :
1"<
b00000000000000000000000000000000 "^
b0000011101 "a
#296
0"B
0"b
0'
#301
1"B
1"b
b0001 "d
b00000000000000000000000000000100 $
b00000000000000000000000000000001 %
b000000001 &
1'
b00000000000000000000000000000011 L
b000000001 "R
b00000000000000000000000000000101 S
b00000000000000000000000000000110 U
b010 ":
b00000000000000000000000000000011 ">
b0000011110 "a
#306
0"B
0"b
0'
#311
1"B
1"b
b0010 "d
b000000010 &
b00000000000000000000000000000110 f
1'
b00000000000000000000000000010110 +
b00000000000000000000000000000000 L
b00000000000000000000000000000011 l
b00000000000000000000000000000100 M
b000000010 "R
0T
b00000000000000000000000000000000 U
0"Y
b001 ":
b00000000000000000000000000001111 [
b00000000000000000000000000000100 "=
b00000000000000000000000000000000 ">
b0000011111 "a
#316
0"B
0"b
0'
#321
1"B
1"b
b0011 "d
b000000000 &
b00000000000000000000000000000000 f
1'
b00000000000000000000000000001111 g
b00000000000000000000000000010011 *
b00000000000000000000000000000000 +
b00000000000000000000000000000000 l
b00000000000000000000000000000100 "N
b00000000000000000000000000000000 M
b000000011 "R
b00000000000000000000000000010110 5
b000 ":
b00000000000000000000000000010110 :
b00000000000000000000000000010110 Z
b00000000000000000000000000000000 [
b00000000000000000000000000000000 "=
b0000100000 "a
#326
0"B
0"b
0'
#331
1"B
1"b
b0100 "d
b000000001 &
1'
b00000000000000000000000000000000 g
b00000000000000000000000000000000 *
b00000000000000000000000000000000 "N
b000000100 "R
b00000000000000000000000000010110 "5
b00000000000000000000000000000000 5
b00000000000000000000000000010011 7
b111 ":
b00000000000000000000000000010011 9
b00000000000000000000000000010011 Y
b00000000000000000000000000000000 :
b00000000000000000000000000000000 Z
b00000000000000000000000000010110 ]
b00000000000000000000000000010110 }
b0000100001 "a
#336
0"B
0"b
0'
#341
1"B
1"b
b0101 "d
b000000010 &
1'
b00000000000000000000000000010110 G
b000000101 "R
b00000000000000000000000000000000 "5
b00000000000000000000000000010011 "6
b00000000000000000000000000000000 7
b00000000000000000000000000010110 "9
b110 ":
b00000000000000000000000000000000 9
b00000000000000000000000000000000 Y
b00000000000000000000000000010011 \
b00000000000000000000000000000000 ]
b00000000000000000000000000000000 }
b00000000000000000000000000010011 ~
b00000000000000000000000000010110 "`
b0000100010 "a
#346
0"B
0"b
0'
#351
1"B
1"b
b0110 "d
b000000011 &
1'
b00000000000000000000000000010011 H
b000000110 "R
b00000000000000000000000000000000 "6
b00000000000000000000000000010011 "8
b101 ":
b00000000000000000000000000000000 \
b00000000000000000000000000010011 "_
b00000000000000000000000000000000 ~
b0000100011 "a
#356
0"B
0"b
0'
#361
1"B
b000000111 "R
1"b
b0111 "d
b000000100 &
1'
b100 ":
b0000100100 "a
#366
0"B
0"b
0'
#371
1"B
b000001000 "R
1"b
b1000 "d
b000000101 &
1'
b011 ":
b0000100101 "a
#376
0"B
0"b
0'
#381
1"B
1"b
b1001 "d
b000000110 &
1'
b00000000000000000000000000000011 L
b000001001 "R
1"T
b00000000000000000000000000000110 U
b010 ":
b00000000000000000000000000000011 ">
b0000100110 "a
#386
0"B
0"b
0'
