test_run_dir/TPU_test_should_stagger_b/ChiselTPU.vcd
$date
2023-03-14T07:24+0000
$end
$version
0.2
$end
$comment

$end
$timescale 1ns  $end
$scope module ChiselTPU $end
 $var wire 32 ! myOut_1_2 $end
 $var wire 32 " myOut_1_1 $end
 $var wire 32 # myOut_1_0 $end
 $var wire 32 ' io_a_bits_0_0 $end
 $var wire 32 ( paddedA_1_0 $end
 $var wire 32 ) paddedA_1_1 $end
 $var wire 32 * paddedA_1_2 $end
 $var wire 1 + io_a_ready $end
 $var wire 32 , io_b_bits_0_2 $end
 $var wire 3 - state $end
 $var wire 32 . io_b_bits_0_1 $end
 $var wire 32 / io_b_bits_0_0 $end
 $var wire 1 3 b_ready $end
 $var wire 1 4 a_ready $end
 $var wire 32 5 myOut_0_2 $end
 $var wire 32 6 myOut_0_1 $end
 $var wire 32 7 myOut_0_0 $end
 $var wire 32 8 myOut_2_1 $end
 $var wire 32 9 myOut_2_0 $end
 $var wire 32 : myOut_2_2 $end
 $var wire 1 > allowReadB $end
 $var wire 32 ? io_a_bits_1_2 $end
 $var wire 32 @ io_a_bits_1_1 $end
 $var wire 32 A io_a_bits_1_0 $end
 $var wire 1 B wrap_wrap_1 $end
 $var wire 32 C paddedA_0_1 $end
 $var wire 32 D paddedA_0_2 $end
 $var wire 32 E paddedA_0_0 $end
 $var wire 32 K paddedB_2_2 $end
 $var wire 32 L paddedB_2_0 $end
 $var wire 32 M paddedB_2_1 $end
 $var wire 1 N printf_9 $end
 $var wire 1 O printf_8 $end
 $var wire 1 P printf_7 $end
 $var wire 1 Q printf_6 $end
 $var wire 1 R printf_1 $end
 $var wire 1 S printf_5 $end
 $var wire 1 T printf_4 $end
 $var wire 1 U printf_3 $end
 $var wire 1 V printf_2 $end
 $var wire 1 W printf $end
 $var wire 32 X io_a_bits_0_2 $end
 $var wire 32 Y io_a_bits_0_1 $end
 $var wire 32 Z cycleIdx $end
 $var wire 1 [ printf_24 $end
 $var wire 1 \ printf_25 $end
 $var wire 1 ] printf_20 $end
 $var wire 1 ^ printf_21 $end
 $var wire 1 _ printf_22 $end
 $var wire 1 ` printf_23 $end
 $var wire 1 a printf_17 $end
 $var wire 1 b printf_18 $end
 $var wire 1 c printf_19 $end
 $var wire 1 d printf_13 $end
 $var wire 1 e printf_14 $end
 $var wire 1 f printf_15 $end
 $var wire 1 g printf_16 $end
 $var wire 1 h printf_10 $end
 $var wire 1 i printf_11 $end
 $var wire 1 j printf_12 $end
 $var wire 1 k io_b_ready $end
 $var wire 1 m io_a_valid $end
 $var wire 32 q io_a_bits_2_2 $end
 $var wire 32 r io_a_bits_2_1 $end
 $var wire 32 s io_a_bits_2_0 $end
 $var wire 32 t paddedB_1_1 $end
 $var wire 32 u paddedB_1_2 $end
 $var wire 32 v paddedB_1_0 $end
 $var wire 1 w wrap_wrap $end
 $var wire 32 y io_b_bits_2_1 $end
 $var wire 32 z io_b_bits_2_0 $end
 $var wire 32 { io_b_bits_2_2 $end
 $var wire 32 | slicedA_1_2 $end
 $var wire 32 } slicedA_1_1 $end
 $var wire 32 ~ slicedA_1_0 $end
 $var wire 10 "! totalCycle $end
 $var wire 1 "" actReg $end
 $var wire 32 "# paddedB_0_2 $end
 $var wire 32 "$ paddedB_0_0 $end
 $var wire 32 "% paddedB_0_1 $end
 $var wire 32 "* slicedA_2_2 $end
 $var wire 32 "+ slicedA_2_1 $end
 $var wire 32 ", slicedA_2_0 $end
 $var wire 32 "- io_b_bits_1_2 $end
 $var wire 32 ". io_b_bits_1_1 $end
 $var wire 32 "/ io_b_bits_1_0 $end
 $var wire 32 "0 slicedOut_0_2 $end
 $var wire 32 "7 io_out_0_0 $end
 $var wire 32 "8 io_out_0_1 $end
 $var wire 32 "9 io_out_0_2 $end
 $var wire 32 ": slicedB_1_2 $end
 $var wire 32 "; slicedB_1_1 $end
 $var wire 32 "< slicedB_1_0 $end
 $var wire 32 "= paddedOut_2_2 $end
 $var wire 32 "> paddedOut_2_1 $end
 $var wire 32 "? paddedOut_2_0 $end
 $var wire 32 "@ slicedOut_0_0 $end
 $var wire 32 "A slicedOut_0_1 $end
 $var wire 1 "K systArr $end
 $var wire 32 "O slicedA_0_2 $end
 $var wire 32 "P slicedA_0_1 $end
 $var wire 32 "Q slicedA_0_0 $end
 $var wire 32 "X slicedB_2_1 $end
 $var wire 32 "Y slicedB_2_0 $end
 $var wire 32 "Z slicedB_2_2 $end
 $var wire 32 "[ paddedOut_1_2 $end
 $var wire 32 "\ paddedOut_1_1 $end
 $var wire 32 "] paddedOut_1_0 $end
 $var wire 32 "^ slicedOut_1_0 $end
 $var wire 32 "_ slicedOut_1_1 $end
 $var wire 32 "` slicedOut_1_2 $end
 $var wire 1 "a enabledSyst $end
 $var wire 1 "b clock $end
 $var wire 32 "h io_out_2_0 $end
 $var wire 32 "i io_out_2_1 $end
 $var wire 32 "j io_out_2_2 $end
 $var wire 1 "k counterFlag $end
 $var wire 3 "l boundK $end
 $var wire 3 "m boundM $end
 $var wire 3 "n boundN $end
 $var wire 32 "o paddedOut_0_2 $end
 $var wire 32 "p paddedOut_0_1 $end
 $var wire 32 "q paddedOut_0_0 $end
 $var wire 1 "r reset $end
 $var wire 32 "s slicedOut_2_0 $end
 $var wire 32 "t slicedOut_2_1 $end
 $var wire 32 "u slicedOut_2_2 $end
 $var wire 1 "z sliceCycle $end
 $var wire 4 "{ cycle $end
 $var wire 32 #$ paddedA_2_0 $end
 $var wire 32 #% paddedA_2_1 $end
 $var wire 32 #& paddedA_2_2 $end
 $var wire 1 #' io_b_valid $end
 $var wire 32 #* io_out_1_0 $end
 $var wire 32 #+ io_out_1_1 $end
 $var wire 32 #, io_out_1_2 $end
 $var wire 32 #- slicedB_0_2 $end
 $var wire 32 #. slicedB_0_1 $end
 $var wire 32 #/ slicedB_0_0 $end
  $scope module systArr $end
   $var wire 32 $ b_reg_1_0 $end
   $var wire 32 % b_reg_1_1 $end
   $var wire 32 & b_reg_1_2 $end
   $var wire 32 0 cms_reg_1_1 $end
   $var wire 32 1 cms_reg_1_2 $end
   $var wire 32 2 cms_reg_1_0 $end
   $var wire 32 ; b_reg_0_0 $end
   $var wire 32 < b_reg_0_1 $end
   $var wire 32 = b_reg_0_2 $end
   $var wire 32 F cms_reg_0_2 $end
   $var wire 32 G cms_reg_0_0 $end
   $var wire 32 H cms_reg_0_1 $end
   $var wire 32 I a_reg_0_1 $end
   $var wire 32 J a_reg_0_0 $end
   $var wire 1 x io_b_readingin $end
   $var wire 32 "& io_b_in_2_0 $end
   $var wire 32 "' io_b_in_2_1 $end
   $var wire 32 "( io_b_in_2_2 $end
   $var wire 1 ") io_en $end
   $var wire 32 "1 cmp_input_1_2 $end
   $var wire 32 "2 cmp_input_1_1 $end
   $var wire 32 "3 cmp_input_1_0 $end
   $var wire 32 "4 io_b_in_1_0 $end
   $var wire 32 "5 io_b_in_1_1 $end
   $var wire 32 "6 io_b_in_1_2 $end
   $var wire 32 "B io_a_in_0 $end
   $var wire 32 "C io_a_in_2 $end
   $var wire 32 "D io_a_in_1 $end
   $var wire 32 "E cmp_input_0_0 $end
   $var wire 32 "F io_out_2 $end
   $var wire 32 "G io_out_1 $end
   $var wire 32 "H io_out_0 $end
   $var wire 32 "I cmp_input_0_2 $end
   $var wire 32 "J cmp_input_0_1 $end
   $var wire 32 "U io_b_in_0_0 $end
   $var wire 32 "V io_b_in_0_1 $end
   $var wire 32 "W io_b_in_0_2 $end
   $var wire 32 "f a_reg_1_1 $end
   $var wire 32 "g a_reg_1_0 $end
   $var wire 32 "v b_reg_2_0 $end
   $var wire 32 "w b_reg_2_1 $end
   $var wire 32 "x b_reg_2_2 $end
   $var wire 1 "y clock $end
   $var wire 32 "| cms_reg_2_2 $end
   $var wire 32 "} cms_reg_2_0 $end
   $var wire 32 "~ cms_reg_2_1 $end
   $var wire 32 #! cmp_input_2_2 $end
   $var wire 32 #" cmp_input_2_1 $end
   $var wire 32 ## cmp_input_2_0 $end
   $var wire 32 #( a_reg_2_1 $end
   $var wire 32 #) a_reg_2_0 $end
  $upscope $end
  $scope module actReg $end
   $var wire 4 l io_index $end
   $var wire 32 n io_a_out_2 $end
   $var wire 32 o io_a_out_1 $end
   $var wire 32 p io_a_out_0 $end
   $var wire 32 "L io_a_2_2 $end
   $var wire 32 "M io_a_2_1 $end
   $var wire 32 "N io_a_2_0 $end
   $var wire 32 "R io_a_1_2 $end
   $var wire 32 "S io_a_1_1 $end
   $var wire 32 "T io_a_1_0 $end
   $var wire 32 "c io_a_0_2 $end
   $var wire 32 "d io_a_0_1 $end
   $var wire 32 "e io_a_0_0 $end
  $upscope $end
$upscope $end
$enddefinitions $end
$dumpvars
b00000000000000000000000000000000 *
03
b00000000000000000000000000000000 ,
04
b00000000000000000000000000000000 '
b00000000000000000000000000000000 &
b00000000000000000000000000000000 )
b00000000000000000000000000000000 (
b00000000000000000000000000000000 #
b00000000000000000000000000000000 "
b00000000000000000000000000000000 %
b00000000000000000000000000000000 $
0>
b00000000000000000000000000000000 !
b00000000000000000000000000000000 ;
b00000000000000000000000000000000 :
0B
b00000000000000000000000000000000 =
b00000000000000000000000000000000 <
b00000000000000000000000000000000 7
b00000000000000000000000000000000 6
b0000 "{
b00000000000000000000000000000000 9
b00000000000000000000000000000000 8
b00000000000000000000000000000000 2
b00000000000000000000000000000000 5
b00000000000000000000000000000000 /
b00000000000000000000000000000000 .
0N
b00000000000000000000000000000000 1
0O
b00000000000000000000000000000000 0
0P
0Q
0R
0S
0T
0U
0V
0W
0[
0\
0]
0^
0_
0`
0a
0b
0c
0d
0e
0f
0g
0h
0i
0j
0k
0m
0w
0x
0""
0")
0#'
0"K
0"a
0"b
0"k
b00000000000000000000000000000000 "o
0"r
b00000000000000000000000000000000 "s
b00000000000000000000000000000000 "q
b00000000000000000000000000000000 "p
0"y
b00000000000000000000000000000000 "g
0"z
b00000000000000000000000000000000 "f
b00000000000000000000000000000000 "e
b00000000000000000000000000000000 "d
b00000000000000000000000000000000 "j
b00000000000000000000000000000000 "i
b00000000000000000000000000000000 "h
b00000000000000000000000000000000 "~
b00000000000000000000000000000000 "}
b00000000000000000000000000000000 "|
b00000000000000000000000000000000 "w
b00000000000000000000000000000000 "v
b00000000000000000000000000000000 "u
b00000000000000000000000000000000 "t
b00000000000000000000000000000000 "x
b000 -
b00000000000000000000000000000000 "/
b00000000000000000000000000000000 ".
b00000000000000000000000000000000 "-
b00000000000000000000000000000000 ",
b00000000000000000000000000000000 "3
b00000000000000000000000000000000 "2
b00000000000000000000000000000000 "1
b00000000000000000000000000000000 "0
b00000000000000000000000000000000 "'
b00000000000000000000000000000000 "&
b00000000000000000000000000000000 "%
b00000000000000000000000000000000 "$
b00000000000000000000000000000000 "+
b00000000000000000000000000000000 "*
b00000000000000000000000000000000 "(
b00000000000000000000000000000000 "?
b00000000000000000000000000000000 ">
b00000000000000000000000000000000 "=
b00000000000000000000000000000000 "<
b00000000000000000000000000000000 "C
b00000000000000000000000000000000 #$
b00000000000000000000000000000000 "B
b00000000000000000000000000000000 ##
b00000000000000000000000000000000 "A
b00000000000000000000000000000000 #"
b00000000000000000000000000000000 "@
b00000000000000000000000000000000 #!
b00000000000000000000000000000000 "7
b00000000000000000000000000000000 "6
b00000000000000000000000000000000 "5
b00000000000000000000000000000000 "4
b00000000000000000000000000000000 ";
b00000000000000000000000000000000 ":
b00000000000000000000000000000000 "9
b00000000000000000000000000000000 "8
b00000000000000000000000000000000 "O
b00000000000000000000000000000000 "N
b00000000000000000000000000000000 #/
b00000000000000000000000000000000 "M
b00000000000000000000000000000000 #.
b00000000000000000000000000000000 "L
b00000000000000000000000000000000 #-
b00000000000000000000000000000000 "S
b00000000000000000000000000000000 "R
b00000000000000000000000000000000 "Q
b00000000000000000000000000000000 "P
b00000000000000000000000000000000 "G
b00000000000000000000000000000000 #(
b00000000000000000000000000000000 "F
b00000000000000000000000000000000 "E
b00000000000000000000000000000000 #&
b00000000000000000000000000000000 "D
b00000000000000000000000000000000 #%
b00000000000000000000000000000000 #,
b00000000000000000000000000000000 "J
b00000000000000000000000000000000 #+
b00000000000000000000000000000000 "I
b00000000000000000000000000000000 #*
b00000000000000000000000000000000 "H
b00000000000000000000000000000000 #)
b00000000000000000000000000000000 "_
b00000000000000000000000000000000 "^
b00000000000000000000000000000000 "]
b00000000000000000000000000000000 "\
b00000000000000000000000000000000 "c
b00000000000000000000000000000000 "`
b00000000000000000000000000000000 "W
b00000000000000000000000000000000 "V
b00000000000000000000000000000000 "U
b00000000000000000000000000000000 "T
b00000000000000000000000000000000 "[
b00000000000000000000000000000000 "Z
b00000000000000000000000000000000 "Y
b00000000000000000000000000000000 "X
b00000000000000000000000000000000 "#
b0000000000 "!
b000 "n
b000 "l
b000 "m
b00000000000000000000000000000000 ~
b00000000000000000000000000000000 {
b00000000000000000000000000000000 z
b00000000000000000000000000000000 }
b00000000000000000000000000000000 |
b00000000000000000000000000000000 v
b00000000000000000000000000000000 y
b00000000000000000000000000000000 s
b00000000000000000000000000000000 r
b00000000000000000000000000000000 u
b00000000000000000000000000000000 t
b00000000000000000000000000000000 o
b00000000000000000000000000000000 n
b00000000000000000000000000000000 q
b00000000000000000000000000000000 p
b00000000000000000000000000000000 K
b00000000000000000000000000000000 J
b00000000000000000000000000000000 M
b00000000000000000000000000000000 L
b00000000000000000000000000000000 G
b00000000000000000000000000000000 F
b00000000000000000000000000000000 I
b00000000000000000000000000000000 H
b0000 l
b00000000000000000000000000000000 C
b00000000000000000000000000000000 E
b00000000000000000000000000000000 D
b00000000000000000000000000000000 ?
b00000000000000000000000000000000 A
b00000000000000000000000000000000 @
b00000000000000000000000000000000 Z
b00000000000000000000000000000000 Y
b00000000000000000000000000000000 X
0+
$end
#0
1"r
b0101 l
#1
1"b
13
14
1"y
1+
1k
#6
b00000000000000000000000000000101 @
0"b
b00000000000000000000000000000001 A
b00000000000000000000000000000001 "c
b00000000000000000000000000000011 "d
b00000000000000000000000000000010 "e
b00000000000000000000000000000011 "-
b00000000000000000000000000000001 ".
b00000000000000000000000000000100 "/
0"r
0"y
b00000000000000000000000000000001 X
b00000000000000000000000000000011 Y
1#'
b00000000000000000000000000000010 '
b00000000000000000000000000000001 "L
b00000000000000000000000000000100 "M
b00000000000000000000000000000101 ,
b00000000000000000000000000000011 "N
1m
b00000000000000000000000000000101 .
b00000000000000000000000000000010 /
b00000000000000000000000000000100 "R
b00000000000000000000000000000001 q
b00000000000000000000000000000101 "S
b00000000000000000000000000000100 r
b00000000000000000000000000000001 "T
b00000000000000000000000000000011 s
b00000000000000000000000000000011 y
b00000000000000000000000000000010 z
b00000000000000000000000000000001 {
b00000000000000000000000000000100 ?
#11
1"b
b00000000000000000000000000000000 "c
b00000000000000000000000000000000 "d
b00000000000000000000000000000011 C
b00000000000000000000000000000000 "e
b00000000000000000000000000000001 D
b00000000000000000000000000000010 "&
b00000000000000000000000000000010 E
b00000000000000000000000000000011 "'
b00000000000000000000000000000001 "(
1"k
b00000000000000000000000000000100 "4
b00000000000000000000000000000001 "5
b00000000000000000000000000000011 "6
1"y
b00000000000000000000000000000011 #$
b00000000000000000000000000000100 #%
b00000000000000000000000000000001 #&
b00000000000000000000000000000001 (
b00000000000000000000000000000101 )
b00000000000000000000000000000100 *
b00000000000000000000000000000000 "L
0+
b00000000000000000000000000000000 "M
b00000000000000000000000000000000 "N
b001 -
b00000000000000000000000000000000 "R
b00000000000000000000000000000000 "S
b00000000000000000000000000000000 "T
b00000000000000000000000000000010 "U
04
b00000000000000000000000000000101 "V
b00000000000000000000000000000101 "W
b0000000001 "!
#16
0"b
0"y
#21
1"b
b00000000000000000000000000000101 "#
b00000000000000000000000000000001 "c
b00000000000000000000000000000010 "$
b00000000000000000000000000000011 "d
b00000000000000000000000000000101 "%
b00000000000000000000000000000010 "e
b00000000000000000000000000000000 "&
b00000000000000000000000000000000 "'
b00000000000000000000000000000000 "(
b00000000000000000000000000000001 "*
b00000000000000000000000000000100 "+
0"k
b00000000000000000000000000000011 ",
b00000000000000000000000000000001 K
b00000000000000000000000000000010 L
b00000000000000000000000000000011 M
b00000000000000000000000000000000 "4
b00000000000000000000000000000000 "5
b00000000000000000000000000000000 "6
1"y
b00000000000000000000000000000001 "L
0k
b00000000000000000000000000000100 "M
b00000000000000000000000000000011 "N
b00000000000000000000000000000001 "O
b00000000000000000000000000000011 "P
b00000000000000000000000000000010 "Q
b00000000000000000000000000000100 "R
b00000000000000000000000000000101 "S
b00000000000000000000000000000001 "T
03
b00000000000000000000000000000000 "U
b00000000000000000000000000000001 t
b00000000000000000000000000000000 "V
b00000000000000000000000000000011 u
b00000000000000000000000000000000 "W
b00000000000000000000000000000100 v
1x
b00000000000000000000000000000100 |
b00000000000000000000000000000101 }
1>
b00000000000000000000000000000001 ~
b0000000010 "!
#26
0"b
0"y
#31
1"b
b00000000000000000000000000000010 "&
b00000000000000000000000000000011 "'
b00000000000000000000000000000001 "(
b00000000000000000000000000000101 #-
b00000000000000000000000000000101 #.
b00000000000000000000000000000010 #/
b010 -
b00000000000000000000000000000100 "4
b00000000000000000000000000000001 "5
b00000000000000000000000000000010 "U
b00000000000000000000000000000011 "6
b00000000000000000000000000000101 "V
b00000000000000000000000000000101 "W
b00000000000000000000000000000011 "X
b00000000000000000000000000000010 "Y
1"y
b00000000000000000000000000000011 ":
b00000000000000000000000000000001 "Z
b00000000000000000000000000000001 ";
b00000000000000000000000000000100 "<
b0000000011 "!
#36
0"b
0"y
#41
1"b
1"y
1"k
b011 -
b0000000100 "!
#46
0"b
0"y
#51
1"b
1")
1"y
b0000000101 "!
1"a
#56
0"b
0"y
#61
b00000000000000000000000000000010 "B
1"b
b00000000000000000000000000000100 "E
b00000000000000000000000000000100 $
b00000000000000000000000000000001 %
b00000000000000000000000000000011 &
b0100 l
b00000000000000000000000000000010 p
b00000000000000000000000000000010 "v
b00000000000000000000000000000011 "w
b00000000000000000000000000000001 "x
1"y
b0001 "{
b00000000000000000000000000000001 Z
b00000000000000000000000000000010 ;
b00000000000000000000000000000101 <
b00000000000000000000000000000101 =
b0000000110 "!
#66
0"b
0"y
#71
b00000000000000000000000000000001 "B
1"b
b00000000000000000000000000000011 "D
b00000000000000000000000000000010 "E
b00000000000000000000000000000100 G
b00000000000000000000000000001010 "J
b00000000000000000000000000000010 J
b0011 l
b00000000000000000000000000000011 o
b00000000000000000000000000000001 p
b00000000000000000000000000010000 "3
1"y
0x
b0010 "{
b00000000000000000000000000000010 Z
0>
b0000000111 "!
#76
0"b
0"y
#81
1"b
b00000000000000000000000000000011 "g
b00000000000000000000000000000010 G
b00000000000000000000000000001010 H
b00000000000000000000000000000010 I
b00000000000000000000000000000001 J
b00000000000000000000000000001101 "2
b00000000000000000000000000010110 "3
1"y
b0011 "{
b00000000000000000000000000000011 Z
b00000000000000000000000000010010 ##
b00000000000000000000000000000011 "B
b00000000000000000000000000000001 "C
b00000000000000000000000000000101 "D
b00000000000000000000000000000110 "E
b00000000000000000000000000001010 "I
b00000000000000000000000000000101 "J
b0010 l
b00000000000000000000000000000001 n
b00000000000000000000000000000101 o
b00000000000000000000000000000011 p
b00000000000000000000000000010000 2
b0000001000 "!
#86
0"b
0"y
#91
1"b
b00000000000000000000000000000011 "f
b00000000000000000000000000000101 "g
b00000000000000000000000000001010 F
b00000000000000000000000000000110 G
b00000000000000000000000000000101 H
b00000000000000000000000000000001 I
b00000000000000000000000000000011 J
b00000000000000000000000000010011 "1
b00000000000000000000000000001010 "2
1"y
b0100 "{
b00000000000000000000000000000000 Z
b00000000000000000000000000010010 "}
b00000000000000000000000000010000 #"
b00000000000000000000000000011110 ##
b00000000000000000000000000000000 "B
b00000000000000000000000000000100 "C
b00000000000000000000000000000100 "D
b00000000000000000000000000000000 "E
b00000000000000000000000000010010 "H
b00000000000000000000000000000001 #)
b00000000000000000000000000000101 "I
b00000000000000000000000000001111 "J
b0001 l
b00000000000000000000000000000100 n
b00000000000000000000000000000100 o
b00000000000000000000000000001101 0
b00000000000000000000000000000000 p
b00000000000000000000000000010110 2
b0000001001 "!
#96
0"b
0"y
#101
1"b
b00000000000000000000000000000101 "f
b00000000000000000000000000000100 "g
b00000000000000000000000000000101 F
b00000000000000000000000000000000 G
b00000000000000000000000000001111 H
b00000000000000000000000000000011 I
b00000000000000000000000000000000 J
b00000000000000000000000000010100 "1
b00000000000000000000000000010011 "2
b00000000000000000000000000000000 "3
b00000000000000000000000000010010 "s
1"y
b0101 "{
b00000000000000000000000000000001 Z
b00000000000000000000000000011110 "}
b00000000000000000000000000010000 "~
b00000000000000000000000000010100 #!
b00000000000000000000000000010110 #"
b00000000000000000000000000011000 ##
b00000000000000000000000000000001 "C
b00000000000000000000000000000000 "D
b00000000000000000000000000010000 "G
b00000000000000000000000000000001 #(
b00000000000000000000000000011110 "H
b00000000000000000000000000000100 #)
b00000000000000000000000000001111 "I
b00000000000000000000000000000000 "J
b0000 l
b00000000000000000000000000000001 n
b00000000000000000000000000000000 o
b00000000000000000000000000001010 0
b00000000000000000000000000010011 1
b0000001010 "!
#106
0"b
0"y
#111
1"b
b00000000000000000000000000000100 "f
b00000000000000000000000000000000 "g
b00000000000000000000000000001111 F
b00000000000000000000000000000000 H
b00000000000000000000000000000000 I
b00000000000000000000000000011011 "1
b00000000000000000000000000000000 "2
b00000000000000000000000000011110 "s
b00000000000000000000000000010000 "t
1"y
b0110 "{
b00000000000000000000000000000010 Z
b00000000000000000000000000010100 "|
b00000000000000000000000000011000 "}
b00000000000000000000000000010110 "~
b00000000000000000000000000011000 #!
b00000000000000000000000000000000 ##
b00000000000000000000000000000000 "C
b00000000000000000000000000010100 "F
b00000000000000000000000000010110 "G
b00000000000000000000000000000100 #(
b00000000000000000000000000011000 "H
b00000000000000000000000000000001 #)
b00000000000000000000000000000000 "I
b1111 l
b00000000000000000000000000000000 n
b00000000000000000000000000010011 0
b00000000000000000000000000010100 1
b00000000000000000000000000000000 2
b00000000000000000000000000010010 "^
b0000001011 "!
#116
0"b
0"y
#121
1"b
b00000000000000000000000000000000 "f
b00000000000000000000000000000000 F
b00000000000000000000000000000000 "1
b00000000000000000000000000011000 "s
b00000000000000000000000000010110 "t
b00000000000000000000000000010100 "u
1"y
b0111 "{
b00000000000000000000000000000011 Z
b00000000000000000000000000011000 "|
b00000000000000000000000000000000 "}
b00000000000000000000000000010010 "@
b00000000000000000000000000011100 #!
b00000000000000000000000000000000 #"
b00000000000000000000000000011000 "F
b00000000000000000000000000000001 #(
b00000000000000000000000000000000 "H
b00000000000000000000000000000000 #)
b1110 l
b00000000000000000000000000000000 0
b00000000000000000000000000011011 1
b00000000000000000000000000011110 "^
b00000000000000000000000000010000 "_
b0000001100 "!
#126
0"b
0"y
#131
1"b
b00000000000000000000000000011100 "F
b00000000000000000000000000000000 "G
b00000000000000000000000000000000 #(
b1101 l
b00000000000000000000000000000000 1
b00000000000000000000000000011000 "u
1"y
b1000 "{
b00000000000000000000000000000100 Z
b00000000000000000000000000011100 "|
b00000000000000000000000000000000 "~
b00000000000000000000000000010110 "_
b00000000000000000000000000000000 #!
b00000000000000000000000000010100 "`
b0000001101 "!
b00000000000000000000000000010000 "A
#136
0"b
0"y
#141
1"b
b00000000000000000000000000000000 "F
b1100 l
b00000000000000000000000000010100 "0
b00000000000000000000000000011100 "u
1w
1"y
b1001 "{
b00000000000000000000000000000101 Z
b00000000000000000000000000000000 "|
b00000000000000000000000000011000 "`
b0000001110 "!
#146
0"b
0"y
#151
1"b
b00000000000000000000000000011000 "h
b00000000000000000000000000010110 "i
b00000000000000000000000000011100 "j
0"k
b00000000000000000000000000010100 "o
b00000000000000000000000000010000 "p
b00000000000000000000000000010010 "q
b00000000000000000000000000010010 "7
b00000000000000000000000000010000 "8
b00000000000000000000000000010100 "9
1"y
b0000 "{
b00000000000000000000000000000000 Z
b00000000000000000000000000011100 "=
b00000000000000000000000000010110 ">
b00000000000000000000000000011000 "?
b00000000000000000000000000011000 !
b00000000000000000000000000010110 "
b00000000000000000000000000011110 #
b00000000000000000000000000011110 #*
b00000000000000000000000000010110 #+
b00000000000000000000000000011000 #,
b0101 l
b100 -
b00000000000000000000000000010100 5
b00000000000000000000000000010000 6
b00000000000000000000000000010010 7
0w
b00000000000000000000000000010110 8
b00000000000000000000000000011000 9
b00000000000000000000000000011000 "[
b00000000000000000000000000011100 :
b00000000000000000000000000010110 "\
b00000000000000000000000000011110 "]
b0000001111 "!
#156
0"b
0"y
#161
1"b
b00000000000000000000000000000000 "h
b00000000000000000000000000000000 "i
b00000000000000000000000000000000 "j
1"k
b00000000000000000000000000000000 "7
b00000000000000000000000000000000 "8
b00000000000000000000000000000000 "9
1"y
b00000000000000000000000000000000 !
b00000000000000000000000000000000 "
b00000000000000000000000000000000 #
b00000000000000000000000000000000 #*
b00000000000000000000000000000000 #+
b00000000000000000000000000000000 #,
1k
b001 -
13
b00000000000000000000000000000000 5
b00000000000000000000000000000000 6
b00000000000000000000000000000000 7
b00000000000000000000000000000000 8
b00000000000000000000000000000000 9
b00000000000000000000000000000000 :
b0000010000 "!
#166
b00000000000000000000000000000000 @
0"b
b00000000000000000000000000000000 A
0#'
b00000000000000000000000000000000 '
b00000000000000000000000000000000 "-
b00000000000000000000000000000000 ,
b00000000000000000000000000000000 ".
0m
b00000000000000000000000000000000 "/
b00000000000000000000000000000000 .
b00000000000000000000000000000000 /
b00000000000000000000000000000000 q
b00000000000000000000000000000000 r
b00000000000000000000000000000000 s
0"y
b00000000000000000000000000000000 X
b00000000000000000000000000000000 Y
b00000000000000000000000000000000 y
b00000000000000000000000000000000 z
b00000000000000000000000000000000 {
b00000000000000000000000000000000 ?
