test_run_dir/TPU_test_should_test_4_different_systarr_size/ChiselTPU.vcd
$date
2023-03-20T03:22+0000
$end
$version
0.2
$end
$comment

$end
$timescale 1ns  $end
$scope module ChiselTPU $end
 $var wire 32 ! myOut_1_2 $end
 $var wire 32 " myOut_1_1 $end
 $var wire 32 # myOut_1_0 $end
 $var wire 32 $ myOut_1_3 $end
 $var wire 32 ) io_a_bits_0_0 $end
 $var wire 32 + paddedA_1_0 $end
 $var wire 32 , paddedA_1_1 $end
 $var wire 1 - io_a_ready $end
 $var wire 32 . io_b_bits_0_3 $end
 $var wire 32 / io_b_bits_0_2 $end
 $var wire 3 0 state $end
 $var wire 32 3 io_b_bits_0_1 $end
 $var wire 32 5 io_b_bits_0_0 $end
 $var wire 1 6 outReg $end
 $var wire 1 7 b_ready $end
 $var wire 1 8 a_ready $end
 $var wire 32 9 myOut_0_3 $end
 $var wire 32 : myOut_0_2 $end
 $var wire 32 ; myOut_0_1 $end
 $var wire 32 < myOut_0_0 $end
 $var wire 32 = myOut_2_1 $end
 $var wire 32 > myOut_2_0 $end
 $var wire 32 ? myOut_2_3 $end
 $var wire 32 @ myOut_2_2 $end
 $var wire 1 D allowReadB $end
 $var wire 32 E io_a_bits_1_1 $end
 $var wire 32 F io_a_bits_1_0 $end
 $var wire 1 J wrap_wrap_1 $end
 $var wire 32 K paddedA_0_1 $end
 $var wire 32 L paddedA_0_0 $end
 $var wire 1 R printf_9 $end
 $var wire 1 S printf_8 $end
 $var wire 1 T printf_7 $end
 $var wire 1 U printf_6 $end
 $var wire 1 V printf_1 $end
 $var wire 1 W printf_5 $end
 $var wire 1 X printf_4 $end
 $var wire 1 Y printf_3 $end
 $var wire 1 Z printf_2 $end
 $var wire 1 [ printf $end
 $var wire 32 \ io_a_bits_0_1 $end
 $var wire 32 ] io_out_3_2 $end
 $var wire 32 ^ io_out_3_3 $end
 $var wire 32 _ io_out_3_0 $end
 $var wire 32 ` io_out_3_1 $end
 $var wire 1 a printf_28 $end
 $var wire 1 b printf_29 $end
 $var wire 1 c printf_24 $end
 $var wire 1 d printf_25 $end
 $var wire 1 e printf_26 $end
 $var wire 1 f printf_27 $end
 $var wire 1 g printf_20 $end
 $var wire 1 h printf_21 $end
 $var wire 1 i printf_22 $end
 $var wire 1 j printf_23 $end
 $var wire 1 k printf_17 $end
 $var wire 1 l printf_18 $end
 $var wire 1 m printf_19 $end
 $var wire 1 n printf_13 $end
 $var wire 1 o printf_14 $end
 $var wire 1 p printf_15 $end
 $var wire 1 q printf_16 $end
 $var wire 1 r printf_10 $end
 $var wire 1 s printf_11 $end
 $var wire 1 t printf_12 $end
 $var wire 1 u io_b_ready $end
 $var wire 1 w io_a_valid $end
 $var wire 32 y io_a_bits_2_1 $end
 $var wire 32 z io_a_bits_2_0 $end
 $var wire 1 { printf_31 $end
 $var wire 1 | printf_32 $end
 $var wire 1 } printf_30 $end
 $var wire 32 ~ paddedB_1_5 $end
 $var wire 32 "! paddedB_1_3 $end
 $var wire 32 "" paddedB_1_4 $end
 $var wire 32 "# paddedB_1_1 $end
 $var wire 32 "$ paddedB_1_2 $end
 $var wire 32 "% paddedB_1_0 $end
 $var wire 1 "' wrap_wrap $end
 $var wire 32 ") slicedA_1_0 $end
 $var wire 10 "* totalCycle $end
 $var wire 1 "+ actReg $end
 $var wire 32 ", io_a_bits_3_1 $end
 $var wire 32 "- io_a_bits_3_0 $end
 $var wire 32 ". paddedB_0_4 $end
 $var wire 32 "/ paddedB_0_5 $end
 $var wire 32 "0 paddedB_0_2 $end
 $var wire 32 "1 paddedB_0_3 $end
 $var wire 32 "2 paddedB_0_0 $end
 $var wire 32 "3 paddedB_0_1 $end
 $var wire 32 "5 slicedA_2_0 $end
 $var wire 32 "6 io_b_bits_1_2 $end
 $var wire 32 "7 io_b_bits_1_1 $end
 $var wire 32 "8 io_b_bits_1_3 $end
 $var wire 32 "9 io_b_bits_1_0 $end
 $var wire 32 ": slicedOut_0_2 $end
 $var wire 32 "< paddedA_5_0 $end
 $var wire 32 "= paddedA_5_1 $end
 $var wire 32 "> io_out_0_0 $end
 $var wire 32 "? io_out_0_1 $end
 $var wire 32 "@ io_out_0_2 $end
 $var wire 32 "A io_out_0_3 $end
 $var wire 32 "B slicedOut_0_0 $end
 $var wire 32 "C slicedOut_0_1 $end
 $var wire 1 "L systArr $end
 $var wire 32 "N slicedA_0_0 $end
 $var wire 32 "S paddedA_4_1 $end
 $var wire 32 "T paddedA_4_0 $end
 $var wire 32 "U slicedOut_1_0 $end
 $var wire 32 "V slicedOut_1_1 $end
 $var wire 32 "W slicedOut_1_2 $end
 $var wire 32 "^ myOut_3_0 $end
 $var wire 32 "_ myOut_3_3 $end
 $var wire 32 "` myOut_3_2 $end
 $var wire 32 "a myOut_3_1 $end
 $var wire 1 "b enabledSyst $end
 $var wire 1 "c clock $end
 $var wire 32 "d paddedA_3_0 $end
 $var wire 32 "e paddedA_3_1 $end
 $var wire 32 "g io_out_2_3 $end
 $var wire 32 "h io_out_2_0 $end
 $var wire 32 "i io_out_2_1 $end
 $var wire 32 "j io_out_2_2 $end
 $var wire 1 "k counterFlag $end
 $var wire 3 "l boundK $end
 $var wire 5 "m boundM $end
 $var wire 5 "n boundN $end
 $var wire 1 "o reset $end
 $var wire 32 "s slicedOut_2_0 $end
 $var wire 32 "t slicedOut_2_1 $end
 $var wire 32 "u slicedOut_2_2 $end
 $var wire 3 "z sliceCycle $end
 $var wire 4 "{ cycle $end
 $var wire 32 "| paddedA_2_0 $end
 $var wire 32 "} paddedA_2_1 $end
 $var wire 1 "~ io_b_valid $end
 $var wire 32 #! io_out_1_0 $end
 $var wire 32 #" io_out_1_1 $end
 $var wire 32 ## io_out_1_2 $end
 $var wire 32 #$ io_out_1_3 $end
 $var wire 32 #% slicedB_0_2 $end
 $var wire 32 #& slicedB_0_1 $end
 $var wire 32 #' slicedB_0_0 $end
  $scope module outReg $end
   $var wire 1 % clock $end
   $var wire 1 & reset $end
   $var wire 32 ' io_slicedOut_2_2 $end
   $var wire 32 ( io_slicedOut_2_1 $end
   $var wire 32 * io_slicedOut_2_0 $end
   $var wire 32 1 io_systArr_out_0 $end
   $var wire 32 2 io_systArr_out_2 $end
   $var wire 32 4 io_systArr_out_1 $end
   $var wire 32 G io_slicedOut_1_2 $end
   $var wire 32 H io_slicedOut_1_1 $end
   $var wire 32 I io_slicedOut_1_0 $end
   $var wire 9 "& io_cycle $end
   $var wire 9 "; cycleIdx $end
   $var wire 1 "E io_clearsig $end
   $var wire 32 "X slicedOut_1_0 $end
   $var wire 32 "Y slicedOut_1_2 $end
   $var wire 32 "Z slicedOut_1_1 $end
   $var wire 32 "[ io_slicedOut_0_2 $end
   $var wire 32 "\ io_slicedOut_0_1 $end
   $var wire 32 "] io_slicedOut_0_0 $end
   $var wire 32 "p slicedOut_2_1 $end
   $var wire 32 "q slicedOut_2_0 $end
   $var wire 32 "r slicedOut_2_2 $end
   $var wire 32 "v slicedOut_0_1 $end
   $var wire 32 "w slicedOut_0_0 $end
   $var wire 32 "x slicedOut_0_2 $end
  $upscope $end
  $scope module systArr $end
   $var wire 32 A b_reg_0_0 $end
   $var wire 32 B b_reg_0_1 $end
   $var wire 32 C b_reg_0_2 $end
   $var wire 32 M cms_reg_0_2 $end
   $var wire 32 N cms_reg_0_0 $end
   $var wire 32 O cms_reg_0_1 $end
   $var wire 32 P a_reg_0_1 $end
   $var wire 32 Q a_reg_0_0 $end
   $var wire 1 "( io_b_readingin $end
   $var wire 1 "4 io_en $end
   $var wire 32 "D io_a_in_0 $end
   $var wire 32 "F cmp_input_0_0 $end
   $var wire 32 "G io_out_2 $end
   $var wire 32 "H io_out_1 $end
   $var wire 32 "I io_out_0 $end
   $var wire 32 "J cmp_input_0_2 $end
   $var wire 32 "K cmp_input_0_1 $end
   $var wire 32 "P io_b_in_0_0 $end
   $var wire 32 "Q io_b_in_0_1 $end
   $var wire 32 "R io_b_in_0_2 $end
   $var wire 1 "y clock $end
  $upscope $end
  $scope module actReg $end
   $var wire 3 v io_index $end
   $var wire 32 x io_a_out_0 $end
   $var wire 32 "M io_a_2_0 $end
   $var wire 32 "O io_a_1_0 $end
   $var wire 32 "f io_a_0_0 $end
  $upscope $end
$upscope $end
$enddefinitions $end
$dumpvars
b00000000000000000000000000000000 +
b00000000000000000000000000000000 *
b00000000000000000000000000000000 ,
b00000000000000000000000000000000 '
06
b00000000000000000000000000000000 )
07
b00000000000000000000000000000000 (
08
b00000000000000000000000000000000 #
b00000000000000000000000000000000 "
b00000000000000000000000000000000 $
b00000000000000000000000000000000 !
b00000000000000000000000000000000 ;
b00000000000000000000000000000000 :
b00000000000000000000000000000000 =
b00000000000000000000000000000000 <
0D
b0000 "{
b00000000000000000000000000000000 9
b00000000000000000000000000000000 3
b00000000000000000000000000000000 2
0J
b00000000000000000000000000000000 5
b00000000000000000000000000000000 4
b00000000000000000000000000000000 /
b00000000000000000000000000000000 .
b00000000000000000000000000000000 1
0R
0S
0T
0U
0V
0W
0X
0Y
0Z
0[
0a
0b
0c
0d
0e
0f
0g
0h
0i
0j
0k
0l
0m
0n
0o
0p
0q
0r
0s
0t
0u
0w
0{
0|
0}
0"'
0"(
0"+
0"4
b000 v
0"E
0"L
0"b
0"c
0"k
0"o
b00000000000000000000000000000000 "s
b00000000000000000000000000000000 "r
b00000000000000000000000000000000 "q
b00000000000000000000000000000000 "p
0"y
b00000000000000000000000000000000 "g
b00000000000000000000000000000000 "f
b00000000000000000000000000000000 "e
b00000000000000000000000000000000 "d
0"~
b00000000000000000000000000000000 "j
b00000000000000000000000000000000 "i
b00000000000000000000000000000000 "h
b00000000000000000000000000000000 "}
b00000000000000000000000000000000 "|
b00000000000000000000000000000000 "w
b00000000000000000000000000000000 "v
b00000000000000000000000000000000 "u
b00000000000000000000000000000000 "t
b00000000000000000000000000000000 "x
b00000 "m
b00000 "n
b000 0
b00000000000000000000000000000000 "/
b00000000000000000000000000000000 ".
b00000000000000000000000000000000 "-
b00000000000000000000000000000000 ",
b00000000000000000000000000000000 "3
b00000000000000000000000000000000 "2
b00000000000000000000000000000000 "1
b00000000000000000000000000000000 "0
b00000000000000000000000000000000 "%
b00000000000000000000000000000000 "$
b00000000000000000000000000000000 ")
b0000000000 "*
b00000000000000000000000000000000 "?
b00000000000000000000000000000000 ">
b00000000000000000000000000000000 "=
b00000000000000000000000000000000 "<
b00000000000000000000000000000000 "C
b00000000000000000000000000000000 #$
b00000000000000000000000000000000 "B
b00000000000000000000000000000000 ##
b00000000000000000000000000000000 "A
b00000000000000000000000000000000 #"
b00000000000000000000000000000000 "@
b00000000000000000000000000000000 #!
b00000000000000000000000000000000 "7
b00000000000000000000000000000000 "6
b00000000000000000000000000000000 "5
b00000000000000000000000000000000 ":
b00000000000000000000000000000000 "9
b00000000000000000000000000000000 "8
b00000000000000000000000000000000 "O
b00000000000000000000000000000000 "N
b00000000000000000000000000000000 "M
b00000000000000000000000000000000 "S
b00000000000000000000000000000000 "R
b00000000000000000000000000000000 "Q
b00000000000000000000000000000000 "P
b00000000000000000000000000000000 "G
b00000000000000000000000000000000 "F
b00000000000000000000000000000000 #'
b00000000000000000000000000000000 #&
b00000000000000000000000000000000 "D
b00000000000000000000000000000000 #%
b00000000000000000000000000000000 "K
b00000000000000000000000000000000 "J
b00000000000000000000000000000000 "I
b00000000000000000000000000000000 "H
b00000000000000000000000000000000 "_
b00000000000000000000000000000000 "^
b00000000000000000000000000000000 "]
b00000000000000000000000000000000 "\
b00000000000000000000000000000000 "a
b00000000000000000000000000000000 "`
b00000000000000000000000000000000 "W
b00000000000000000000000000000000 "V
b00000000000000000000000000000000 "U
b00000000000000000000000000000000 "T
b00000000000000000000000000000000 "[
b00000000000000000000000000000000 "Z
b00000000000000000000000000000000 "Y
b00000000000000000000000000000000 "X
b000000000 ";
b000000000 "&
b00000000000000000000000000000000 "#
b00000000000000000000000000000000 ""
b00000000000000000000000000000000 "!
b000 "l
b000 "z
b00000000000000000000000000000000 ~
b00000000000000000000000000000000 _
b00000000000000000000000000000000 ^
b00000000000000000000000000000000 `
b00000000000000000000000000000000 z
b00000000000000000000000000000000 y
b00000000000000000000000000000000 x
b00000000000000000000000000000000 K
b00000000000000000000000000000000 M
b00000000000000000000000000000000 L
b00000000000000000000000000000000 G
b00000000000000000000000000000000 F
b00000000000000000000000000000000 I
b00000000000000000000000000000000 H
b00000000000000000000000000000000 C
b00000000000000000000000000000000 B
b00000000000000000000000000000000 E
b00000000000000000000000000000000 ?
b00000000000000000000000000000000 >
b00000000000000000000000000000000 A
b00000000000000000000000000000000 @
b00000000000000000000000000000000 ]
b00000000000000000000000000000000 \
0%
0&
b00000000000000000000000000000000 O
0-
b00000000000000000000000000000000 N
b00000000000000000000000000000000 Q
b00000000000000000000000000000000 P
$end
#0
1&
b011 v
1"o
#1
1"c
1%
1u
17
1"y
18
1-
#6
0"c
b00000000000000000000000000000001 "f
b00000000000000000000000000000100 E
b00000000000000000000000000000011 F
b00000000000000000000000000001000 ",
b00000000000000000000000000000111 "-
0"o
b00000000000000000000000000000111 "6
b00000000000000000000000000000110 "7
b00000000000000000000000000001000 "8
b00000000000000000000000000000101 "9
0"y
b00000000000000000000000000000010 \
1"~
0%
0&
b00000000000000000000000000000001 )
b00000000000000000000000000000101 "M
b00000000000000000000000000000011 "O
b00000000000000000000000000000100 .
b00000000000000000000000000000011 /
b00000000000000000000000000000010 3
b00000000000000000000000000000001 5
1w
b00000000000000000000000000000110 y
b00000000000000000000000000000101 z
#11
1"c
b00000000000000000000000000000111 "d
b00000000000000000000000000001000 "e
b00000000000000000000000000000000 "f
1%
b0000000001 "*
1"k
b00000000000000000000000000000011 +
b00000000000000000000000000000010 K
b00000000000000000000000000000000 "M
b00000000000000000000000000000100 ,
b00000000000000000000000000000001 L
0-
b00000000000000000000000000000000 "O
b00000000000000000000000000000001 "P
b00000000000000000000000000000010 "Q
b001 0
b00000000000000000000000000000011 "R
1"y
08
b00000000000000000000000000000101 "|
b00000000000000000000000000000110 "}
#16
0"c
0%
0"y
#21
b00000000000000000000000000000110 "#
1"c
b00000000000000000000000000000111 "$
b00000000000000000000000000000101 "%
1D
b00000000000000000000000000000001 "f
1"(
b00000000000000000000000000000011 ")
b0000000010 "*
0"k
b00000000000000000000000000000011 "0
b00000000000000000000000000000100 "1
b00000000000000000000000000000001 "2
b00000000000000000000000000000010 "3
b00000000000000000000000000000101 "5
1"y
1%
b00000000000000000000000000000101 "M
b00000000000000000000000000000001 "N
b00000000000000000000000000000011 "O
b00000000000000000000000000000000 "P
b00000000000000000000000000000000 "Q
b00000000000000000000000000000000 "R
0u
07
b00000000000000000000000000001000 "!
#26
0"c
0%
0"y
#31
1"c
b00000000000000000000000000000011 #%
b00000000000000000000000000000010 #&
1"E
b00000000000000000000000000000001 #'
1%
b0000000011 "*
b001 "l
b00011 "m
b00011 "n
b00000000000000000000000000000001 "P
b00000000000000000000000000000010 "Q
b010 0
b00000000000000000000000000000011 "R
1"y
b111 "z
#36
0"c
0%
0"y
#41
1"c
b00000000000000000000000000000000 #%
b00000000000000000000000000000000 #&
0"E
b00000000000000000000000000001000 #'
b00000000000000000000000000001000 "f
1%
b00000000000000000000000000000000 ")
b0000000100 "*
1"k
b000 "l
b00000000000000000000000000000000 "M
b00000 "m
b00000000000000000000000000001000 "N
b00000 "n
b00000000000000000000000000000000 "O
b00000000000000000000000000001000 "P
b00000000000000000000000000000000 "Q
b011 0
b00000000000000000000000000000000 "R
b00000000000000000000000000000000 "5
1"y
b000 "z
#46
0"c
0%
0"y
#51
1"b
1"c
b00000000000000000000000000000011 #%
b00000000000000000000000000000010 #&
b00000000000000000000000000000001 #'
b00000000000000000000000000000001 "f
1%
b00000000000000000000000000000011 ")
b0000000101 "*
b00000000000000000000000000000101 "M
b00000000000000000000000000000001 "N
b00000000000000000000000000000011 "O
b00000000000000000000000000000001 "P
b00000000000000000000000000000010 "Q
b00000000000000000000000000000011 "R
1"4
b00000000000000000000000000000101 "5
1"y
#56
0"c
0%
0"y
#61
b00000000000000000000000000000001 A
1"c
b00000000000000000000000000000010 B
b00000000000000000000000000000001 "D
b00000000000000000000000000000011 C
b000000001 "&
b00000000000000000000000000000001 "F
1%
b0000000110 "*
b010 v
1"y
b00000000000000000000000000000001 x
b000000001 ";
b0001 "{
#66
0"c
0%
0"y
#71
1"c
b00000000000000000000000000000011 "D
0D
b000000010 "&
b00000000000000000000000000000011 "F
1%
0"(
b00000000000000000000000000000001 "I
b0000000111 "*
b00000000000000000000000000000010 "K
b00000000000000000000000000000001 N
b00000000000000000000000000000001 1
b00000000000000000000000000000001 Q
b001 v
1"y
b00000000000000000000000000000011 x
b000000000 ";
b0010 "{
#76
0"c
0%
0"y
#81
1"c
b000000011 "&
b0000001000 "*
b00000000000000000000000000000011 N
b00000000000000000000000000000010 O
b00000000000000000000000000000001 "q
b00000000000000000000000000000001 P
b00000000000000000000000000000011 Q
b00000000000000000000000000000001 "s
1"y
b000000001 ";
b0011 "{
b00000000000000000000000000000101 "D
b00000000000000000000000000000101 "F
1%
b00000000000000000000000000000010 "H
b00000000000000000000000000000011 "I
b00000000000000000000000000000011 "J
b00000000000000000000000000000110 "K
b00000000000000000000000000000001 *
b00000000000000000000000000000011 1
b00000000000000000000000000000010 4
b000 v
b00000000000000000000000000000101 x
#86
0"c
0%
0"y
#91
1"c
b000000100 "&
b0000001001 "*
b00000000000000000000000000000001 I
b00000000000000000000000000000011 M
b00000000000000000000000000000101 N
b00000000000000000000000000000010 "p
b00000000000000000000000000000110 O
b00000000000000000000000000000011 "q
b00000000000000000000000000000011 P
b00000000000000000000000000000101 Q
b00000000000000000000000000000011 "s
b00000000000000000000000000000010 "t
1"y
b000000010 ";
b0100 "{
b00000000000000000000000000000000 "D
b00000000000000000000000000000000 "F
1%
b00000000000000000000000000000011 "G
b00000000000000000000000000000110 "H
b00000000000000000000000000000101 "I
b00000000000000000000000000000010 (
b00000000000000000000000000001001 "J
b00000000000000000000000000001010 "K
b00000000000000000000000000000011 *
b00000000000000000000000000000101 1
b00000000000000000000000000000011 2
b00000000000000000000000000000001 "U
b00000000000000000000000000000110 4
b111 v
b00000000000000000000000000000001 "X
b00000000000000000000000000000000 x
#96
0"c
0%
0"y
#101
1"c
b000000101 "&
b00000000000000000000000000000010 H
b0000001010 "*
b00000000000000000000000000000011 I
b00000000000000000000000000001001 M
b00000000000000000000000000000000 N
b00000000000000000000000000000110 "p
b00000000000000000000000000001010 O
b00000000000000000000000000000101 "q
b00000000000000000000000000000101 P
b00000000000000000000000000000011 "r
b00000000000000000000000000000000 Q
b00000000000000000000000000000101 "s
b00000000000000000000000000000110 "t
b00000000000000000000000000000011 "u
b00000000000000000000000000000001 "w
1"y
b000000011 ";
b0101 "{
b00000000000000000000000000000001 "B
1%
b00000000000000000000000000001001 "G
b00000000000000000000000000001010 "H
b00000000000000000000000000000011 '
b00000000000000000000000000000000 "I
b00000000000000000000000000000110 (
b00000000000000000000000000001111 "J
b00000000000000000000000000000000 "K
b00000000000000000000000000000101 *
b00000000000000000000000000000000 1
b00000000000000000000000000001001 2
b00000000000000000000000000000011 "U
b00000000000000000000000000001010 4
b00000000000000000000000000000010 "V
b110 v
b00000000000000000000000000000011 "X
b00000000000000000000000000000010 "Z
b00000000000000000000000000000001 "]
#106
0"c
0%
0"y
#111
1"c
b000000110 "&
b00000000000000000000000000000011 G
b00000000000000000000000000000110 H
b0000001011 "*
b00000000000000000000000000001111 M
b00000000000000000000000000001010 "p
b00000000000000000000000000000000 O
b00000000000000000000000000000000 P
b00000000000000000000000000001001 "r
b00000000000000000000000000001010 "t
b00000000000000000000000000001001 "u
b00000000000000000000000000000010 "v
1"y
b000000100 ";
b0110 "{
b00000000000000000000000000000010 "C
1%
b00000000000000000000000000001111 "G
b00000000000000000000000000000000 "H
b00000000000000000000000000001001 '
b00000000000000000000000000001010 (
b00000000000000000000000000000000 "J
b00000000000000000000000000001111 2
b00000000000000000000000000000000 4
b00000000000000000000000000000110 "V
b00000000000000000000000000000011 "W
b101 v
b00000000000000000000000000000011 "Y
b00000000000000000000000000000110 "Z
b00000000000000000000000000000010 "\
#116
0"c
0%
0"y
#121
1"c
b000000111 "&
1%
b00000000000000000000000000000000 "G
b00000000000000000000000000001111 '
b00000000000000000000000000001001 G
b0000001100 "*
b00000000000000000000000000000000 M
b00000000000000000000000000001111 "r
b00000000000000000000000000000000 2
b00000000000000000000000000001111 "u
b00000000000000000000000000001001 "W
b100 v
b00000000000000000000000000000011 "x
b00000000000000000000000000001001 "Y
1"y
b00000000000000000000000000000011 ":
b000000101 ";
b00000000000000000000000000000011 "[
b0111 "{
#126
0"c
0%
0"y
#131
1"c
b000001000 "&
1%
b011 v
1"y
b0000001101 "*
b000000110 ";
b1000 "{
#136
0"c
0%
0"y
#141
1"c
b00000000000000000000000000000001 "D
b000001001 "&
b00000000000000000000000000000001 "F
1%
b010 v
1"y
b00000000000000000000000000000001 x
b0000001110 "*
b000000111 ";
b1001 "{
#146
0"c
0%
0"y
#151
1"c
b00000000000000000000000000000011 "D
b000001010 "&
b00000000000000000000000000000011 "F
1%
1"'
b00000000000000000000000000000001 "I
b0000001111 "*
b00000000000000000000000000000010 "K
b00000000000000000000000000000001 N
b00000000000000000000000000000001 1
b00000000000000000000000000000001 Q
b001 v
1"y
b00000000000000000000000000000011 x
b000001000 ";
b1010 "{
#156
0"c
0%
0"y
#161
b00000000000000000000000000001111 @
1"c
b000000000 "&
0"'
b00000000000000000000000000000101 "h
b00000000000000000000000000001010 "i
b0000010000 "*
b00000000000000000000000000001111 "j
0"k
b00000000000000000000000000000011 N
b00000000000000000000000000000010 O
b00000000000000000000000000000001 P
b00000000000000000000000000000011 Q
1"y
b000000000 ";
b0000 "{
b00000000000000000000000000000001 ">
b00000000000000000000000000000010 "?
b00000000000000000000000000000011 #!
b00000000000000000000000000000011 "@
b00000000000000000000000000000110 #"
b00000000000000000000000000001001 ##
b00000000000000000000000000001001 !
b00000000000000000000000000000110 "
b00000000000000000000000000000000 "D
b00000000000000000000000000000011 #
1"E
b00000000000000000000000000000000 "F
1%
b00000000000000000000000000000010 "H
b00000000000000000000000000000011 "I
b00000000000000000000000000000011 "J
b00000000000000000000000000000110 "K
b010 0
b00000000000000000000000000000011 1
b00000000000000000000000000000010 4
b011 v
b00000000000000000000000000000000 x
b00000000000000000000000000000011 :
b00000000000000000000000000000010 ;
b00000000000000000000000000000001 <
b00000000000000000000000000001010 =
b00000000000000000000000000000101 >
#166
0"c
0%
0"y
#171
0"b
1"c
1"k
b001 "l
b00000000000000000000000000000000 "p
b00000000000000000000000000000000 "q
b00000000000000000000000000000000 "r
b00000000000000000000000000000000 "s
b00000000000000000000000000000000 "t
b00000000000000000000000000000000 "u
b00000000000000000000000000000000 "v
b00000000000000000000000000000000 "w
b00000000000000000000000000000000 "x
1"y
b001 "z
1%
b00000000000000000000000000000000 '
b00000000000000000000000000000000 (
b00000000000000000000000000000000 *
b011 0
b00000000000000000000000000000000 1
b00000000000000000000000000000000 4
b00000000000000000000000000000000 G
b00000000000000000000000000000000 H
b0000010001 "*
b00000000000000000000000000000000 I
b00000000000000000000000000000011 M
b00000000000000000000000000000000 N
b00000000000000000000000000000110 O
b00000000000000000000000000000011 P
b00000000000000000000000000000000 Q
0"4
b00000000000000000000000000000000 ":
b00000000000000000000000000000000 "B
b00000000000000000000000000000000 "C
0"E
b00000000000000000000000000000000 "H
b00000000000000000000000000000000 "I
b00000000000000000000000000001001 "J
b00000000000000000000000000000000 "K
b00000000000000000000000000000000 "U
b00000000000000000000000000000000 "V
b00000000000000000000000000000000 "W
b00000000000000000000000000000000 "X
b00000000000000000000000000000000 "Y
b00000000000000000000000000000000 "Z
b00000000000000000000000000000000 "[
b00000000000000000000000000000000 "\
b00000000000000000000000000000000 "]
#176
0"c
0%
0"y
#181
1"b
1"c
b00000000000000000000000000000111 #%
b00000000000000000000000000000110 #&
1D
b00000000000000000000000000000101 #'
b00000000000000000000000000000010 "f
1%
1"(
b00000000000000000000000000000100 ")
b0000010010 "*
b00000000000000000000000000000110 "M
b00000000000000000000000000000010 "N
b00000000000000000000000000000000 M
b00000000000000000000000000000100 "O
b00000000000000000000000000000101 "P
b00000000000000000000000000000000 O
b00000000000000000000000000000110 "Q
b00000000000000000000000000000111 "R
1"4
b00000000000000000000000000000110 "5
1"y
#186
0"c
0%
0"y
#191
b00000000000000000000000000000101 A
1"c
b00000000000000000000000000000110 B
b00000000000000000000000000000010 "D
b00000000000000000000000000000111 C
b000000001 "&
b00000000000000000000000000001010 "F
1%
b00000000000000000000000000001001 "G
b0000010011 "*
b00000000000000000000000000000000 "J
b00000000000000000000000000001001 M
b00000000000000000000000000000000 P
b00000000000000000000000000001001 2
b010 v
1"y
b00000000000000000000000000000010 x
b000000001 ";
b0001 "{
#196
0"c
0%
0"y
#201
1"c
b00000000000000000000000000000100 "D
0D
b000000010 "&
b00000000000000000000000000010100 "F
1%
b00000000000000000000000000000000 "G
0"(
b00000000000000000000000000001010 "I
b0000010100 "*
b00000000000000000000000000001100 "K
b00000000000000000000000000000000 M
b00000000000000000000000000001010 N
b00000000000000000000000000001010 1
b00000000000000000000000000000010 Q
b00000000000000000000000000000000 2
b001 v
1"y
b00000000000000000000000000000100 x
b000000000 ";
b0010 "{
#206
0"c
0%
0"y
#211
1"c
b000000011 "&
b0000010101 "*
b00000000000000000000000000010100 N
b00000000000000000000000000001100 O
b00000000000000000000000000001010 "q
b00000000000000000000000000000010 P
b00000000000000000000000000000100 Q
b00000000000000000000000000001010 "s
1"y
b000000001 ";
b0011 "{
b00000000000000000000000000000110 "D
b00000000000000000000000000011110 "F
1%
b00000000000000000000000000001100 "H
b00000000000000000000000000010100 "I
b00000000000000000000000000001110 "J
b00000000000000000000000000011000 "K
b00000000000000000000000000001010 *
b00000000000000000000000000010100 1
b00000000000000000000000000001100 4
b000 v
b00000000000000000000000000000110 x
#216
0"c
0%
0"y
#221
1"c
b000000100 "&
b0000010110 "*
b00000000000000000000000000001010 I
b00000000000000000000000000001110 M
b00000000000000000000000000011110 N
b00000000000000000000000000001100 "p
b00000000000000000000000000011000 O
b00000000000000000000000000010100 "q
b00000000000000000000000000000100 P
b00000000000000000000000000000110 Q
b00000000000000000000000000010100 "s
b00000000000000000000000000001100 "t
1"y
b000000010 ";
b0100 "{
b00000000000000000000000000000000 "D
b00000000000000000000000000000000 "F
1%
b00000000000000000000000000001110 "G
b00000000000000000000000000011000 "H
b00000000000000000000000000011110 "I
b00000000000000000000000000001100 (
b00000000000000000000000000011100 "J
b00000000000000000000000000100100 "K
b00000000000000000000000000010100 *
b00000000000000000000000000011110 1
b00000000000000000000000000001110 2
b00000000000000000000000000001010 "U
b00000000000000000000000000011000 4
b111 v
b00000000000000000000000000001010 "X
b00000000000000000000000000000000 x
#226
0"c
0%
0"y
#231
1"c
b000000101 "&
b00000000000000000000000000001100 H
b0000010111 "*
b00000000000000000000000000010100 I
b00000000000000000000000000011100 M
b00000000000000000000000000000000 N
b00000000000000000000000000011000 "p
b00000000000000000000000000100100 O
b00000000000000000000000000011110 "q
b00000000000000000000000000000110 P
b00000000000000000000000000001110 "r
b00000000000000000000000000000000 Q
b00000000000000000000000000011110 "s
b00000000000000000000000000011000 "t
b00000000000000000000000000001110 "u
b00000000000000000000000000001010 "w
1"y
b000000011 ";
b0101 "{
b00000000000000000000000000001010 "B
1%
b00000000000000000000000000011100 "G
b00000000000000000000000000100100 "H
b00000000000000000000000000001110 '
b00000000000000000000000000000000 "I
b00000000000000000000000000011000 (
b00000000000000000000000000101010 "J
b00000000000000000000000000000000 "K
b00000000000000000000000000011110 *
b00000000000000000000000000000000 1
b00000000000000000000000000011100 2
b00000000000000000000000000010100 "U
b00000000000000000000000000100100 4
b00000000000000000000000000001100 "V
b110 v
b00000000000000000000000000010100 "X
b00000000000000000000000000001100 "Z
b00000000000000000000000000001010 "]
#236
0"c
0%
0"y
#241
1"c
b000000110 "&
b00000000000000000000000000001110 G
b00000000000000000000000000011000 H
b0000011000 "*
b00000000000000000000000000101010 M
b00000000000000000000000000100100 "p
b00000000000000000000000000000000 O
b00000000000000000000000000000000 P
b00000000000000000000000000011100 "r
b00000000000000000000000000100100 "t
b00000000000000000000000000011100 "u
b00000000000000000000000000001100 "v
1"y
b000000100 ";
b0110 "{
b00000000000000000000000000001100 "C
1%
b00000000000000000000000000101010 "G
b00000000000000000000000000000000 "H
b00000000000000000000000000011100 '
b00000000000000000000000000100100 (
b00000000000000000000000000000000 "J
b00000000000000000000000000101010 2
b00000000000000000000000000000000 4
b00000000000000000000000000011000 "V
b00000000000000000000000000001110 "W
b101 v
b00000000000000000000000000001110 "Y
b00000000000000000000000000011000 "Z
b00000000000000000000000000001100 "\
#246
0"c
0%
0"y
#251
1"c
b000000111 "&
1%
b00000000000000000000000000000000 "G
b00000000000000000000000000101010 '
b00000000000000000000000000011100 G
b0000011001 "*
b00000000000000000000000000000000 M
b00000000000000000000000000101010 "r
b00000000000000000000000000000000 2
b00000000000000000000000000101010 "u
b00000000000000000000000000011100 "W
b100 v
b00000000000000000000000000001110 "x
b00000000000000000000000000011100 "Y
1"y
b00000000000000000000000000001110 ":
b000000101 ";
b00000000000000000000000000001110 "[
b0111 "{
#256
0"c
0%
0"y
#261
1"c
b000001000 "&
1%
b011 v
1"y
b0000011010 "*
b000000110 ";
b1000 "{
#266
0"c
0%
0"y
#271
1"c
b00000000000000000000000000000010 "D
b000001001 "&
b00000000000000000000000000001010 "F
1%
b010 v
1"y
b00000000000000000000000000000010 x
b0000011011 "*
b000000111 ";
b1001 "{
#276
0"c
0%
0"y
