test_run_dir/TPU_test_should_3/ChiselTPU.vcd
$date
2023-03-20T03:22+0000
$end
$version
0.2
$end
$comment

$end
$timescale 1ns  $end
$scope module ChiselTPU $end
 $var wire 32 ! myOut_1_1 $end
 $var wire 32 " myOut_1_0 $end
 $var wire 32 ( io_a_bits_0_0 $end
 $var wire 32 + paddedA_1_0 $end
 $var wire 32 , paddedA_1_1 $end
 $var wire 32 - paddedA_1_2 $end
 $var wire 32 . paddedA_1_3 $end
 $var wire 1 / io_a_ready $end
 $var wire 3 2 state $end
 $var wire 32 4 io_b_bits_0_1 $end
 $var wire 32 6 io_b_bits_0_0 $end
 $var wire 1 9 outReg $end
 $var wire 32 : paddedB_3_1 $end
 $var wire 32 ; paddedB_3_0 $end
 $var wire 1 < b_ready $end
 $var wire 32 = io_out_0_0 $end
 $var wire 32 > io_out_0_1 $end
 $var wire 32 ? slicedB_1_1 $end
 $var wire 32 @ slicedB_1_0 $end
 $var wire 1 A a_ready $end
 $var wire 32 B slicedOut_0_0 $end
 $var wire 32 C slicedOut_0_1 $end
 $var wire 32 D myOut_0_1 $end
 $var wire 32 E myOut_0_0 $end
 $var wire 1 M allowReadB $end
 $var wire 32 N slicedB_3_0 $end
 $var wire 32 O slicedB_3_1 $end
 $var wire 32 Q io_a_bits_1_3 $end
 $var wire 32 R io_a_bits_1_2 $end
 $var wire 32 S io_a_bits_1_1 $end
 $var wire 32 T io_a_bits_1_0 $end
 $var wire 1 Z wrap_wrap_1 $end
 $var wire 32 [ paddedA_0_1 $end
 $var wire 32 \ paddedA_0_2 $end
 $var wire 32 ] paddedA_0_3 $end
 $var wire 32 ^ paddedA_0_0 $end
 $var wire 1 _ systArr $end
 $var wire 32 ` slicedA_0_3 $end
 $var wire 32 a slicedA_0_2 $end
 $var wire 32 b slicedA_0_1 $end
 $var wire 32 c slicedA_0_0 $end
 $var wire 32 m paddedB_2_0 $end
 $var wire 32 n paddedB_2_1 $end
 $var wire 1 o printf_9 $end
 $var wire 1 p printf_8 $end
 $var wire 1 q printf_7 $end
 $var wire 1 r printf_6 $end
 $var wire 1 s printf_1 $end
 $var wire 1 t printf_5 $end
 $var wire 1 u printf_4 $end
 $var wire 1 v printf_3 $end
 $var wire 1 w printf_2 $end
 $var wire 1 x printf $end
 $var wire 32 y io_a_bits_0_3 $end
 $var wire 32 z io_a_bits_0_2 $end
 $var wire 32 { io_a_bits_0_1 $end
 $var wire 32 | slicedB_2_1 $end
 $var wire 32 } slicedB_2_0 $end
 $var wire 32 ~ io_b_bits_3_0 $end
 $var wire 32 "! io_b_bits_3_1 $end
 $var wire 32 "" slicedOut_1_0 $end
 $var wire 32 "# slicedOut_1_1 $end
 $var wire 1 "$ printf_28 $end
 $var wire 1 "% printf_29 $end
 $var wire 1 "& printf_24 $end
 $var wire 1 "' printf_25 $end
 $var wire 1 "( printf_26 $end
 $var wire 1 ") printf_27 $end
 $var wire 1 "* printf_20 $end
 $var wire 1 "+ printf_21 $end
 $var wire 1 ", printf_22 $end
 $var wire 1 "- printf_23 $end
 $var wire 1 ". printf_17 $end
 $var wire 1 "/ printf_18 $end
 $var wire 1 "0 printf_19 $end
 $var wire 1 "1 printf_13 $end
 $var wire 1 "2 printf_14 $end
 $var wire 1 "3 printf_15 $end
 $var wire 1 "4 printf_16 $end
 $var wire 1 "5 printf_10 $end
 $var wire 1 "6 printf_11 $end
 $var wire 1 "7 printf_12 $end
 $var wire 1 ": io_b_ready $end
 $var wire 1 "> io_a_valid $end
 $var wire 1 "? enabledSyst $end
 $var wire 1 "D clock $end
 $var wire 32 "K paddedB_1_1 $end
 $var wire 32 "L paddedB_1_0 $end
 $var wire 1 "U counterFlag $end
 $var wire 1 "V wrap_wrap $end
 $var wire 4 "W boundK $end
 $var wire 3 "X boundM $end
 $var wire 3 "Y boundN $end
 $var wire 1 "Z reset $end
 $var wire 32 "\ io_b_bits_2_1 $end
 $var wire 32 "] io_b_bits_2_0 $end
 $var wire 32 "^ slicedA_1_3 $end
 $var wire 32 "_ slicedA_1_2 $end
 $var wire 32 "` slicedA_1_1 $end
 $var wire 32 "a slicedA_1_0 $end
 $var wire 10 "f totalCycle $end
 $var wire 1 "h sliceCycle $end
 $var wire 4 "j cycle $end
 $var wire 1 "k actReg $end
 $var wire 32 "p paddedB_0_0 $end
 $var wire 32 "q paddedB_0_1 $end
 $var wire 1 "r io_b_valid $end
 $var wire 32 "w io_out_1_0 $end
 $var wire 32 "x io_out_1_1 $end
 $var wire 32 "y slicedB_0_1 $end
 $var wire 32 "z slicedB_0_0 $end
 $var wire 32 "{ io_b_bits_1_1 $end
 $var wire 32 "| io_b_bits_1_0 $end
  $scope module outReg $end
   $var wire 8 % cycleIdx $end
   $var wire 1 & clock $end
   $var wire 1 ' reset $end
   $var wire 32 3 io_systArr_out_0 $end
   $var wire 32 5 io_systArr_out_1 $end
   $var wire 1 J io_clearsig $end
   $var wire 32 X io_slicedOut_1_1 $end
   $var wire 32 Y io_slicedOut_1_0 $end
   $var wire 32 "8 slicedOut_1_0 $end
   $var wire 32 "9 slicedOut_1_1 $end
   $var wire 32 "; io_slicedOut_0_1 $end
   $var wire 32 "< io_slicedOut_0_0 $end
   $var wire 8 "T io_cycle $end
   $var wire 32 "b slicedOut_0_1 $end
   $var wire 32 "c slicedOut_0_0 $end
  $upscope $end
  $scope module systArr $end
   $var wire 32 # b_reg_1_0 $end
   $var wire 32 $ b_reg_1_1 $end
   $var wire 32 ) cmp_input_1_1 $end
   $var wire 32 * cmp_input_1_0 $end
   $var wire 32 0 io_b_in_1_0 $end
   $var wire 32 1 io_b_in_1_1 $end
   $var wire 32 7 cms_reg_1_1 $end
   $var wire 32 8 cms_reg_1_0 $end
   $var wire 32 F io_a_in_0 $end
   $var wire 32 G io_a_in_2 $end
   $var wire 32 H io_a_in_1 $end
   $var wire 32 I io_a_in_3 $end
   $var wire 32 K b_reg_0_0 $end
   $var wire 32 L b_reg_0_1 $end
   $var wire 32 P cmp_input_0_0 $end
   $var wire 32 U io_out_1 $end
   $var wire 32 V io_out_0 $end
   $var wire 32 W cmp_input_0_1 $end
   $var wire 32 d cms_reg_0_0 $end
   $var wire 32 e cms_reg_0_1 $end
   $var wire 32 j io_b_in_0_0 $end
   $var wire 32 k io_b_in_0_1 $end
   $var wire 32 l a_reg_0_0 $end
   $var wire 32 "E cms_reg_3_1 $end
   $var wire 32 "F cms_reg_3_0 $end
   $var wire 32 "G cmp_input_3_1 $end
   $var wire 32 "H b_reg_3_0 $end
   $var wire 32 "I cmp_input_3_0 $end
   $var wire 32 "J b_reg_3_1 $end
   $var wire 32 "Q io_b_in_3_0 $end
   $var wire 32 "R io_b_in_3_1 $end
   $var wire 32 "S a_reg_1_0 $end
   $var wire 1 "[ io_b_readingin $end
   $var wire 32 "d b_reg_2_0 $end
   $var wire 32 "e b_reg_2_1 $end
   $var wire 1 "g clock $end
   $var wire 32 "i a_reg_3_0 $end
   $var wire 32 "l cms_reg_2_0 $end
   $var wire 32 "m cms_reg_2_1 $end
   $var wire 32 "n cmp_input_2_1 $end
   $var wire 32 "o cmp_input_2_0 $end
   $var wire 32 "s io_b_in_2_0 $end
   $var wire 32 "t io_b_in_2_1 $end
   $var wire 32 "u a_reg_2_0 $end
   $var wire 1 "v io_en $end
  $upscope $end
  $scope module actReg $end
   $var wire 32 f io_a_1_3 $end
   $var wire 32 g io_a_1_2 $end
   $var wire 32 h io_a_1_1 $end
   $var wire 32 i io_a_1_0 $end
   $var wire 4 "= io_index $end
   $var wire 32 "@ io_a_out_3 $end
   $var wire 32 "A io_a_out_2 $end
   $var wire 32 "B io_a_out_1 $end
   $var wire 32 "C io_a_out_0 $end
   $var wire 32 "M io_a_0_3 $end
   $var wire 32 "N io_a_0_2 $end
   $var wire 32 "O io_a_0_1 $end
   $var wire 32 "P io_a_0_0 $end
  $upscope $end
$upscope $end
$enddefinitions $end
$dumpvars
b00000000000000000000000000000000 +
b00000000000000000000000000000000 *
b00000000000000000000000000000000 -
b00000000000000000000000000000000 ,
b00000000000000000000000000000000 )
b0000 "j
b00000000000000000000000000000000 (
b00000000000000000000000000000000 #
09
b00000000000000000000000000000000 "
b00000000000000000000000000000000 $
0<
b00000000000000000000000000000000 !
b00000000000000000000000000000000 ;
0A
b00000000000000000000000000000000 :
b00000000000000000000000000000000 =
b00000000000000000000000000000000 "<
b00000000000000000000000000000000 "C
b00000000000000000000000000000000 7
b00000000000000000000000000000000 "B
b00000000000000000000000000000000 6
b00000000000000000000000000000000 "A
b00000000000000000000000000000000 "@
b00000000000000000000000000000000 8
b00000000000000000000000000000000 3
0J
b00000000000000000000000000000000 5
b00000000000000000000000000000000 4
b00000000000000000000000000000000 ";
0M
b00000000000000000000000000000000 .
b00000000000000000000000000000000 "9
b00000000000000000000000000000000 1
b00000000000000000000000000000000 "8
b00000000000000000000000000000000 0
b00000000000000000000000000000000 "O
b00000000000000000000000000000000 "N
b00000000000000000000000000000000 "M
b00000000000000000000000000000000 "L
b00000000000000000000000000000000 "S
b00000000000000000000000000000000 "R
b00000000000000000000000000000000 "Q
b00000000000000000000000000000000 "P
b00000000000000000000000000000000 "G
b00000000000000000000000000000000 "F
b00000000000000000000000000000000 "E
0Z
b00000000000000000000000000000000 "K
b00000000000000000000000000000000 "J
b00000000000000000000000000000000 "I
b00000000000000000000000000000000 "H
0_
b00000000000000000000000000000000 "_
b00000000000000000000000000000000 "^
b00000000000000000000000000000000 "]
b00000000000000000000000000000000 "\
b00000000000000000000000000000000 "c
b00000000000000000000000000000000 "b
b00000000000000000000000000000000 "a
b00000000000000000000000000000000 "`
0o
0p
0q
0r
0s
0t
0u
0v
0w
0x
0"$
0"%
b00000000 "T
b00000000000000000000000000000000 "#
0"&
b00000000000000000000000000000000 ""
0"'
b00000000000000000000000000000000 "!
0"(
0")
0"*
0"+
0",
0"-
0".
0"/
0"0
0"1
0"2
0"3
0"4
0"5
0"6
0"7
0":
0">
0"?
b000 "X
b000 "Y
0"D
0"U
0"V
0"Z
0"[
b00000000000000000000000000000000 ~
0"g
0"h
0"k
b00000000000000000000000000000000 "o
0"r
b00000000000000000000000000000000 k
b00000000000000000000000000000000 "n
b00000000000000000000000000000000 j
b00000000000000000000000000000000 "m
b00000000000000000000000000000000 m
b00000000000000000000000000000000 "l
b00000000000000000000000000000000 l
b00000000000000000000000000000000 "s
0"v
b00000000000000000000000000000000 g
b00000000000000000000000000000000 f
b00000000000000000000000000000000 "q
b00000000000000000000000000000000 i
b00000000000000000000000000000000 "p
b00000000000000000000000000000000 h
b00000000000000000000000000000000 c
b00000000000000000000000000000000 b
b00000000000000000000000000000000 "e
b00000000 %
b00000000000000000000000000000000 e
b00000000000000000000000000000000 "d
b0000000000 "f
b00000000000000000000000000000000 d
b00000000000000000000000000000000 ^
b00000000000000000000000000000000 "i
b00000000000000000000000000000000 a
b00000000000000000000000000000000 `
b00000000000000000000000000000000 {
b00000000000000000000000000000000 z
b00000000000000000000000000000000 }
b00000000000000000000000000000000 "|
b00000000000000000000000000000000 |
b000 2
b00000000000000000000000000000000 y
b00000000000000000000000000000000 "w
b0000 "=
b00000000000000000000000000000000 "u
b00000000000000000000000000000000 "t
b00000000000000000000000000000000 "{
b00000000000000000000000000000000 "z
b00000000000000000000000000000000 n
b00000000000000000000000000000000 "y
b00000000000000000000000000000000 "x
b00000000000000000000000000000000 K
b00000000000000000000000000000000 L
b00000000000000000000000000000000 G
b00000000000000000000000000000000 F
b00000000000000000000000000000000 I
b00000000000000000000000000000000 H
b00000000000000000000000000000000 C
b00000000000000000000000000000000 B
b00000000000000000000000000000000 E
b00000000000000000000000000000000 D
b00000000000000000000000000000000 ?
b00000000000000000000000000000000 >
b00000000000000000000000000000000 @
b00000000000000000000000000000000 [
b0000 "W
b00000000000000000000000000000000 ]
b00000000000000000000000000000000 \
b00000000000000000000000000000000 W
b00000000000000000000000000000000 V
0&
b00000000000000000000000000000000 Y
0'
b00000000000000000000000000000000 X
b00000000000000000000000000000000 S
b00000000000000000000000000000000 R
b00000000000000000000000000000000 U
b00000000000000000000000000000000 T
b00000000000000000000000000000000 O
b00000000000000000000000000000000 N
b00000000000000000000000000000000 Q
0/
b00000000000000000000000000000000 P
$end
#0
1'
1"Z
b0101 "=
#1
1A
1"D
1"g
1&
1":
1<
1/
#6
0"g
1"r
b00000000000000000000000000001000 Q
b00000000000000000000000000000111 R
b00000000000000000000000000000110 S
b00000000000000000000000000000101 T
b00000000000000000000000000000100 "{
b00000000000000000000000000000011 "|
1">
0"D
0&
b00000000000000000000000000001000 f
0'
b00000000000000000000000000000111 g
b00000000000000000000000000000001 (
b00000000000000000000000000000110 h
b00000000000000000000000000000101 i
b00000000000000000000000000000100 "M
b00000000000000000000000000000011 "N
b00000000000000000000000000000010 "O
b00000000000000000000000000000001 "P
b00000000000000000000000000000010 4
b00000000000000000000000000000001 6
0"Z
b00000000000000000000000000000100 y
b00000000000000000000000000000011 z
b00000000000000000000000000000110 "\
b00000000000000000000000000000010 {
b00000000000000000000000000000101 "]
b00000000000000000000000000000111 ~
b00000000000000000000000000001000 "!
#11
0A
b0000000001 "f
1"g
b00000000000000000000000000000101 "s
b00000000000000000000000000000110 "t
b00000000000000000000000000000010 [
b00000000000000000000000000000011 \
b00000000000000000000000000000100 ]
b00000000000000000000000000000001 ^
1"D
1&
b00000000000000000000000000000000 f
b00000000000000000000000000000000 g
b00000000000000000000000000000000 h
b00000000000000000000000000000000 i
b00000000000000000000000000000001 j
b00000000000000000000000000000101 +
b00000000000000000000000000000010 k
b00000000000000000000000000000000 "M
b00000000000000000000000000000110 ,
b00000000000000000000000000000000 "N
b00000000000000000000000000000111 -
b00000000000000000000000000000000 "O
b00000000000000000000000000001000 .
b00000000000000000000000000000000 "P
0/
b00000000000000000000000000000111 "Q
b00000000000000000000000000000011 0
b00000000000000000000000000001000 "R
b00000000000000000000000000000100 1
b001 2
1"U
#16
0"D
0"g
0&
#21
b0000000010 "f
1"g
1M
b00000000000000000000000000000001 "p
b00000000000000000000000000000010 "q
b00000000000000000000000000000000 "s
b00000000000000000000000000000000 "t
0":
b00000000000000000000000000000100 `
b00000000000000000000000000000011 a
b00000000000000000000000000000010 b
1"D
b00000000000000000000000000000001 c
1&
b00000000000000000000000000001000 f
b00000000000000000000000000000111 g
b00000000000000000000000000000110 h
b00000000000000000000000000000101 i
b00000000000000000000000000000100 "K
b00000000000000000000000000000000 j
b00000000000000000000000000000011 "L
b00000000000000000000000000000000 k
b00000000000000000000000000000100 "M
b00000000000000000000000000000011 "N
b00000000000000000000000000000101 m
b00000000000000000000000000000010 "O
b00000000000000000000000000000110 n
b00000000000000000000000000000001 "P
b00000000000000000000000000000000 "Q
b00000000000000000000000000000000 0
b00000000000000000000000000000000 "R
b00000000000000000000000000000000 1
0"U
1"[
b00000000000000000000000000001000 :
b00000000000000000000000000000111 ;
0<
b00000000000000000000000000001000 "^
b00000000000000000000000000000111 "_
b00000000000000000000000000000110 "`
b00000000000000000000000000000101 "a
#26
0"D
0"g
0&
#31
b00000000000000000000000000000011 @
1"D
b0000000011 "f
1"g
1&
1J
b00000000000000000000000000000001 j
b00000000000000000000000000000010 k
b00000000000000000000000000000111 N
b00000000000000000000000000001000 O
b00000000000000000000000000000111 "Q
b00000000000000000000000000000011 0
b00000000000000000000000000001000 "R
b00000000000000000000000000000100 1
b00000000000000000000000000000101 "s
b010 2
b00000000000000000000000000000110 "t
b00000000000000000000000000000010 "y
b00000000000000000000000000000001 "z
b00000000000000000000000000000110 |
b00000000000000000000000000000101 }
b00000000000000000000000000000100 ?
#36
0"D
0"g
0&
#41
b011 2
1"D
1"U
b0000000100 "f
1"g
1&
0J
#46
0"D
0"g
0&
#51
1"D
b0000000101 "f
1"v
1"g
1&
1"?
#56
0"D
0"g
0&
#61
b00000000000000000000000000000001 "C
1"D
b00000000000000000000000000000101 "d
b00000000000000000000000000000011 #
b00000000000000000000000000000110 "e
b00000000000000000000000000000100 $
b0000000110 "f
b00000001 %
1"g
1&
b00000000000000000000000000000001 F
b00000000000000000000000000000111 "H
b00000000000000000000000000001000 "J
b0001 "j
b00000000000000000000000000000001 K
b00000000000000000000000000000010 L
b00000000000000000000000000000001 P
b00000001 "T
b0100 "=
#66
0"D
0"g
0&
#71
b00000000000000000000000000000010 "B
b00000000000000000000000000000101 "C
1"D
b00000000000000000000000000000001 d
b0000000111 "f
b00000010 %
1"g
1&
b00000000000000000000000000000101 F
b00000000000000000000000000000010 H
b0010 "j
b00000000000000000000000000000111 *
b00000000000000000000000000000001 l
0M
b00000000000000000000000000000101 P
b00000010 "T
b00000000000000000000000000000010 W
0"[
b0011 "=
#76
0"D
0"g
0&
#81
b0000001000 "f
1"g
b00000000000000000000000000000000 F
b00000000000000000000000000000011 G
b00000000000000000000000000000110 H
b0011 "j
b00000000000000000000000000010110 "o
b00000000000000000000000000000000 P
b00000000000000000000000000001010 W
b0010 "=
b00000000000000000000000000000011 "A
b00000000000000000000000000000110 "B
b00000000000000000000000000000000 "C
1"D
b00000000000000000000000000000101 d
b00000011 %
b00000000000000000000000000000010 e
1&
b00000000000000000000000000001010 )
b00000000000000000000000000010111 *
b00000000000000000000000000000101 l
b00000000000000000000000000000010 "S
b00000011 "T
b00000000000000000000000000000111 8
#86
0"D
0"g
0&
#91
b0000001001 "f
1"g
b00000000000000000000000000000111 G
b00000000000000000000000000000000 H
b0100 "j
b00000000000000000000000000000100 I
b00000000000000000000000000010110 "l
b00000000000000000000000000011100 "n
b00000000000000000000000000111010 "o
b00000000000000000000000000000011 "u
b00000000000000000000000000000000 W
b0001 "=
b00000000000000000000000000000100 "@
b00000000000000000000000000000111 "A
b00000000000000000000000000000000 "B
1"D
b00000000000000000000000000000000 d
b00000100 %
b00000000000000000000000000001010 e
1&
b00000000000000000000000000110010 "I
b00000000000000000000000000100010 )
b00000000000000000000000000000000 *
b00000000000000000000000000000000 l
b00000000000000000000000000000110 "S
b00000100 "T
b00000000000000000000000000001010 7
b00000000000000000000000000010111 8
#96
0"D
0"g
0&
#101
b0000001010 "f
1"g
b00000000000000000000000000000000 G
b00000000000000000000000000000100 "i
b0101 "j
b00000000000000000000000000001000 I
b00000000000000000000000000111010 "l
b00000000000000000000000000011100 "m
b00000000000000000000000001001100 "n
b00000000000000000000000000000000 "o
b00000000000000000000000000000111 "u
b00000000000000000000000000110010 V
b0000 "=
b00000000000000000000000000001000 "@
b00000000000000000000000000000000 "A
1"D
b00000000000000000000000000110010 "F
b00000000 %
b00000000000000000000000000000000 e
b00000000000000000000000000111100 "G
1&
b00000000000000000000000001110010 "I
b00000000000000000000000000000000 )
b00000000000000000000000000000000 "S
b00000101 "T
b00000000000000000000000000110010 3
b00000000000000000000000000100010 7
b00000000000000000000000000000000 8
#106
0"D
0"g
0&
#111
b00000000000000000000000000110010 ""
b0000001011 "f
1"g
b00000000000000000000000000001000 "i
b0110 "j
b00000000000000000000000000000000 I
b00000000000000000000000000000000 "l
b00000000000000000000000001001100 "m
b00000000000000000000000000000000 "n
b00000000000000000000000000000000 "u
b00000000000000000000000000111100 U
b00000000000000000000000001110010 V
b00000000000000000000000000110010 "8
b00000000000000000000000000110010 Y
b1111 "=
b00000000000000000000000000000000 "@
1"D
b00000000000000000000000000111100 "E
b00000000000000000000000001110010 "F
b00000001 %
b00000000000000000000000010001100 "G
1&
b00000000000000000000000000000000 "I
b00000110 "T
b00000000000000000000000001110010 3
b00000000000000000000000000111100 5
b00000000000000000000000000000000 7
#116
0"D
0"g
0&
#121
b00000000000000000000000001110010 ""
b00000000000000000000000000111100 "#
b00000000000000000000000000110010 "c
b00000000000000000000000000110010 B
b0000001100 "f
1"g
b00000000000000000000000000000000 "i
b0111 "j
b00000000000000000000000000000000 "m
b00000000000000000000000010001100 U
b00000000000000000000000000000000 V
b00000000000000000000000001110010 "8
b00000000000000000000000000111100 "9
b00000000000000000000000000111100 X
b00000000000000000000000001110010 Y
b00000000000000000000000000110010 "<
b1110 "=
1"D
b00000000000000000000000010001100 "E
b00000000000000000000000000000000 "F
b00000010 %
b00000000000000000000000000000000 "G
1&
b00000111 "T
b00000000000000000000000000000000 3
b00000000000000000000000010001100 5
#126
0"D
0"g
0&
#131
b00000000000000000000000000111100 "b
b00000000000000000000000010001100 "#
1"D
b00000000000000000000000000111100 C
b00000000000000000000000000000000 "E
b0000001101 "f
b00000011 %
1"g
1&
b1000 "j
b00001000 "T
1"V
b00000000000000000000000000000000 5
b00000000000000000000000000000000 U
b00000000000000000000000010001100 "9
b00000000000000000000000010001100 X
b00000000000000000000000000111100 ";
b1101 "=
#136
0"D
0"g
0&
#141
b00000000000000000000000010001100 !
b00000000000000000000000001110010 "
1"D
b00000000000000000000000000111100 D
b0000001110 "f
b00000000 %
b00000000000000000000000000110010 E
1"g
1&
b0000 "j
b100 2
b00000000 "T
0"U
0"V
b00000000000000000000000001110010 "w
b00000000000000000000000010001100 "x
b0101 "=
b00000000000000000000000000110010 =
b00000000000000000000000000111100 >
#146
0"D
0"g
0&
#151
b00000000000000000000000000000000 !
b00000000000000000000000000000000 "
1"D
b00000000000000000000000000000000 D
b0000001111 "f
b00000000000000000000000000000000 E
1"g
1&
b001 2
1"U
b00000000000000000000000000000000 "w
b00000000000000000000000000000000 "x
1":
1<
b00000000000000000000000000000000 =
b00000000000000000000000000000000 >
#156
0"D
0"g
0&
b00000000000000000000000000000000 (
0"r
b00000000000000000000000000000000 Q
b00000000000000000000000000000000 R
b00000000000000000000000000000000 S
b00000000000000000000000000000000 4
b00000000000000000000000000000000 T
b00000000000000000000000000000000 6
b00000000000000000000000000000000 y
b00000000000000000000000000000000 "{
b00000000000000000000000000000000 z
b00000000000000000000000000000000 "\
b00000000000000000000000000000000 "|
b00000000000000000000000000000000 {
b00000000000000000000000000000000 "]
0">
b00000000000000000000000000000000 ~
b00000000000000000000000000000000 "!
