test_run_dir/TPU_test_should_test_2_different_systarr_size/ChiselTPU.vcd
$date
2023-03-20T03:22+0000
$end
$version
0.2
$end
$comment

$end
$timescale 1ns  $end
$scope module ChiselTPU $end
 $var wire 1 ! printf_20 $end
 $var wire 1 " printf_21 $end
 $var wire 1 # printf_22 $end
 $var wire 1 $ printf_17 $end
 $var wire 1 % printf_18 $end
 $var wire 1 & printf_19 $end
 $var wire 1 ' printf_13 $end
 $var wire 1 ( printf_14 $end
 $var wire 1 ) printf_15 $end
 $var wire 1 * printf_16 $end
 $var wire 1 + printf_10 $end
 $var wire 1 , printf_11 $end
 $var wire 1 - printf_12 $end
 $var wire 32 . myOut_1_1 $end
 $var wire 32 / myOut_1_0 $end
 $var wire 1 0 io_b_ready $end
 $var wire 1 5 io_a_valid $end
 $var wire 32 7 io_a_bits_0_0 $end
 $var wire 1 8 enabledSyst $end
 $var wire 1 : clock $end
 $var wire 32 ; paddedA_1_0 $end
 $var wire 32 < paddedA_1_1 $end
 $var wire 1 = io_a_ready $end
 $var wire 3 > state $end
 $var wire 32 @ io_b_bits_0_1 $end
 $var wire 32 A io_b_bits_0_0 $end
 $var wire 32 B paddedB_1_1 $end
 $var wire 32 C paddedB_1_0 $end
 $var wire 1 D outReg $end
 $var wire 1 G counterFlag $end
 $var wire 1 H wrap_wrap $end
 $var wire 3 I boundK $end
 $var wire 4 J boundM $end
 $var wire 4 K boundN $end
 $var wire 1 L b_ready $end
 $var wire 32 M io_out_0_0 $end
 $var wire 1 N reset $end
 $var wire 32 O io_out_0_1 $end
 $var wire 1 Q a_ready $end
 $var wire 32 R slicedOut_0_0 $end
 $var wire 32 S myOut_0_1 $end
 $var wire 32 T myOut_0_0 $end
 $var wire 10 X totalCycle $end
 $var wire 1 [ allowReadB $end
 $var wire 3 \ sliceCycle $end
 $var wire 32 ^ io_a_bits_1_1 $end
 $var wire 32 _ io_a_bits_1_0 $end
 $var wire 3 a cycle $end
 $var wire 1 b wrap_wrap_1 $end
 $var wire 1 c actReg $end
 $var wire 32 d paddedA_0_1 $end
 $var wire 32 e paddedA_0_0 $end
 $var wire 1 f systArr $end
 $var wire 32 g slicedA_0_0 $end
 $var wire 32 h paddedB_0_0 $end
 $var wire 32 i paddedB_0_1 $end
 $var wire 1 l io_b_valid $end
 $var wire 1 m printf_9 $end
 $var wire 1 n printf_8 $end
 $var wire 1 o printf_7 $end
 $var wire 1 p printf_6 $end
 $var wire 1 q printf_1 $end
 $var wire 1 r printf_5 $end
 $var wire 1 s printf_4 $end
 $var wire 1 t printf_3 $end
 $var wire 1 u printf_2 $end
 $var wire 1 v printf $end
 $var wire 32 w io_a_bits_0_1 $end
 $var wire 32 y io_out_1_0 $end
 $var wire 32 z io_out_1_1 $end
 $var wire 32 { slicedB_0_0 $end
 $var wire 32 | io_b_bits_1_1 $end
 $var wire 32 } io_b_bits_1_0 $end
  $scope module outReg $end
   $var wire 32 1 io_slicedOut_0_0 $end
   $var wire 8 2 cycleIdx $end
   $var wire 1 4 clock $end
   $var wire 1 6 reset $end
   $var wire 32 ? io_systArr_out_0 $end
   $var wire 8 F io_cycle $end
   $var wire 32 U slicedOut_0_0 $end
   $var wire 1 W io_clearsig $end
  $upscope $end
  $scope module systArr $end
   $var wire 1 P io_b_readingin $end
   $var wire 32 V io_a_in_0 $end
   $var wire 1 Y clock $end
   $var wire 32 Z b_reg_0_0 $end
   $var wire 32 ] cmp_input_0_0 $end
   $var wire 32 ` io_out_0 $end
   $var wire 32 j cms_reg_0_0 $end
   $var wire 32 k io_b_in_0_0 $end
   $var wire 1 x io_en $end
  $upscope $end
  $scope module actReg $end
   $var wire 1 3 io_index $end
   $var wire 32 9 io_a_out_0 $end
   $var wire 32 E io_a_0_0 $end
  $upscope $end
$upscope $end
$enddefinitions $end
$dumpvars
00
03
04
05
06
08
0:
0=
b00000000000000000000000000000000 ;
b00000000000000000000000000000000 <
0D
b00000000000000000000000000000000 7
b00000000000000000000000000000000 9
0G
0H
0L
b00000000000000000000000000000000 /
b00000000000000000000000000000000 .
0N
b00000000000000000000000000000000 1
0P
0Q
b00000000 F
0W
0Y
0[
0b
0c
0f
b000 a
0l
0m
0n
b000 \
0o
0p
b00000000000000000000000000000000 k
0q
b00000000000000000000000000000000 j
b000 I
0r
0s
0t
b00000000000000000000000000000000 g
0u
0v
b00000000000000000000000000000000 i
b00000000000000000000000000000000 h
0x
b0000 J
b00000000000000000000000000000000 e
b0000 K
b00000000000000000000000000000000 d
b00000000000000000000000000000000 _
b00000000000000000000000000000000 ^
b00000000000000000000000000000000 `
b00000000000000000000000000000000 {
b00000000000000000000000000000000 z
b00000000000000000000000000000000 }
b00000000000000000000000000000000 |
b00000000000000000000000000000000 w
b00000000000000000000000000000000 y
b000 >
b00000000 2
b0000000000 X
b00000000000000000000000000000000 M
b00000000000000000000000000000000 C
b00000000000000000000000000000000 B
b00000000000000000000000000000000 E
b00000000000000000000000000000000 ?
b00000000000000000000000000000000 A
b00000000000000000000000000000000 @
0!
b00000000000000000000000000000000 Z
0"
b00000000000000000000000000000000 ]
0#
0$
0%
b00000000000000000000000000000000 V
0&
0'
0(
b00000000000000000000000000000000 S
0)
b00000000000000000000000000000000 R
0*
b00000000000000000000000000000000 U
0+
b00000000000000000000000000000000 T
0,
b00000000000000000000000000000000 O
0-
$end
#0
13
16
1N
#1
10
1Q
14
1Y
1:
1L
1=
#6
b00000000000000000000000000000010 @
b00000000000000000000000000000001 A
b00000000000000000000000000000001 E
1l
0N
04
15
06
b00000000000000000000000000000001 7
b00000000000000000000000000000010 w
0Y
0:
b00000000000000000000000000000100 |
b00000000000000000000000000000011 }
b00000000000000000000000000000100 ^
b00000000000000000000000000000011 _
#11
b00000000000000000000000000000010 d
b00000000000000000000000000000000 E
b00000000000000000000000000000001 e
1G
b00000000000000000000000000000001 k
0Q
14
b0000000001 X
1Y
1:
b00000000000000000000000000000011 ;
b00000000000000000000000000000100 <
0=
b001 >
#16
04
0Y
0:
#21
b00000000000000000000000000000100 B
b00000000000000000000000000000011 C
b00000000000000000000000000000001 E
0G
b00000000000000000000000000000001 g
b00000000000000000000000000000001 h
b00000000000000000000000000000010 i
b00000000000000000000000000000000 k
0L
00
1P
14
b0000000010 X
1Y
1:
1[
#26
04
0Y
0:
#31
b001 I
b0001 J
b0001 K
b00000000000000000000000000000001 k
14
1W
b0000000011 X
1Y
1:
b00000000000000000000000000000001 {
b111 \
b010 >
#36
04
0Y
0:
#41
b00000000000000000000000000000100 E
1G
b00000000000000000000000000000100 g
b000 I
b0000 J
b0000 K
b00000000000000000000000000000100 k
14
0W
b0000000100 X
1Y
1:
b00000000000000000000000000000100 {
b000 \
b011 >
#46
04
0Y
0:
#51
14
b00000000000000000000000000000001 E
b00000000000000000000000000000001 g
18
b0000000101 X
1x
1Y
1:
b00000000000000000000000000000001 k
b00000000000000000000000000000001 {
#56
04
0Y
0:
#61
b001 a
b00000001 F
b00000001 2
03
14
b00000000000000000000000000000001 V
b0000000110 X
b00000000000000000000000000000001 9
1Y
1:
b00000000000000000000000000000001 Z
b00000000000000000000000000000001 ]
#66
04
0Y
0:
#71
b00000000000000000000000000000001 `
b010 a
b00000010 F
b00000000000000000000000000000001 j
0P
b00000000 2
13
14
b00000000000000000000000000000000 V
b0000000111 X
b00000000000000000000000000000000 9
1Y
1:
0[
b00000000000000000000000000000000 ]
b00000000000000000000000000000001 ?
#76
04
0Y
0:
#81
b00000000000000000000000000000000 `
b011 a
b00000011 F
b00000000000000000000000000000000 j
b00000000000000000000000000000001 1
b00000001 2
b00000000000000000000000000000001 R
03
14
b00000000000000000000000000000001 U
b00000000000000000000000000000001 V
b0000001000 X
b00000000000000000000000000000001 9
1Y
1:
b00000000000000000000000000000001 ]
b00000000000000000000000000000000 ?
#86
04
0Y
0:
#91
b00000000000000000000000000000001 `
b100 a
b00000100 F
b00000000000000000000000000000001 j
b00000010 2
13
14
b00000000000000000000000000000000 V
b0000001001 X
b00000000000000000000000000000000 9
1Y
1:
b00000000000000000000000000000000 ]
b00000000000000000000000000000001 ?
#96
04
0Y
0:
#101
b00000000000000000000000000000000 `
b101 a
b00000101 F
b00000000000000000000000000000000 j
b00000011 2
03
14
b00000000000000000000000000000001 V
b0000001010 X
b00000000000000000000000000000001 9
1Y
1:
b00000000000000000000000000000001 ]
b00000000000000000000000000000000 ?
#106
04
0Y
0:
#111
b00000000000000000000000000000001 `
b110 a
b00000110 F
1H
b00000000000000000000000000000001 j
b00000100 2
13
14
b00000000000000000000000000000000 V
b0000001011 X
b00000000000000000000000000000000 9
1Y
1:
b00000000000000000000000000000000 ]
b00000000000000000000000000000001 ?
#116
04
0Y
0:
#121
b00000000000000000000000000000000 `
b000 a
b00000000 F
0G
0H
b00000000000000000000000000000000 j
b00000000000000000000000000000001 M
b00000000 2
14
b00000000000000000000000000000001 T
1W
b0000001100 X
1Y
1:
b010 >
b00000000000000000000000000000000 ?
#126
04
0Y
0:
#131
1G
b001 I
b00000000000000000000000000000000 1
b00000000000000000000000000000000 R
14
b00000000000000000000000000000000 U
0W
08
b0000001101 X
0x
1Y
1:
b001 \
b011 >
#136
04
0Y
0:
#141
b00000000000000000000000000000010 E
b00000000000000000000000000000010 g
b00000000000000000000000000000011 k
1P
14
18
b0000001110 X
1x
1Y
1:
1[
b00000000000000000000000000000011 {
#146
04
0Y
0:
#151
b001 a
b00000001 F
b00000001 2
03
14
b00000000000000000000000000000010 V
b0000001111 X
b00000000000000000000000000000010 9
1Y
1:
b00000000000000000000000000000011 Z
b00000000000000000000000000000110 ]
#156
04
0Y
0:
#161
b00000000000000000000000000000110 `
b010 a
b00000010 F
b00000000000000000000000000000110 j
0P
b00000000 2
13
14
b00000000000000000000000000000000 V
b0000010000 X
b00000000000000000000000000000000 9
1Y
1:
0[
b00000000000000000000000000000000 ]
b00000000000000000000000000000110 ?
#166
04
0Y
0:
#171
b00000000000000000000000000000000 `
b011 a
b00000011 F
b00000000000000000000000000000000 j
b00000000000000000000000000000110 1
b00000001 2
b00000000000000000000000000000110 R
03
14
b00000000000000000000000000000110 U
b00000000000000000000000000000010 V
b0000010001 X
b00000000000000000000000000000010 9
1Y
1:
b00000000000000000000000000000110 ]
b00000000000000000000000000000000 ?
#176
04
0Y
0:
#181
b00000000000000000000000000000110 `
b100 a
b00000100 F
b00000000000000000000000000000110 j
b00000010 2
13
14
b00000000000000000000000000000000 V
b0000010010 X
b00000000000000000000000000000000 9
1Y
1:
b00000000000000000000000000000000 ]
b00000000000000000000000000000110 ?
#186
04
0Y
0:
#191
b00000000000000000000000000000000 `
b101 a
b00000101 F
b00000000000000000000000000000000 j
b00000011 2
03
14
b00000000000000000000000000000010 V
b0000010011 X
b00000000000000000000000000000010 9
1Y
1:
b00000000000000000000000000000110 ]
b00000000000000000000000000000000 ?
#196
04
0Y
0:
#201
b00000000000000000000000000000110 `
b110 a
b00000110 F
1H
b00000000000000000000000000000110 j
b00000100 2
13
14
b00000000000000000000000000000000 V
b0000010100 X
b00000000000000000000000000000000 9
1Y
1:
b00000000000000000000000000000000 ]
b00000000000000000000000000000110 ?
#206
04
0Y
0:
#211
b00000000000000000000000000000000 `
b000 a
b00000000 F
0G
0H
b00000000000000000000000000000000 j
b00000000000000000000000000000111 M
b00000000 2
14
b00000000000000000000000000000111 T
1W
b0000010101 X
1Y
1:
b010 >
b00000000000000000000000000000000 ?
#216
04
0Y
0:
#221
1G
b000 I
b0001 J
b00000000000000000000000000000000 1
b00000000000000000000000000000000 R
14
b00000000000000000000000000000000 U
0W
08
b0000010110 X
0x
1Y
1:
b010 \
b011 >
#226
04
0Y
0:
#231
b00000000000000000000000000000011 E
b00000000000000000000000000000011 g
b00000000000000000000000000000001 k
1P
14
18
b0000010111 X
1x
1Y
1:
1[
b00000000000000000000000000000001 {
#236
04
0Y
0:
#241
b001 a
b00000001 F
b00000001 2
03
14
b00000000000000000000000000000011 V
b0000011000 X
b00000000000000000000000000000011 9
1Y
1:
b00000000000000000000000000000001 Z
b00000000000000000000000000000011 ]
#246
04
0Y
0:
#251
b00000000000000000000000000000011 `
b010 a
b00000010 F
b00000000000000000000000000000011 j
0P
b00000000 2
13
14
b00000000000000000000000000000000 V
b0000011001 X
b00000000000000000000000000000000 9
1Y
1:
0[
b00000000000000000000000000000000 ]
b00000000000000000000000000000011 ?
#256
04
0Y
0:
#261
b00000000000000000000000000000000 `
b011 a
b00000011 F
b00000000000000000000000000000000 j
b00000000000000000000000000000011 1
b00000001 2
b00000000000000000000000000000011 R
03
14
b00000000000000000000000000000011 U
b00000000000000000000000000000011 V
b0000011010 X
b00000000000000000000000000000011 9
1Y
1:
b00000000000000000000000000000011 ]
b00000000000000000000000000000000 ?
#266
04
0Y
0:
#271
b00000000000000000000000000000011 `
b100 a
b00000100 F
b00000000000000000000000000000011 j
b00000010 2
13
14
b00000000000000000000000000000000 V
b0000011011 X
b00000000000000000000000000000000 9
1Y
1:
b00000000000000000000000000000000 ]
b00000000000000000000000000000011 ?
#276
04
0Y
0:
#281
b00000000000000000000000000000000 `
b101 a
b00000101 F
b00000000000000000000000000000000 j
b00000011 2
03
14
b00000000000000000000000000000011 V
b0000011100 X
b00000000000000000000000000000011 9
1Y
1:
b00000000000000000000000000000011 ]
b00000000000000000000000000000000 ?
#286
04
0Y
0:
#291
b00000000000000000000000000000011 `
b110 a
b00000110 F
1H
b00000000000000000000000000000011 j
b00000100 2
13
14
b00000000000000000000000000000000 V
b0000011101 X
b00000000000000000000000000000000 9
1Y
1:
b00000000000000000000000000000000 ]
b00000000000000000000000000000011 ?
#296
04
0Y
0:
#301
b00000000000000000000000000000000 `
b000 a
b00000000 F
0G
0H
b00000000000000000000000000000000 j
b00000000000000000000000000000011 /
b00000000 2
14
1W
b0000011110 X
1Y
b00000000000000000000000000000011 y
1:
b010 >
b00000000000000000000000000000000 ?
#306
04
0Y
0:
#311
1G
b001 I
b00000000000000000000000000000000 1
b00000000000000000000000000000000 R
14
b00000000000000000000000000000000 U
0W
08
b0000011111 X
0x
1Y
1:
b011 \
b011 >
#316
04
0Y
0:
#321
b00000000000000000000000000000100 E
b00000000000000000000000000000100 g
b00000000000000000000000000000011 k
1P
14
18
b0000100000 X
1x
1Y
1:
1[
b00000000000000000000000000000011 {
#326
04
0Y
0:
#331
b001 a
b00000001 F
b00000001 2
03
14
b00000000000000000000000000000100 V
b0000100001 X
b00000000000000000000000000000100 9
1Y
1:
b00000000000000000000000000000011 Z
b00000000000000000000000000001100 ]
#336
04
0Y
0:
#341
b00000000000000000000000000001100 `
b010 a
b00000010 F
b00000000000000000000000000001100 j
0P
b00000000 2
13
14
b00000000000000000000000000000000 V
b0000100010 X
b00000000000000000000000000000000 9
1Y
1:
0[
b00000000000000000000000000000000 ]
b00000000000000000000000000001100 ?
#346
04
0Y
0:
#351
b00000000000000000000000000000000 `
b011 a
b00000011 F
b00000000000000000000000000000000 j
b00000000000000000000000000001100 1
b00000001 2
b00000000000000000000000000001100 R
03
14
b00000000000000000000000000001100 U
b00000000000000000000000000000100 V
b0000100011 X
b00000000000000000000000000000100 9
1Y
1:
b00000000000000000000000000001100 ]
b00000000000000000000000000000000 ?
#356
04
0Y
0:
#361
b00000000000000000000000000001100 `
b100 a
b00000100 F
b00000000000000000000000000001100 j
b00000010 2
13
14
b00000000000000000000000000000000 V
b0000100100 X
b00000000000000000000000000000000 9
1Y
1:
b00000000000000000000000000000000 ]
b00000000000000000000000000001100 ?
#366
04
0Y
0:
#371
b00000000000000000000000000000000 `
b101 a
b00000101 F
b00000000000000000000000000000000 j
b00000011 2
03
14
b00000000000000000000000000000100 V
b0000100101 X
b00000000000000000000000000000100 9
1Y
1:
b00000000000000000000000000001100 ]
b00000000000000000000000000000000 ?
#376
04
0Y
0:
#381
b00000000000000000000000000001100 `
b110 a
b00000110 F
1H
b00000000000000000000000000001100 j
b00000100 2
13
14
b00000000000000000000000000000000 V
b0000100110 X
b00000000000000000000000000000000 9
1Y
1:
b00000000000000000000000000000000 ]
b00000000000000000000000000001100 ?
#386
04
0Y
0:
#391
b00000000000000000000000000000000 `
b000 a
b00000000 F
0G
0H
b00000000000000000000000000000000 j
b00000000000000000000000000001111 /
b00000000 2
14
1W
b0000100111 X
1Y
b00000000000000000000000000001111 y
1:
b010 >
b00000000000000000000000000000000 ?
#396
04
0Y
0:
#401
1G
b000 I
b0000 J
b0001 K
b00000000000000000000000000000000 1
b00000000000000000000000000000000 R
14
b00000000000000000000000000000000 U
0W
08
b0000101000 X
0x
1Y
1:
b100 \
b011 >
#406
04
0Y
0:
#411
b00000000000000000000000000000001 E
b00000000000000000000000000000001 g
b00000000000000000000000000000010 k
1P
14
18
b0000101001 X
1x
1Y
1:
1[
b00000000000000000000000000000010 {
#416
04
0Y
0:
#421
b001 a
b00000001 F
b00000001 2
03
14
b00000000000000000000000000000001 V
b0000101010 X
b00000000000000000000000000000001 9
1Y
1:
b00000000000000000000000000000010 Z
b00000000000000000000000000000010 ]
#426
04
0Y
0:
#431
b00000000000000000000000000000010 `
b010 a
b00000010 F
b00000000000000000000000000000010 j
0P
b00000000 2
13
14
b00000000000000000000000000000000 V
b0000101011 X
b00000000000000000000000000000000 9
1Y
1:
0[
b00000000000000000000000000000000 ]
b00000000000000000000000000000010 ?
#436
04
0Y
0:
#441
b00000000000000000000000000000000 `
b011 a
b00000011 F
b00000000000000000000000000000000 j
b00000000000000000000000000000010 1
b00000001 2
b00000000000000000000000000000010 R
03
14
b00000000000000000000000000000010 U
b00000000000000000000000000000001 V
b0000101100 X
b00000000000000000000000000000001 9
1Y
1:
b00000000000000000000000000000010 ]
b00000000000000000000000000000000 ?
#446
04
0Y
0:
#451
b00000000000000000000000000000010 `
b100 a
b00000100 F
b00000000000000000000000000000010 j
b00000010 2
13
14
b00000000000000000000000000000000 V
b0000101101 X
b00000000000000000000000000000000 9
1Y
1:
b00000000000000000000000000000000 ]
b00000000000000000000000000000010 ?
#456
04
0Y
0:
#461
b00000000000000000000000000000000 `
b101 a
b00000101 F
b00000000000000000000000000000000 j
b00000011 2
03
14
b00000000000000000000000000000001 V
b0000101110 X
b00000000000000000000000000000001 9
1Y
1:
b00000000000000000000000000000010 ]
b00000000000000000000000000000000 ?
#466
04
0Y
0:
#471
b00000000000000000000000000000010 `
b110 a
b00000110 F
1H
b00000000000000000000000000000010 j
b00000100 2
13
14
b00000000000000000000000000000000 V
b0000101111 X
b00000000000000000000000000000000 9
1Y
1:
b00000000000000000000000000000000 ]
b00000000000000000000000000000010 ?
#476
04
0Y
0:
#481
b00000000000000000000000000000000 `
b000 a
b00000000 F
0G
0H
b00000000000000000000000000000000 j
b00000000000000000000000000000010 O
b00000000 2
b00000000000000000000000000000010 S
14
1W
b0000110000 X
1Y
1:
b010 >
b00000000000000000000000000000000 ?
#486
04
0Y
0:
#491
1G
b001 I
b00000000000000000000000000000000 1
b00000000000000000000000000000000 R
14
b00000000000000000000000000000000 U
0W
08
b0000110001 X
0x
1Y
1:
b101 \
b011 >
#496
04
0Y
0:
#501
b00000000000000000000000000000010 E
b00000000000000000000000000000010 g
b00000000000000000000000000000100 k
1P
14
18
b0000110010 X
1x
1Y
1:
1[
b00000000000000000000000000000100 {
#506
04
0Y
0:
#511
b001 a
b00000001 F
b00000001 2
03
14
b00000000000000000000000000000010 V
b0000110011 X
b00000000000000000000000000000010 9
1Y
1:
b00000000000000000000000000000100 Z
b00000000000000000000000000001000 ]
#516
04
0Y
0:
#521
b00000000000000000000000000001000 `
b010 a
b00000010 F
b00000000000000000000000000001000 j
0P
b00000000 2
13
14
b00000000000000000000000000000000 V
b0000110100 X
b00000000000000000000000000000000 9
1Y
1:
0[
b00000000000000000000000000000000 ]
b00000000000000000000000000001000 ?
#526
04
0Y
0:
#531
b00000000000000000000000000000000 `
b011 a
b00000011 F
b00000000000000000000000000000000 j
b00000000000000000000000000001000 1
b00000001 2
b00000000000000000000000000001000 R
03
14
b00000000000000000000000000001000 U
b00000000000000000000000000000010 V
b0000110101 X
b00000000000000000000000000000010 9
1Y
1:
b00000000000000000000000000001000 ]
b00000000000000000000000000000000 ?
#536
04
0Y
0:
#541
b00000000000000000000000000001000 `
b100 a
b00000100 F
b00000000000000000000000000001000 j
b00000010 2
13
14
b00000000000000000000000000000000 V
b0000110110 X
b00000000000000000000000000000000 9
1Y
1:
b00000000000000000000000000000000 ]
b00000000000000000000000000001000 ?
#546
04
0Y
0:
#551
b00000000000000000000000000000000 `
b101 a
b00000101 F
b00000000000000000000000000000000 j
b00000011 2
03
14
b00000000000000000000000000000010 V
b0000110111 X
b00000000000000000000000000000010 9
1Y
1:
b00000000000000000000000000001000 ]
b00000000000000000000000000000000 ?
#556
04
0Y
0:
#561
b00000000000000000000000000001000 `
b110 a
b00000110 F
1H
b00000000000000000000000000001000 j
b00000100 2
13
14
b00000000000000000000000000000000 V
b0000111000 X
b00000000000000000000000000000000 9
1Y
1:
b00000000000000000000000000000000 ]
b00000000000000000000000000001000 ?
#566
04
0Y
0:
#571
b00000000000000000000000000000000 `
b000 a
b00000000 F
0G
0H
b00000000000000000000000000000000 j
b00000000000000000000000000001010 O
b00000000 2
b00000000000000000000000000001010 S
14
1W
b0000111001 X
1Y
1:
b010 >
b00000000000000000000000000000000 ?
#576
04
0Y
0:
#581
1G
b000 I
b0001 J
b00000000000000000000000000000000 1
b00000000000000000000000000000000 R
14
b00000000000000000000000000000000 U
0W
08
b0000111010 X
0x
1Y
1:
b110 \
b011 >
#586
04
0Y
0:
#591
b00000000000000000000000000000011 E
b00000000000000000000000000000011 g
b00000000000000000000000000000010 k
1P
14
18
b0000111011 X
1x
1Y
1:
1[
b00000000000000000000000000000010 {
#596
04
0Y
0:
#601
b001 a
b00000001 F
b00000001 2
03
14
b00000000000000000000000000000011 V
b0000111100 X
b00000000000000000000000000000011 9
1Y
1:
b00000000000000000000000000000010 Z
b00000000000000000000000000000110 ]
#606
04
0Y
0:
#611
b00000000000000000000000000000110 `
b010 a
b00000010 F
b00000000000000000000000000000110 j
0P
b00000000 2
13
14
b00000000000000000000000000000000 V
b0000111101 X
b00000000000000000000000000000000 9
1Y
1:
0[
b00000000000000000000000000000000 ]
b00000000000000000000000000000110 ?
#616
04
0Y
0:
#621
b00000000000000000000000000000000 `
b011 a
b00000011 F
b00000000000000000000000000000000 j
b00000000000000000000000000000110 1
b00000001 2
b00000000000000000000000000000110 R
03
14
b00000000000000000000000000000110 U
b00000000000000000000000000000011 V
b0000111110 X
b00000000000000000000000000000011 9
1Y
1:
b00000000000000000000000000000110 ]
b00000000000000000000000000000000 ?
#626
04
0Y
0:
#631
b00000000000000000000000000000110 `
b100 a
b00000100 F
b00000000000000000000000000000110 j
b00000010 2
13
14
b00000000000000000000000000000000 V
b0000111111 X
b00000000000000000000000000000000 9
1Y
1:
b00000000000000000000000000000000 ]
b00000000000000000000000000000110 ?
#636
04
0Y
0:
#641
b00000000000000000000000000000000 `
b101 a
b00000101 F
b00000000000000000000000000000000 j
b00000011 2
03
14
b00000000000000000000000000000011 V
b0001000000 X
b00000000000000000000000000000011 9
1Y
1:
b00000000000000000000000000000110 ]
b00000000000000000000000000000000 ?
#646
04
0Y
0:
#651
b00000000000000000000000000000110 `
b110 a
b00000110 F
1H
b00000000000000000000000000000110 j
b00000100 2
13
14
b00000000000000000000000000000000 V
b0001000001 X
b00000000000000000000000000000000 9
1Y
1:
b00000000000000000000000000000000 ]
b00000000000000000000000000000110 ?
#656
04
0Y
0:
#661
b00000000000000000000000000000000 `
b000 a
b00000000 F
0G
0H
b00000000000000000000000000000000 j
b00000000000000000000000000000110 .
b00000000 2
14
1W
b0001000010 X
1Y
1:
b00000000000000000000000000000110 z
b010 >
b00000000000000000000000000000000 ?
#666
04
0Y
0:
#671
1G
b001 I
b00000000000000000000000000000000 1
b00000000000000000000000000000000 R
14
b00000000000000000000000000000000 U
0W
08
b0001000011 X
0x
1Y
1:
b111 \
b011 >
#676
04
0Y
0:
#681
b00000000000000000000000000000100 E
b00000000000000000000000000000100 g
b00000000000000000000000000000100 k
1P
14
18
b0001000100 X
1x
1Y
1:
1[
b00000000000000000000000000000100 {
#686
04
0Y
0:
#691
b001 a
b00000001 F
b00000001 2
03
14
b00000000000000000000000000000100 V
b0001000101 X
b00000000000000000000000000000100 9
1Y
1:
b00000000000000000000000000000100 Z
b00000000000000000000000000010000 ]
#696
04
0Y
0:
#701
b00000000000000000000000000010000 `
b010 a
b00000010 F
b00000000000000000000000000010000 j
0P
b00000000 2
13
14
b00000000000000000000000000000000 V
b0001000110 X
b00000000000000000000000000000000 9
1Y
1:
0[
b00000000000000000000000000000000 ]
b00000000000000000000000000010000 ?
#706
04
0Y
0:
#711
b00000000000000000000000000000000 `
b011 a
b00000011 F
b00000000000000000000000000000000 j
b00000000000000000000000000010000 1
b00000001 2
b00000000000000000000000000010000 R
03
14
b00000000000000000000000000010000 U
b00000000000000000000000000000100 V
b0001000111 X
b00000000000000000000000000000100 9
1Y
1:
b00000000000000000000000000010000 ]
b00000000000000000000000000000000 ?
#716
04
0Y
0:
#721
b00000000000000000000000000010000 `
b100 a
b00000100 F
b00000000000000000000000000010000 j
b00000010 2
13
14
b00000000000000000000000000000000 V
b0001001000 X
b00000000000000000000000000000000 9
1Y
1:
b00000000000000000000000000000000 ]
b00000000000000000000000000010000 ?
#726
04
0Y
0:
#731
b00000000000000000000000000000000 `
b101 a
b00000101 F
b00000000000000000000000000000000 j
b00000011 2
03
14
b00000000000000000000000000000100 V
b0001001001 X
b00000000000000000000000000000100 9
1Y
1:
b00000000000000000000000000010000 ]
b00000000000000000000000000000000 ?
#736
04
0Y
0:
#741
b00000000000000000000000000010000 `
b110 a
b00000110 F
1H
b00000000000000000000000000010000 j
b00000100 2
13
14
b00000000000000000000000000000000 V
b0001001010 X
b00000000000000000000000000000000 9
1Y
1:
b00000000000000000000000000000000 ]
b00000000000000000000000000010000 ?
#746
04
0Y
0:
#751
b00000000000000000000000000000000 `
b000 a
b00000000 F
0G
0H
b00000000000000000000000000000000 j
b00000000000000000000000000010110 .
b00000000 2
14
b0001001011 X
1Y
1:
b00000000000000000000000000010110 z
b100 >
b00000000000000000000000000000000 ?
#756
04
0Y
0:
#761
1G
b00000000000000000000000000000001 k
1L
b00000000000000000000000000000000 M
b00000000000000000000000000000000 .
b00000000000000000000000000000000 /
b00000000000000000000000000000000 O
10
b00000000000000000000000000000000 S
14
b00000000000000000000000000000000 T
b0001001100 X
1Y
b00000000000000000000000000000000 y
1:
b00000000000000000000000000000000 z
b001 >
#766
b00000000000000000000000000000000 @
b00000000000000000000000000000000 A
0l
04
05
b00000000000000000000000000000000 7
b00000000000000000000000000000000 w
0Y
0:
b00000000000000000000000000000000 |
b00000000000000000000000000000000 }
b00000000000000000000000000000000 ^
b00000000000000000000000000000000 _
