test_run_dir/TPU_syst_arr_test_should_multiply_1s_row_x_1s_column/SystArr.vcd
$date
2023-03-10T03:50+0000
$end
$version
0.2
$end
$comment

$end
$timescale 1ns  $end
$scope module SystArr $end
 $var wire 1 ! printf_17 $end
 $var wire 1 " printf_18 $end
 $var wire 1 # printf_19 $end
 $var wire 1 $ printf_13 $end
 $var wire 1 % printf_14 $end
 $var wire 1 & printf_15 $end
 $var wire 1 ' printf_16 $end
 $var wire 1 ( printf_10 $end
 $var wire 1 ) printf_11 $end
 $var wire 1 * printf_12 $end
 $var wire 32 + a_reg_2_2 $end
 $var wire 32 , a_reg_2_0 $end
 $var wire 32 - a_reg_2_1 $end
 $var wire 32 . io_b_in_2_0 $end
 $var wire 32 / a_reg_1_0 $end
 $var wire 32 0 a_reg_1_1 $end
 $var wire 32 1 a_reg_1_2 $end
 $var wire 32 2 io_out_2 $end
 $var wire 32 3 io_out_0 $end
 $var wire 32 4 io_out_1 $end
 $var wire 32 5 io_b_in_2_1 $end
 $var wire 32 6 io_b_in_2_2 $end
 $var wire 32 7 io_b_in_1_0 $end
 $var wire 32 8 io_b_in_1_1 $end
 $var wire 32 9 a_reg_0_0 $end
 $var wire 32 : a_reg_0_1 $end
 $var wire 32 ; a_reg_0_2 $end
 $var wire 32 < io_b_in_1_2 $end
 $var wire 32 = b_reg_2_0 $end
 $var wire 32 > b_reg_2_2 $end
 $var wire 32 ? b_reg_2_1 $end
 $var wire 32 @ io_b_in_0_0 $end
 $var wire 32 A io_b_in_0_1 $end
 $var wire 32 B io_b_in_0_2 $end
 $var wire 32 C b_reg_0_0 $end
 $var wire 32 D b_reg_0_2 $end
 $var wire 32 E b_reg_0_1 $end
 $var wire 1 F clock $end
 $var wire 32 G cmp_input_8 $end
 $var wire 32 H cmp_input_7 $end
 $var wire 32 I cmp_input_6 $end
 $var wire 32 J cmp_input_1 $end
 $var wire 32 K cmp_input $end
 $var wire 32 L cmp_input_5 $end
 $var wire 32 M cmp_input_4 $end
 $var wire 32 N cmp_input_3 $end
 $var wire 32 O cmp_input_2 $end
 $var wire 32 P b_reg_1_1 $end
 $var wire 32 Q b_reg_1_0 $end
 $var wire 32 R b_reg_1_2 $end
 $var wire 1 S printf_9 $end
 $var wire 1 T printf_8 $end
 $var wire 1 U printf_7 $end
 $var wire 1 V printf_6 $end
 $var wire 1 W printf_1 $end
 $var wire 1 X printf_5 $end
 $var wire 1 Y printf_4 $end
 $var wire 1 Z printf_3 $end
 $var wire 1 [ printf_2 $end
 $var wire 1 \ printf $end
 $var wire 32 ] io_a_in_1 $end
 $var wire 32 ^ io_a_in_2 $end
 $var wire 32 _ io_a_in_0 $end
 $var wire 32 ` io_b_reg_debug_0_2 $end
 $var wire 32 a io_b_reg_debug_0_0 $end
 $var wire 32 b io_b_reg_debug_0_1 $end
 $var wire 32 c cms_reg_1_2 $end
 $var wire 32 d cms_reg_1_1 $end
 $var wire 1 e reset $end
 $var wire 32 f cms_reg_1_0 $end
 $var wire 32 g io_b_reg_debug_1_1 $end
 $var wire 32 h io_b_reg_debug_1_2 $end
 $var wire 32 i io_b_reg_debug_1_0 $end
 $var wire 32 j io_cmp_debug_2_1 $end
 $var wire 32 k io_cmp_debug_2_2 $end
 $var wire 32 l io_cmp_debug_2_0 $end
 $var wire 32 m cms_reg_0_2 $end
 $var wire 32 n cms_reg_0_1 $end
 $var wire 32 o cms_reg_0_0 $end
 $var wire 32 p io_b_reg_debug_2_0 $end
 $var wire 32 q io_b_reg_debug_2_1 $end
 $var wire 32 r io_b_reg_debug_2_2 $end
 $var wire 32 s io_cmp_debug_1_2 $end
 $var wire 32 t io_cmp_debug_1_0 $end
 $var wire 32 u io_cmp_debug_1_1 $end
 $var wire 32 v io_cmp_debug_0_1 $end
 $var wire 32 w io_cmp_debug_0_2 $end
 $var wire 32 x io_cmp_debug_0_0 $end
 $var wire 32 y cms_reg_2_1 $end
 $var wire 32 z cms_reg_2_0 $end
 $var wire 32 { cms_reg_2_2 $end
$upscope $end
$enddefinitions $end
$dumpvars
b00000000000000000000000000000000 +
b00000000000000000000000000000000 -
b00000000000000000000000000000000 ,
b00000000000000000000000000000000 ;
b00000000000000000000000000000000 :
b00000000000000000000000000000000 =
b00000000000000000000000000000000 <
b00000000000000000000000000000000 7
b00000000000000000000000000000000 6
0F
b00000000000000000000000000000000 9
b00000000000000000000000000000000 8
b00000000000000000000000000000000 3
b00000000000000000000000000000000 2
b00000000000000000000000000000000 5
b00000000000000000000000000000000 4
b00000000000000000000000000000000 /
b00000000000000000000000000000000 .
b00000000000000000000000000000000 1
b00000000000000000000000000000000 0
0S
0T
0U
0V
0W
0X
0Y
0Z
0[
0\
0e
b00000000000000000000000000000000 k
b00000000000000000000000000000000 j
b00000000000000000000000000000000 m
b00000000000000000000000000000000 l
b00000000000000000000000000000000 g
b00000000000000000000000000000000 f
b00000000000000000000000000000000 i
b00000000000000000000000000000000 h
b00000000000000000000000000000000 c
b00000000000000000000000000000000 b
b00000000000000000000000000000000 d
b00000000000000000000000000000000 _
b00000000000000000000000000000000 ^
b00000000000000000000000000000000 a
b00000000000000000000000000000000 `
b00000000000000000000000000000000 {
b00000000000000000000000000000000 z
b00000000000000000000000000000000 w
b00000000000000000000000000000000 v
b00000000000000000000000000000000 y
b00000000000000000000000000000000 x
b00000000000000000000000000000000 s
b00000000000000000000000000000000 r
b00000000000000000000000000000000 u
b00000000000000000000000000000000 t
b00000000000000000000000000000000 o
b00000000000000000000000000000000 n
b00000000000000000000000000000000 q
b00000000000000000000000000000000 p
b00000000000000000000000000000000 K
b00000000000000000000000000000000 J
b00000000000000000000000000000000 M
b00000000000000000000000000000000 L
b00000000000000000000000000000000 G
b00000000000000000000000000000000 I
b00000000000000000000000000000000 H
b00000000000000000000000000000000 C
b00000000000000000000000000000000 B
b00000000000000000000000000000000 E
b00000000000000000000000000000000 D
b00000000000000000000000000000000 ?
b00000000000000000000000000000000 >
b00000000000000000000000000000000 A
b00000000000000000000000000000000 @
0!
0"
b00000000000000000000000000000000 ]
0#
0$
0%
0&
0'
0(
0)
b00000000000000000000000000000000 R
0*
b00000000000000000000000000000000 O
b00000000000000000000000000000000 N
b00000000000000000000000000000000 Q
b00000000000000000000000000000000 P
$end
#0
1e
#1
1F
#6
b00000000000000000000000000000010 @
b00000000000000000000000000000101 A
b00000000000000000000000000000101 B
b00000000000000000000000000000011 5
0e
b00000000000000000000000000000001 6
0F
b00000000000000000000000000000100 7
b00000000000000000000000000000001 8
b00000000000000000000000000000011 <
b00000000000000000000000000000010 .
#11
b00000000000000000000000000000101 `
b00000000000000000000000000000010 a
b00000000000000000000000000000101 b
b00000000000000000000000000000010 C
b00000000000000000000000000000101 D
b00000000000000000000000000000101 E
1F
b00000000000000000000000000000001 g
b00000000000000000000000000000011 h
b00000000000000000000000000000100 i
b00000000000000000000000000000001 P
b00000000000000000000000000000010 p
b00000000000000000000000000000100 Q
b00000000000000000000000000000011 q
b00000000000000000000000000000011 R
b00000000000000000000000000000001 r
b00000000000000000000000000000010 =
b00000000000000000000000000000001 >
b00000000000000000000000000000011 ?
#16
0F
b00000000000000000000000000000100 K
b00000000000000000000000000000010 _
#21
1F
b00000000000000000000000000000100 x
b00000000000000000000000000000010 9
b00000000000000000000000000001010 J
b00000000000000000000000000000100 N
b00000000000000000000000000000100 o
#26
0F
b00000000000000000000000000000010 K
b00000000000000000000000000000011 ]
b00000000000000000000000000010000 N
b00000000000000000000000000000001 _
#31
1F
b00000000000000000000000000010000 f
b00000000000000000000000000010000 I
b00000000000000000000000000000101 J
b00000000000000000000000000001101 M
b00000000000000000000000000001110 N
b00000000000000000000000000001010 n
b00000000000000000000000000000011 /
b00000000000000000000000000001010 O
b00000000000000000000000000000010 o
b00000000000000000000000000010000 t
b00000000000000000000000000001010 v
b00000000000000000000000000000010 x
b00000000000000000000000000000001 9
b00000000000000000000000000000010 :
#36
0F
b00000000000000000000000000010010 I
b00000000000000000000000000000110 K
b00000000000000000000000000000101 ]
b00000000000000000000000000010110 N
b00000000000000000000000000000001 ^
b00000000000000000000000000000011 _
#41
1F
b00000000000000000000000000010000 H
b00000000000000000000000000011000 I
b00000000000000000000000000001111 J
b00000000000000000000000000010011 L
b00000000000000000000000000001010 M
b00000000000000000000000000011010 N
b00000000000000000000000000000101 O
b00000000000000000000000000001101 d
b00000000000000000000000000010110 f
b00000000000000000000000000000001 ,
b00000000000000000000000000010010 l
b00000000000000000000000000001010 m
b00000000000000000000000000000101 n
b00000000000000000000000000000101 /
b00000000000000000000000000000110 o
b00000000000000000000000000000011 0
b00000000000000000000000000010010 3
b00000000000000000000000000010110 t
b00000000000000000000000000001101 u
b00000000000000000000000000000101 v
b00000000000000000000000000001010 w
b00000000000000000000000000000110 x
b00000000000000000000000000000011 9
b00000000000000000000000000000001 :
b00000000000000000000000000010010 z
b00000000000000000000000000000010 ;
#46
0F
b00000000000000000000000000011110 I
b00000000000000000000000000000000 K
b00000000000000000000000000000100 ]
b00000000000000000000000000010110 N
b00000000000000000000000000000100 ^
b00000000000000000000000000000000 _
#51
1F
b00000000000000000000000000010100 G
b00000000000000000000000000010110 H
b00000000000000000000000000000000 J
b00000000000000000000000000010100 L
b00000000000000000000000000010011 M
b00000000000000000000000000010000 N
b00000000000000000000000000001111 O
b00000000000000000000000000010011 c
b00000000000000000000000000001010 d
b00000000000000000000000000010000 j
b00000000000000000000000000000100 ,
b00000000000000000000000000011110 l
b00000000000000000000000000000001 -
b00000000000000000000000000000101 m
b00000000000000000000000000001111 n
b00000000000000000000000000000100 /
b00000000000000000000000000000000 o
b00000000000000000000000000000101 0
b00000000000000000000000000000011 1
b00000000000000000000000000011110 3
b00000000000000000000000000010011 s
b00000000000000000000000000010000 4
b00000000000000000000000000001010 u
b00000000000000000000000000001111 v
b00000000000000000000000000000101 w
b00000000000000000000000000000000 x
b00000000000000000000000000000000 9
b00000000000000000000000000010000 y
b00000000000000000000000000000011 :
b00000000000000000000000000011110 z
b00000000000000000000000000000001 ;
#56
0F
b00000000000000000000000000011000 I
b00000000000000000000000000000000 ]
b00000000000000000000000000000000 N
b00000000000000000000000000000001 ^
#61
1F
b00000000000000000000000000011000 G
b00000000000000000000000000000010 I
b00000000000000000000000000011011 L
b00000000000000000000000000000000 M
b00000000000000000000000000000000 O
b00000000000000000000000000010100 c
b00000000000000000000000000010011 d
b00000000000000000000000000000000 f
b00000000000000000000000000010110 j
b00000000000000000000000000000001 +
b00000000000000000000000000010100 k
b00000000000000000000000000000001 ,
b00000000000000000000000000011000 l
b00000000000000000000000000000100 -
b00000000000000000000000000001111 m
b00000000000000000000000000000000 n
b00000000000000000000000000000000 /
b00000000000000000000000000000100 0
b00000000000000000000000000000101 1
b00000000000000000000000000010100 2
b00000000000000000000000000011000 3
b00000000000000000000000000010100 s
b00000000000000000000000000010110 4
b00000000000000000000000000000000 t
b00000000000000000000000000010011 u
b00000000000000000000000000000000 v
b00000000000000000000000000001111 w
b00000000000000000000000000010110 y
b00000000000000000000000000000000 :
b00000000000000000000000000011000 z
b00000000000000000000000000000011 ;
b00000000000000000000000000010100 {
#66
0F
b00000000000000000000000000000000 I
b00000000000000000000000000000000 ^
#71
b00000000000000000000000000011011 c
b00000000000000000000000000000000 d
1F
b00000000000000000000000000011100 G
b00000000000000000000000000000000 H
b00000000000000000000000000000100 +
b00000000000000000000000000011000 k
b00000000000000000000000000000000 ,
b00000000000000000000000000000000 L
b00000000000000000000000000000000 l
b00000000000000000000000000000001 -
b00000000000000000000000000000000 m
b00000000000000000000000000000000 0
b00000000000000000000000000000100 1
b00000000000000000000000000011000 2
b00000000000000000000000000000000 3
b00000000000000000000000000011011 s
b00000000000000000000000000000000 u
b00000000000000000000000000000000 w
b00000000000000000000000000000000 z
b00000000000000000000000000000000 ;
b00000000000000000000000000011000 {
#76
0F
#81
b00000000000000000000000000000000 c
1F
b00000000000000000000000000000000 G
b00000000000000000000000000000000 j
b00000000000000000000000000000001 +
b00000000000000000000000000011100 k
b00000000000000000000000000000000 -
b00000000000000000000000000000000 1
b00000000000000000000000000011100 2
b00000000000000000000000000000000 s
b00000000000000000000000000000000 4
b00000000000000000000000000000000 y
b00000000000000000000000000011100 {
#86
0F
#91
b00000000000000000000000000000000 2
1F
b00000000000000000000000000000000 +
b00000000000000000000000000000000 k
b00000000000000000000000000000000 {
#96
b00000000000000000000000000000000 @
b00000000000000000000000000000000 A
b00000000000000000000000000000000 B
b00000000000000000000000000000000 5
b00000000000000000000000000000000 6
0F
b00000000000000000000000000000000 7
b00000000000000000000000000000000 8
b00000000000000000000000000000000 <
b00000000000000000000000000000000 .
