test_run_dir/TPU_test_should_smult_rand/ChiselTPU.vcd
$date
2023-03-14T07:19+0000
$end
$version
0.2
$end
$comment

$end
$timescale 1ns  $end
$scope module ChiselTPU $end
 $var wire 32 ! myOut_1_2 $end
 $var wire 32 " myOut_1_1 $end
 $var wire 32 # myOut_1_0 $end
 $var wire 32 $ myOut_1_3 $end
 $var wire 32 ' io_a_bits_0_0 $end
 $var wire 32 * paddedA_1_0 $end
 $var wire 32 + paddedA_1_1 $end
 $var wire 32 , paddedA_1_2 $end
 $var wire 32 - paddedA_1_3 $end
 $var wire 1 . io_a_ready $end
 $var wire 32 1 io_b_bits_0_3 $end
 $var wire 32 2 io_b_bits_0_2 $end
 $var wire 3 3 state $end
 $var wire 32 4 io_b_bits_0_1 $end
 $var wire 32 5 io_b_bits_0_0 $end
 $var wire 32 8 paddedB_3_3 $end
 $var wire 32 9 paddedB_3_1 $end
 $var wire 32 : paddedB_3_2 $end
 $var wire 32 ; paddedB_3_0 $end
 $var wire 1 < b_ready $end
 $var wire 32 = io_out_0_0 $end
 $var wire 32 > io_out_0_1 $end
 $var wire 32 ? io_out_0_2 $end
 $var wire 32 @ io_out_0_3 $end
 $var wire 32 A slicedB_1_1 $end
 $var wire 32 B slicedB_1_0 $end
 $var wire 1 C a_ready $end
 $var wire 32 D slicedOut_0_0 $end
 $var wire 32 E slicedOut_0_1 $end
 $var wire 32 F myOut_0_3 $end
 $var wire 32 G myOut_0_2 $end
 $var wire 32 H myOut_0_1 $end
 $var wire 32 I myOut_0_0 $end
 $var wire 1 N allowReadB $end
 $var wire 32 P io_a_bits_1_3 $end
 $var wire 32 Q io_a_bits_1_2 $end
 $var wire 32 R io_a_bits_1_1 $end
 $var wire 32 S io_a_bits_1_0 $end
 $var wire 1 W wrap_wrap_1 $end
 $var wire 32 X paddedA_0_1 $end
 $var wire 32 Y paddedA_0_2 $end
 $var wire 32 Z paddedA_0_3 $end
 $var wire 32 [ paddedA_0_0 $end
 $var wire 1 \ systArr $end
 $var wire 32 ] slicedA_0_1 $end
 $var wire 32 ^ slicedA_0_0 $end
 $var wire 32 f paddedB_2_2 $end
 $var wire 32 g paddedB_2_3 $end
 $var wire 32 h paddedB_2_0 $end
 $var wire 32 i paddedB_2_1 $end
 $var wire 1 j printf_9 $end
 $var wire 1 k printf_8 $end
 $var wire 1 l printf_7 $end
 $var wire 1 m printf_6 $end
 $var wire 1 n printf_1 $end
 $var wire 1 o printf_5 $end
 $var wire 1 p printf_4 $end
 $var wire 1 q printf_3 $end
 $var wire 1 r printf_2 $end
 $var wire 1 s printf $end
 $var wire 32 t io_a_bits_0_3 $end
 $var wire 32 u io_a_bits_0_2 $end
 $var wire 32 v io_a_bits_0_1 $end
 $var wire 32 w io_b_bits_3_0 $end
 $var wire 32 x io_b_bits_3_2 $end
 $var wire 32 y paddedOut_1_3 $end
 $var wire 32 z io_b_bits_3_1 $end
 $var wire 32 { paddedOut_1_2 $end
 $var wire 32 | paddedOut_1_1 $end
 $var wire 32 } io_b_bits_3_3 $end
 $var wire 32 ~ paddedOut_1_0 $end
 $var wire 32 "! slicedOut_1_0 $end
 $var wire 32 "" slicedOut_1_1 $end
 $var wire 32 "# cycleIdx $end
 $var wire 1 "$ printf_20 $end
 $var wire 1 "% printf_17 $end
 $var wire 1 "& printf_18 $end
 $var wire 1 "' printf_19 $end
 $var wire 1 "( printf_13 $end
 $var wire 1 ") printf_14 $end
 $var wire 1 "* printf_15 $end
 $var wire 1 "+ printf_16 $end
 $var wire 1 ", printf_10 $end
 $var wire 1 "- printf_11 $end
 $var wire 1 ". printf_12 $end
 $var wire 1 "/ io_b_ready $end
 $var wire 1 "1 io_a_valid $end
 $var wire 1 "2 enabledSyst $end
 $var wire 1 "5 clock $end
 $var wire 32 "6 paddedB_1_3 $end
 $var wire 32 "7 paddedB_1_1 $end
 $var wire 32 "8 paddedB_1_2 $end
 $var wire 32 "9 paddedB_1_0 $end
 $var wire 1 "= counterFlag $end
 $var wire 1 "> wrap_wrap $end
 $var wire 4 "? boundK $end
 $var wire 4 "@ boundM $end
 $var wire 32 "A paddedOut_0_3 $end
 $var wire 4 "B boundN $end
 $var wire 32 "C paddedOut_0_2 $end
 $var wire 32 "D paddedOut_0_1 $end
 $var wire 32 "E paddedOut_0_0 $end
 $var wire 1 "F reset $end
 $var wire 32 "H io_b_bits_2_1 $end
 $var wire 32 "I io_b_bits_2_0 $end
 $var wire 32 "J io_b_bits_2_3 $end
 $var wire 32 "K io_b_bits_2_2 $end
 $var wire 32 "L slicedA_1_1 $end
 $var wire 32 "M slicedA_1_0 $end
 $var wire 10 "N totalCycle $end
 $var wire 2 "P sliceCycle $end
 $var wire 4 "Q cycle $end
 $var wire 1 "R actReg $end
 $var wire 32 "S paddedB_0_2 $end
 $var wire 32 "T paddedB_0_3 $end
 $var wire 32 "U paddedB_0_0 $end
 $var wire 32 "V paddedB_0_1 $end
 $var wire 1 "W io_b_valid $end
 $var wire 32 "Y io_out_1_0 $end
 $var wire 32 "Z io_out_1_1 $end
 $var wire 32 "[ io_out_1_2 $end
 $var wire 32 "\ io_out_1_3 $end
 $var wire 32 "] slicedB_0_1 $end
 $var wire 32 "^ slicedB_0_0 $end
 $var wire 32 "_ io_b_bits_1_2 $end
 $var wire 32 "` io_b_bits_1_1 $end
 $var wire 32 "a io_b_bits_1_3 $end
 $var wire 32 "b io_b_bits_1_0 $end
  $scope module systArr $end
   $var wire 32 % b_reg_1_0 $end
   $var wire 32 & b_reg_1_1 $end
   $var wire 32 ( cmp_input_1_1 $end
   $var wire 32 ) cmp_input_1_0 $end
   $var wire 32 / io_b_in_1_0 $end
   $var wire 32 0 io_b_in_1_1 $end
   $var wire 32 6 cms_reg_1_1 $end
   $var wire 32 7 cms_reg_1_0 $end
   $var wire 32 J io_a_in_0 $end
   $var wire 32 K io_a_in_1 $end
   $var wire 32 L b_reg_0_0 $end
   $var wire 32 M b_reg_0_1 $end
   $var wire 32 O cmp_input_0_0 $end
   $var wire 32 T io_out_1 $end
   $var wire 32 U io_out_0 $end
   $var wire 32 V cmp_input_0_1 $end
   $var wire 32 _ cms_reg_0_0 $end
   $var wire 32 ` cms_reg_0_1 $end
   $var wire 32 c io_b_in_0_0 $end
   $var wire 32 d io_b_in_0_1 $end
   $var wire 32 e a_reg_0_0 $end
   $var wire 32 "< a_reg_1_0 $end
   $var wire 1 "G io_b_readingin $end
   $var wire 1 "O clock $end
   $var wire 1 "X io_en $end
  $upscope $end
  $scope module actReg $end
   $var wire 32 a io_a_1_1 $end
   $var wire 32 b io_a_1_0 $end
   $var wire 3 "0 io_index $end
   $var wire 32 "3 io_a_out_1 $end
   $var wire 32 "4 io_a_out_0 $end
   $var wire 32 ": io_a_0_1 $end
   $var wire 32 "; io_a_0_0 $end
  $upscope $end
$upscope $end
$enddefinitions $end
$dumpvars
b00000000000000000000000000000000 +
b00000000000000000000000000000000 *
b00000000000000000000000000000000 -
b00000000000000000000000000000000 ,
b00000000000000000000000000000000 "3
b00000000000000000000000000000000 '
b00000000000000000000000000000000 &
b00000000000000000000000000000000 )
b00000000000000000000000000000000 (
b00000000000000000000000000000000 #
b00000000000000000000000000000000 "
b00000000000000000000000000000000 %
b00000000000000000000000000000000 $
0<
b00000000000000000000000000000000 !
b00000000000000000000000000000000 ;
b00000000000000000000000000000000 :
b00000000000000000000000000000000 =
b00000000000000000000000000000000 "<
0C
b00000000000000000000000000000000 "C
b00000000000000000000000000000000 7
b00000000000000000000000000000000 6
b00000000000000000000000000000000 "A
b00000000000000000000000000000000 9
b00000000000000000000000000000000 8
b00000000000000000000000000000000 "7
b00000000000000000000000000000000 "6
b00000000000000000000000000000000 2
b00000000000000000000000000000000 5
b00000000000000000000000000000000 "4
b00000000000000000000000000000000 4
b00000000000000000000000000000000 ";
b00000000000000000000000000000000 /
b00000000000000000000000000000000 ":
b00000000000000000000000000000000 "9
0N
b00000000000000000000000000000000 1
b00000000000000000000000000000000 "8
b00000000000000000000000000000000 0
b00000000000000000000000000000000 "M
b00000000000000000000000000000000 "L
b0000000000 "N
b00000000000000000000000000000000 "S
0W
b00000000000000000000000000000000 "E
b00000000000000000000000000000000 "D
b00000000000000000000000000000000 "K
0\
b00000000000000000000000000000000 "J
b00000000000000000000000000000000 "I
b00000000000000000000000000000000 "H
b00000000000000000000000000000000 "_
b00000000000000000000000000000000 "^
b00000000000000000000000000000000 "]
b00000000000000000000000000000000 "\
b00000000000000000000000000000000 "b
b00000000000000000000000000000000 "a
b00000000000000000000000000000000 "`
b00000000000000000000000000000000 "V
b00000000000000000000000000000000 "U
0j
b00000000000000000000000000000000 "T
0k
b00000000000000000000000000000000 "[
0l
b00000000000000000000000000000000 "Z
0m
b00000000000000000000000000000000 "Y
0n
0o
0p
0q
0r
0s
0"$
0"%
b00000000000000000000000000000000 "#
0"&
b00000000000000000000000000000000 ""
0"'
b00000000000000000000000000000000 "!
0"(
0")
0"*
0"+
0",
0"-
0".
0"/
0"1
0"2
0"5
0"=
0">
0"F
0"G
b00 "P
0"O
0"R
0"W
0"X
b00000000000000000000000000000000 ~
b00000000000000000000000000000000 g
b00000000000000000000000000000000 f
b00000000000000000000000000000000 i
b00000000000000000000000000000000 h
b00000000000000000000000000000000 c
b00000000000000000000000000000000 b
b00000000000000000000000000000000 e
b00000000000000000000000000000000 d
b00000000000000000000000000000000 _
b00000000000000000000000000000000 ^
b00000000000000000000000000000000 a
b00000000000000000000000000000000 `
b00000000000000000000000000000000 {
b00000000000000000000000000000000 z
b00000000000000000000000000000000 }
b00000000000000000000000000000000 |
b000 3
b00000000000000000000000000000000 w
b00000000000000000000000000000000 v
b00000000000000000000000000000000 y
b00000000000000000000000000000000 x
b0000 "?
b00000000000000000000000000000000 u
b00000000000000000000000000000000 t
b0000 "@
b0000 "B
b00000000000000000000000000000000 K
b00000000000000000000000000000000 J
b00000000000000000000000000000000 M
b00000000000000000000000000000000 L
b00000000000000000000000000000000 G
b00000000000000000000000000000000 F
b000 "0
b00000000000000000000000000000000 I
b00000000000000000000000000000000 H
b00000000000000000000000000000000 B
b00000000000000000000000000000000 E
b00000000000000000000000000000000 D
b0000 "Q
b00000000000000000000000000000000 ?
b00000000000000000000000000000000 >
b00000000000000000000000000000000 A
b00000000000000000000000000000000 @
b00000000000000000000000000000000 [
b00000000000000000000000000000000 Z
b00000000000000000000000000000000 ]
b00000000000000000000000000000000 V
b00000000000000000000000000000000 Y
b00000000000000000000000000000000 X
b00000000000000000000000000000000 S
b00000000000000000000000000000000 R
b00000000000000000000000000000000 U
b00000000000000000000000000000000 T
b00000000000000000000000000000000 O
0.
b00000000000000000000000000000000 Q
b00000000000000000000000000000000 P
$end
#0
1"F
b011 "0
#1
1C
1"5
1<
1"/
1"O
1.
#6
b00000000000000000000000000001101 "b
1"1
b00000000000000000000000000010111 P
b00000000000000000000000000001111 Q
b00000000000000000000000000001110 R
b00000000000000000000000000010001 S
0"5
b00000000000000000000000000001111 ":
b00000000000000000000000000010110 ";
b00000000000000000000000000001110 a
b00000000000000000000000000010001 b
0"F
b00000000000000000000000000000011 "H
b00000000000000000000000000010110 '
b00000000000000000000000000000110 "I
b00000000000000000000000000000010 "J
b00000000000000000000000000010100 "K
0"O
b00000000000000000000000000010110 1
b00000000000000000000000000010110 2
b00000000000000000000000000011011 4
b00000000000000000000000000000100 t
b00000000000000000000000000001010 5
b00000000000000000000000000010110 u
1"W
b00000000000000000000000000001111 v
b00000000000000000000000000001101 w
b00000000000000000000000000000110 x
b00000000000000000000000000011010 z
b00000000000000000000000000000101 }
b00000000000000000000000000011011 "_
b00000000000000000000000000011011 "`
b00000000000000000000000000010111 "a
#11
b00000000000000000000000000000000 a
b00000000000000000000000000000000 b
0C
b00000000000000000000000000001010 c
b00000000000000000000000000011011 d
b00000000000000000000000000010001 *
b00000000000000000000000000001110 +
b00000000000000000000000000001111 ,
b0000000001 "N
b00000000000000000000000000010111 -
1"O
0.
b00000000000000000000000000001101 /
b00000000000000000000000000011011 0
b001 3
1"5
b00000000000000000000000000001111 X
b00000000000000000000000000000000 ":
b00000000000000000000000000010110 Y
b00000000000000000000000000000000 ";
b00000000000000000000000000000100 Z
b00000000000000000000000000010110 [
1"=
#16
0"5
0"O
#21
0"/
1N
1"5
b00000000000000000000000000010111 "6
b00000000000000000000000000011011 "7
b00000000000000000000000000011011 "8
b00000000000000000000000000001101 "9
b00000000000000000000000000001111 ":
b00000000000000000000000000010110 ";
0"=
b00000000000000000000000000001111 ]
b00000000000000000000000000010110 ^
b00000000000000000000000000001110 a
b00000000000000000000000000010001 b
b00000000000000000000000000000000 c
b00000000000000000000000000000000 d
1"G
b00000000000000000000000000010100 f
b00000000000000000000000000000010 g
b00000000000000000000000000000110 h
b00000000000000000000000000000011 i
b00000000000000000000000000001110 "L
b00000000000000000000000000010001 "M
b0000000010 "N
1"O
b00000000000000000000000000000000 /
b00000000000000000000000000000000 0
b00000000000000000000000000010110 "S
b00000000000000000000000000010110 "T
b00000000000000000000000000001010 "U
b00000000000000000000000000011011 "V
b00000000000000000000000000000101 8
b00000000000000000000000000011010 9
b00000000000000000000000000000110 :
b00000000000000000000000000001101 ;
0<
#26
0"5
0"O
#31
b00000000000000000000000000011011 A
b00000000000000000000000000001101 B
b00000000000000000000000000001010 c
b00000000000000000000000000011011 d
b0000000011 "N
1"O
b11 "P
b00000000000000000000000000001101 /
b00000000000000000000000000011011 0
b010 3
1"5
b00000000000000000000000000011011 "]
b00000000000000000000000000001010 "^
b0010 "?
#36
0"5
0"O
#41
b00000000000000000000000000011010 A
b00000000000000000000000000010111 a
b00000000000000000000000000001111 b
b00000000000000000000000000000110 c
b00000000000000000000000000000011 d
b00000000000000000000000000010111 "L
b00000000000000000000000000001111 "M
b0000000100 "N
1"O
b00 "P
b00000000000000000000000000011010 0
b011 3
1"5
b00000000000000000000000000000100 ":
1"=
b00000000000000000000000000000011 "]
b00000000000000000000000000000110 "^
b00000000000000000000000000000100 ]
b0000 "?
#46
0"5
0"O
#51
b00000000000000000000000000011011 A
b00000000000000000000000000001110 a
b00000000000000000000000000010001 b
b00000000000000000000000000001010 c
b00000000000000000000000000011011 d
b00000000000000000000000000001110 "L
b00000000000000000000000000010001 "M
b0000000101 "N
1"O
b00000000000000000000000000011011 0
1"2
1"5
1"X
b00000000000000000000000000001111 ":
b00000000000000000000000000011011 "]
b00000000000000000000000000001010 "^
b00000000000000000000000000001111 ]
#56
0"5
0"O
#61
b00000000000000000000000000000001 "#
b00000000000000000000000000001101 %
b00000000000000000000000000011011 &
b00000000000000000000000000010110 J
b00000000000000000000000000001010 L
b0000000110 "N
b00000000000000000000000000011011 M
1"O
b010 "0
b00000000000000000000000011011100 O
b0001 "Q
b00000000000000000000000000010110 "4
1"5
#66
0"5
0"O
#71
b00000000000000000000000000000010 "#
b00000000000000000000000000010110 e
0"G
b00000000000000000000000110011111 )
b00000000000000000000000000010001 J
b00000000000000000000000000001111 K
b0000000111 "N
1"O
0N
b001 "0
b00000000000000000000000010101010 O
b0010 "Q
b00000000000000000000000000001111 "3
b00000000000000000000000000010001 "4
1"5
b00000000000000000000001001010010 V
b00000000000000000000000011011100 _
#76
0"5
0"O
#81
b00000000000000000000001001010010 `
b00000000000000000000000000000000 "#
b00000000000000000000000000010001 e
b00000000000000000000001111100111 (
b00000000000000000000000101100000 )
b00000000000000000000000000000000 J
b00000000000000000000000000001110 K
b0000001000 "N
1"O
b000 "0
b00000000000000000000000000000000 O
b0011 "Q
b00000000000000000000000000001110 "3
b00000000000000000000000000000000 "4
1"5
b00000000000000000000000110011111 U
b00000000000000000000000111001011 V
b00000000000000000000000110011111 7
b00000000000000000000000000001111 "<
b00000000000000000000000010101010 _
#86
0"5
0"O
#91
b00000000000000000000000111001011 `
b00000000000000000000000000000001 "#
b00000000000000000000000000000000 e
b00000000000000000000001101000101 (
b00000000000000000000000000000000 )
b00000000000000000000000000000000 K
b0000001001 "N
1"O
b111 "0
b0100 "Q
b00000000000000000000000000000000 "3
1"5
b00000000000000000000001111100111 T
b00000000000000000000000101100000 U
b00000000000000000000001111100111 6
b00000000000000000000000000000000 V
b00000000000000000000000101100000 7
b00000000000000000000000000001110 "<
b00000000000000000000000000000000 _
b00000000000000000000000110011111 "!
#96
0"5
0"O
#101
b00000000000000000000000000000000 `
b00000000000000000000001111100111 ""
b00000000000000000000000000000010 "#
b00000000000000000000000110011111 D
b00000000000000000000000000000000 (
b0000001010 "N
1"O
b110 "0
b0101 "Q
1"5
b00000000000000000000001101000101 T
b00000000000000000000000000000000 U
b00000000000000000000001101000101 6
b00000000000000000000000000000000 7
b00000000000000000000000000000000 "<
b00000000000000000000000101100000 "!
#106
0"5
0"O
#111
b00000000000000000000001101000101 ""
b00000000000000000000000000000011 "#
1"5
b00000000000000000000000000000000 T
b00000000000000000000001111100111 E
b00000000000000000000000000000000 6
b0000001011 "N
1"O
b101 "0
b0110 "Q
#116
0"5
0"O
#121
b00000000000000000000000000000100 "#
1"5
b0000001100 "N
1"O
b100 "0
b0111 "Q
#126
0"5
0"O
#131
b00000000000000000000000000000101 "#
1"5
b0000001101 "N
1"O
b011 "0
b1000 "Q
#136
0"5
0"O
#141
b00000000000000000000000000000110 "#
b00000000000000000000000000010110 "4
1"5
b00000000000000000000000000010110 J
b0000001110 "N
1"O
b010 "0
b00000000000000000000000011011100 O
b1001 "Q
#146
0"5
0"O
#151
b00000000000000000000000000000111 "#
b00000000000000000000000000010110 e
b00000000000000000000000110011111 )
b00000000000000000000000000010001 J
b00000000000000000000000000001111 K
b0000001111 "N
1"O
b001 "0
b00000000000000000000000010101010 O
b1010 "Q
b00000000000000000000000000001111 "3
b00000000000000000000000000010001 "4
1"5
b00000000000000000000001001010010 V
1">
b00000000000000000000000011011100 _
#156
0"5
0"O
#161
b00000000000000000000000000000000 "#
b00000000000000000000001111100111 H
b00000000000000000000000110011111 I
b00000000000000000000000000000000 J
b00000000000000000000000000000000 K
b011 "0
b00000000000000000000000000000000 O
b00000000000000000000000000000000 "3
b00000000000000000000000000000000 "4
1"5
b00000000000000000000000110011111 U
b00000000000000000000000111001011 V
b00000000000000000000000000001111 "<
0"=
0">
b00000000000000000000000010101010 _
b00000000000000000000001001010010 `
b00000000000000000000001101000101 "
b00000000000000000000001111100111 "D
b00000000000000000000000101100000 #
b00000000000000000000000110011111 "E
b00000000000000000000000000010001 e
b00000000000000000000001111100111 (
b00000000000000000000000010101010 )
b0000010000 "N
1"O
b0000 "Q
b010 3
b00000000000000000000000110011111 7
b00000000000000000000000101100000 "Y
b00000000000000000000001101000101 "Z
b00000000000000000000001101000101 |
b00000000000000000000000110011111 =
b00000000000000000000001111100111 >
b00000000000000000000000101100000 ~
#166
0"5
0"O
#171
b00000000000000000000000111001011 `
b00000000000000000000000000000000 ""
b00000000000000000000000000000000 D
b00000000000000000000000000000000 E
b00000000000000000000000000000000 e
b00000000000000000000000111001011 (
b00000000000000000000000000000000 )
b0000010001 "N
1"O
b01 "P
0"2
b011 3
1"5
b00000000000000000000000000000000 U
b00000000000000000000001111100111 6
b00000000000000000000000000000000 V
0"X
b00000000000000000000000010101010 7
b00000000000000000000000000000000 "<
1"=
b0010 "?
b00000000000000000000000000000000 _
b00000000000000000000000000000000 "!
#176
0"5
0"O
#181
b00000000000000000000000000000000 `
b00000000000000000000000000011010 A
b00000000000000000000000000010111 a
b00000000000000000000000000001111 b
b00000000000000000000000000000110 c
b00000000000000000000000000000011 d
1"G
b00000000000000000000000000000000 (
b00000000000000000000000000010111 "L
b00000000000000000000000000001111 "M
b0000010010 "N
1"O
1N
b00000000000000000000000000011010 0
1"2
1"5
b00000000000000000000000000000000 6
1"X
b00000000000000000000000000000000 7
b00000000000000000000000000000100 ":
b00000000000000000000000000000011 "]
b00000000000000000000000000000110 "^
b00000000000000000000000000000100 ]
#186
0"5
0"O
#191
b00000000000000000000000000000001 "#
b00000000000000000000000000011010 &
b00000000000000000000000000010110 J
b00000000000000000000000000000110 L
b0000010011 "N
b00000000000000000000000000000011 M
1"O
b010 "0
b00000000000000000000000010000100 O
b0001 "Q
b00000000000000000000000000010110 "4
1"5
#196
0"5
0"O
#201
b00000000000000000000000000000010 "#
b00000000000000000000000000010110 e
0"G
b00000000000000000000000010111000 )
b00000000000000000000000000001111 J
b00000000000000000000000000000100 K
b0000010100 "N
1"O
0N
b001 "0
b00000000000000000000000001011010 O
b0010 "Q
b00000000000000000000000000000100 "3
b00000000000000000000000000001111 "4
1"5
b00000000000000000000000001000010 V
b00000000000000000000000010000100 _
#206
0"5
0"O
#211
b00000000000000000000000001000010 `
b00000000000000000000000000000000 "#
b00000000000000000000000000001111 e
b00000000000000000000000010101010 (
b00000000000000000000000110000101 )
b00000000000000000000000000000000 J
b00000000000000000000000000010111 K
b0000010101 "N
1"O
b000 "0
b00000000000000000000000000000000 O
b0011 "Q
b00000000000000000000000000010111 "3
b00000000000000000000000000000000 "4
1"5
b00000000000000000000000010111000 U
b00000000000000000000000000101101 V
b00000000000000000000000010111000 7
b00000000000000000000000000000100 "<
b00000000000000000000000001011010 _
#216
0"5
0"O
#221
b00000000000000000000000000101101 `
b00000000000000000000000000000001 "#
b00000000000000000000000000000000 e
b00000000000000000000001010000011 (
b00000000000000000000000000000000 )
b00000000000000000000000000000000 K
b0000010110 "N
1"O
b111 "0
b0100 "Q
b00000000000000000000000000000000 "3
1"5
b00000000000000000000000010101010 T
b00000000000000000000000110000101 U
b00000000000000000000000010101010 6
b00000000000000000000000000000000 V
b00000000000000000000000110000101 7
b00000000000000000000000000010111 "<
b00000000000000000000000000000000 _
b00000000000000000000000010111000 "!
#226
0"5
0"O
#231
b00000000000000000000000000000000 `
b00000000000000000000000010101010 ""
b00000000000000000000000000000010 "#
b00000000000000000000000010111000 D
b00000000000000000000000000000000 (
b0000010111 "N
1"O
b110 "0
b0101 "Q
1"5
b00000000000000000000001010000011 T
b00000000000000000000000000000000 U
b00000000000000000000001010000011 6
b00000000000000000000000000000000 7
b00000000000000000000000000000000 "<
b00000000000000000000000110000101 "!
#236
0"5
0"O
#241
b00000000000000000000001010000011 ""
b00000000000000000000000000000011 "#
1"5
b00000000000000000000000000000000 T
b00000000000000000000000010101010 E
b00000000000000000000000000000000 6
b0000011000 "N
1"O
b101 "0
b0110 "Q
#246
0"5
0"O
#251
b00000000000000000000000000000100 "#
1"5
b0000011001 "N
1"O
b100 "0
b0111 "Q
#256
0"5
0"O
#261
b00000000000000000000000000000101 "#
1"5
b0000011010 "N
1"O
b011 "0
b1000 "Q
#266
0"5
0"O
#271
b00000000000000000000000000000110 "#
b00000000000000000000000000010110 "4
1"5
b00000000000000000000000000010110 J
b0000011011 "N
1"O
b010 "0
b00000000000000000000000010000100 O
b1001 "Q
#276
0"5
0"O
#281
b00000000000000000000000000000111 "#
b00000000000000000000000000010110 e
b00000000000000000000000010111000 )
b00000000000000000000000000001111 J
b00000000000000000000000000000100 K
b0000011100 "N
1"O
b001 "0
b00000000000000000000000001011010 O
b1010 "Q
b00000000000000000000000000000100 "3
b00000000000000000000000000001111 "4
1"5
b00000000000000000000000001000010 V
1">
b00000000000000000000000010000100 _
#286
0"5
0"O
#291
b00000000000000000000000000000000 "#
b00000000000000000000010010010001 H
b00000000000000000000001001010111 I
b00000000000000000000000000000000 J
b00000000000000000000000000000000 K
b011 "0
b00000000000000000000000000000000 O
b00000000000000000000000000000000 "3
b00000000000000000000000000000000 "4
1"5
b00000000000000000000000010111000 U
b00000000000000000000000000101101 V
b00000000000000000000000000000100 "<
0"=
0">
b00000000000000000000000001011010 _
b00000000000000000000000001000010 `
b00000000000000000000010111001000 "
b00000000000000000000010010010001 "D
b00000000000000000000001011100101 #
b00000000000000000000001001010111 "E
b00000000000000000000000000001111 e
b00000000000000000000000010101010 (
b00000000000000000000000001011010 )
b0000011101 "N
1"O
b0000 "Q
b010 3
b00000000000000000000000010111000 7
b00000000000000000000001011100101 "Y
b00000000000000000000010111001000 "Z
b00000000000000000000010111001000 |
b00000000000000000000001001010111 =
b00000000000000000000010010010001 >
b00000000000000000000001011100101 ~
#296
0"5
0"O
#301
b00000000000000000000000000101101 `
b00000000000000000000000000000000 ""
b00000000000000000000000000000000 D
b00000000000000000000000000000000 E
b00000000000000000000000000000000 e
b00000000000000000000000000101101 (
b00000000000000000000000000000000 )
b0000011110 "N
1"O
b10 "P
0"2
b011 3
1"5
b00000000000000000000000000000000 U
b00000000000000000000000010101010 6
b00000000000000000000000000000000 V
0"X
b00000000000000000000000001011010 7
b00000000000000000000000000000000 "<
1"=
b0000 "?
b00000000000000000000000000000000 _
b00000000000000000000000000000000 "!
#306
0"5
0"O
#311
b00000000000000000000000000000000 `
b00000000000000000000000000011011 A
b00000000000000000000000000001110 a
b00000000000000000000000000010001 b
b00000000000000000000000000001010 c
b00000000000000000000000000011011 d
1"G
b00000000000000000000000000000000 (
b00000000000000000000000000001110 "L
b00000000000000000000000000010001 "M
b0000011111 "N
1"O
1N
b00000000000000000000000000011011 0
1"2
1"5
b00000000000000000000000000000000 6
1"X
b00000000000000000000000000000000 7
b00000000000000000000000000001111 ":
b00000000000000000000000000011011 "]
b00000000000000000000000000001010 "^
b00000000000000000000000000001111 ]
#316
0"5
0"O
#321
b00000000000000000000000000000001 "#
b00000000000000000000000000011011 &
b00000000000000000000000000010110 J
b00000000000000000000000000001010 L
b0000100000 "N
b00000000000000000000000000011011 M
1"O
b010 "0
b00000000000000000000000011011100 O
b0001 "Q
b00000000000000000000000000010110 "4
1"5
#326
0"5
0"O
#331
b00000000000000000000000000000010 "#
b00000000000000000000000000010110 e
0"G
b00000000000000000000000110011111 )
b00000000000000000000000000010001 J
b00000000000000000000000000001111 K
b0000100001 "N
1"O
0N
b001 "0
b00000000000000000000000010101010 O
b0010 "Q
b00000000000000000000000000001111 "3
b00000000000000000000000000010001 "4
1"5
b00000000000000000000001001010010 V
b00000000000000000000000011011100 _
#336
0"5
0"O
#341
b00000000000000000000001001010010 `
b00000000000000000000000000000000 "#
b00000000000000000000000000010001 e
b00000000000000000000001111100111 (
b00000000000000000000000101100000 )
b00000000000000000000000000000000 J
b00000000000000000000000000001110 K
b0000100010 "N
1"O
b000 "0
b00000000000000000000000000000000 O
b0011 "Q
b00000000000000000000000000001110 "3
b00000000000000000000000000000000 "4
1"5
b00000000000000000000000110011111 U
b00000000000000000000000111001011 V
b00000000000000000000000110011111 7
b00000000000000000000000000001111 "<
b00000000000000000000000010101010 _
#346
0"5
0"O
#351
b00000000000000000000000111001011 `
b00000000000000000000000000000001 "#
b00000000000000000000000000000000 e
b00000000000000000000001101000101 (
b00000000000000000000000000000000 )
b00000000000000000000000000000000 K
b0000100011 "N
1"O
b111 "0
b0100 "Q
b00000000000000000000000000000000 "3
1"5
b00000000000000000000001111100111 T
b00000000000000000000000101100000 U
b00000000000000000000001111100111 6
b00000000000000000000000000000000 V
b00000000000000000000000101100000 7
b00000000000000000000000000001110 "<
b00000000000000000000000000000000 _
b00000000000000000000000110011111 "!
#356
0"5
0"O
#361
b00000000000000000000000000000000 `
b00000000000000000000001111100111 ""
b00000000000000000000000000000010 "#
b00000000000000000000000110011111 D
b00000000000000000000000000000000 (
b0000100100 "N
1"O
b110 "0
b0101 "Q
1"5
b00000000000000000000001101000101 T
b00000000000000000000000000000000 U
b00000000000000000000001101000101 6
b00000000000000000000000000000000 7
b00000000000000000000000000000000 "<
b00000000000000000000000101100000 "!
#366
0"5
0"O
#371
b00000000000000000000001101000101 ""
b00000000000000000000000000000011 "#
1"5
b00000000000000000000000000000000 T
b00000000000000000000001111100111 E
b00000000000000000000000000000000 6
b0000100101 "N
1"O
b101 "0
b0110 "Q
#376
0"5
0"O
#381
b00000000000000000000000000000100 "#
1"5
b0000100110 "N
1"O
b100 "0
b0111 "Q
#386
0"5
0"O
#391
b00000000000000000000000000000101 "#
1"5
b0000100111 "N
1"O
b011 "0
b1000 "Q
#396
0"5
0"O
#401
b00000000000000000000000000000110 "#
b00000000000000000000000000010110 "4
1"5
b00000000000000000000000000010110 J
b0000101000 "N
1"O
b010 "0
b00000000000000000000000011011100 O
b1001 "Q
#406
0"5
0"O
#411
b00000000000000000000000000000111 "#
b00000000000000000000000000010110 e
b00000000000000000000000110011111 )
b00000000000000000000000000010001 J
b00000000000000000000000000001111 K
b0000101001 "N
1"O
b001 "0
b00000000000000000000000010101010 O
b1010 "Q
b00000000000000000000000000001111 "3
b00000000000000000000000000010001 "4
1"5
b00000000000000000000001001010010 V
1">
b00000000000000000000000011011100 _
#416
0"5
0"O
#421
b00000000000000000000000000000000 "#
b00000000000000000000100001111000 H
b00000000000000000000001111110110 I
b00000000000000000000000000000000 J
b00000000000000000000000000000000 K
b011 "0
b00000000000000000000000000000000 O
b00000000000000000000000000000000 "3
b00000000000000000000000000000000 "4
1"5
b00000000000000000000000110011111 U
b00000000000000000000000111001011 V
b00000000000000000000000000001111 "<
0"=
0">
b00000000000000000000000010101010 _
b00000000000000000000001001010010 `
b00000000000000000000100100001101 "
b00000000000000000000100001111000 "D
b00000000000000000000010001000101 #
b00000000000000000000001111110110 "E
b00000000000000000000000000010001 e
b00000000000000000000001111100111 (
b00000000000000000000000010101010 )
b0000101010 "N
1"O
b0000 "Q
b010 3
b00000000000000000000000110011111 7
b00000000000000000000010001000101 "Y
b00000000000000000000100100001101 "Z
b00000000000000000000100100001101 |
b00000000000000000000001111110110 =
b00000000000000000000100001111000 >
b00000000000000000000010001000101 ~
#426
0"5
0"O
